<?xml version="1.0" encoding="UTF-8" standalone="no"?>
<!DOCTYPE svg PUBLIC "-//W3C//DTD SVG 1.1//EN" "http://www.w3.org/Graphics/SVG/1.1/DTD/svg11.dtd">
<svg width="100%" height="100%" viewBox="0 0 185 53" version="1.1" xmlns="http://www.w3.org/2000/svg" xmlns:xlink="http://www.w3.org/1999/xlink" xml:space="preserve" xmlns:serif="http://www.serif.com/" style="fill-rule:evenodd;clip-rule:evenodd;stroke-linejoin:round;stroke-miterlimit:1.41421;">
    <g transform="matrix(1,0,0,1,-42.197,-56.25)">
        <clipPath id="_clip1">
            <path d="M95.178,56.25L42.197,109.231L173.623,109.231L226.603,56.25L95.178,56.25Z" clip-rule="nonzero"/>
        </clipPath>
        <g clip-path="url(#_clip1)">
            <g transform="matrix(-0.707113,0.7071,0.7071,0.707113,180.865,73.7379)">
                <path d="M48.225,-72.955L123.151,-72.955L30.218,19.976L-44.707,19.975L48.225,-72.955Z" style="fill:rgb(222,124,0);fill-rule:nonzero;"/>
            </g>
            <g transform="matrix(1,0,0,1,57.6394,132.681)">
                <path d="M0,-66.213C15.149,-70.273 33.096,-73.724 54.281,-68.947C56.232,-68.507 58.851,-67.499 58.475,-65.249C58.313,-64.281 57.584,-63.516 57.484,-62.538C57.316,-60.9 58.895,-59.816 60.256,-59.291C70.296,-55.417 81.892,-57.524 91.185,-51.71C91.65,-51.419 92.153,-51.036 92.242,-50.435C92.349,-49.703 91.789,-49.071 91.638,-48.348C91.287,-46.669 93.078,-45.557 94.521,-45.078C107.117,-40.895 124.197,-39.721 136.792,-35.538C146.673,-32.257 172.984,-18.627 180.129,-10.164C182.85,-6.941 174.859,0.654 175.874,4.992C176.464,7.511 166.107,0.074 164.098,1.317C161.805,2.736 159.217,0.347 157.384,-1.757C144.423,-16.628 133.986,-22.428 116.862,-29.999C109.157,-33.405 94.619,-40.164 86.35,-39.83C83.887,-39.731 80.88,-39.62 79.605,-42.03C79.18,-42.834 79.046,-43.791 78.795,-44.688C77.292,-50.055 71.824,-52.584 66.902,-52.764C61.981,-52.945 57.057,-51.495 52.158,-52.049C49.195,-52.384 45.922,-53.864 44.969,-57.095C44.52,-58.614 44.657,-60.329 44.055,-61.776C42.835,-64.703 39.357,-65.106 36.541,-64.696C33.525,-64.258 30.559,-63.356 27.746,-62.023C24.779,-60.617 9.485,-51.741 6.402,-50.716C3.319,-49.692 12.261,-56.638 9.643,-58.743C7.025,-60.847 5.949,-65.562 8.061,-68.338" style="fill:white;fill-rule:nonzero;"/>
            </g>
            <g transform="matrix(1,0,0,1,179.508,74.8061)">
                <path d="M0,47.451C-11.723,34.649 -36.989,24.195 -52.905,17.262C-58.87,14.663 -62.082,13.586 -68.542,14.115C-71.205,14.333 -74.873,13.673 -77.105,12.186C-79.351,10.69 -79.742,7.573 -81.068,5.203C-82.518,2.612 -85.303,0.842 -88.235,0.647C-89.717,0.549 -91.233,0.825 -92.677,0.472C-93.705,0.221 -94.631,-0.335 -95.57,-0.828C-101.492,-3.94 -109.226,-4.545 -114.516,-0.418C-109.085,-1.77 -103.04,-0.239 -98.877,3.544C-97.605,4.699 -96.456,6.077 -94.88,6.743C-92.21,7.87 -89.014,6.666 -86.321,7.737C-81.981,9.465 -81.583,15.607 -78.433,19.093C-76.244,21.514 -72.888,22.443 -69.675,22.861C-66.462,23.279 -63.154,23.31 -60.102,24.411C-56.868,25.577 -54.155,27.865 -51.681,30.277C-49.103,32.792 -46.701,35.494 -44.5,38.354C-42.905,40.427 -41.392,42.608 -39.378,44.263C-36.955,46.256 -33.956,47.365 -30.99,48.349C-24.946,50.354 -18.522,51.996 -12.273,50.789C-12.135,50.763 -11.998,50.735 -11.861,50.707" style="fill:white;fill-rule:nonzero;"/>
            </g>
            <g transform="matrix(1,0,0,1,195.847,70.4498)">
                <path d="M0,0C0,3.418 -2.771,6.188 -6.188,6.188C-9.606,6.188 -12.376,3.418 -12.376,0C-12.376,-3.418 -9.606,-6.188 -6.188,-6.188C-2.771,-6.188 0,-3.418 0,0" style="fill:rgb(232,223,47);fill-rule:nonzero;"/>
            </g>
            <g transform="matrix(1,0,0,1,46.626,49.2327)">
                <path d="M0,48.115L-0.971,46.654C-0.786,46.531 17.902,34.258 47.061,27.644C73.971,21.54 115.589,19.126 161.023,42.29L160.228,43.852C74.205,0 0.733,47.628 0,48.115" style="fill:rgb(0,87,96);fill-rule:nonzero;"/>
            </g>
            <g transform="matrix(-1,-0,-0,1,252.91,-638.697)">
                <rect x="42.244" y="737.912" width="168.422" height="4.763" style="fill:rgb(0,87,96);"/>
            </g>
            <g transform="matrix(-1,-0,-0,1,131.248,-666.49)">
                <rect x="65.293" y="740.027" width="0.662" height="28.326" style="fill:rgb(0,87,96);"/>
            </g>
            <g transform="matrix(-1,-0,-0,1,136.726,-667.655)">
                <rect x="68.032" y="739.802" width="0.662" height="29.941" style="fill:rgb(0,87,96);"/>
            </g>
            <g transform="matrix(-1,-0,-0,1,118.016,-666.49)">
                <rect x="58.677" y="740.027" width="0.662" height="28.326" style="fill:rgb(0,87,96);"/>
            </g>
            <g transform="matrix(-1,-0,-0,1,123.496,-667.655)">
                <rect x="61.417" y="739.802" width="0.662" height="29.941" style="fill:rgb(0,87,96);"/>
            </g>
            <g transform="matrix(-1,-0,-0,1,105.562,-665.324)">
                <rect x="52.45" y="739.444" width="0.662" height="28.326" style="fill:rgb(0,87,96);"/>
            </g>
            <g transform="matrix(-1,-0,-0,1,111.04,-666.489)">
                <rect x="55.189" y="739.219" width="0.662" height="29.941" style="fill:rgb(0,87,96);"/>
            </g>
            <g transform="matrix(-1,-0,-0,1,146.25,-668.519)">
                <rect x="72.794" y="738.936" width="0.662" height="32.537" style="fill:rgb(0,87,96);"/>
            </g>
            <g transform="matrix(-1,-0,-0,1,152.888,-669.22)">
                <rect x="76.113" y="738.936" width="0.662" height="33.238" style="fill:rgb(0,87,96);"/>
            </g>
            <g transform="matrix(-1,-0,-0,1,162.412,-670.371)">
                <rect x="80.875" y="738.936" width="0.662" height="34.389" style="fill:rgb(0,87,96);"/>
            </g>
            <g transform="matrix(-1,-0,-0,1,169.34,-670.873)">
                <rect x="84.339" y="738.936" width="0.662" height="34.891" style="fill:rgb(0,87,96);"/>
            </g>
            <g transform="matrix(-1,-0,-0,1,178.78,-672.056)">
                <rect x="89.059" y="738.936" width="0.662" height="36.074" style="fill:rgb(0,87,96);"/>
            </g>
            <g transform="matrix(-1,-0,-0,1,186.366,-671.867)">
                <rect x="92.852" y="737.911" width="0.662" height="37.935" style="fill:rgb(0,87,96);"/>
            </g>
            <g transform="matrix(-1,-0,-0,1,195.314,-671.867)">
                <rect x="97.326" y="737.911" width="0.662" height="37.935" style="fill:rgb(0,87,96);"/>
            </g>
            <g transform="matrix(-1,-0,-0,1,202.818,-673.174)">
                <rect x="101.078" y="738.056" width="0.662" height="38.952" style="fill:rgb(0,87,96);"/>
            </g>
            <g transform="matrix(-1,-0,-0,1,211.778,-674.754)">
                <rect x="105.558" y="739.355" width="0.662" height="37.934" style="fill:rgb(0,87,96);"/>
            </g>
            <g transform="matrix(-1,-0,-0,1,219.28,-675.484)">
                <rect x="109.309" y="739.21" width="0.662" height="38.954" style="fill:rgb(0,87,96);"/>
            </g>
            <g transform="matrix(-1,-0,-0,1,228.228,-676.486)">
                <rect x="113.783" y="740.221" width="0.662" height="37.934" style="fill:rgb(0,87,96);"/>
            </g>
            <g transform="matrix(-1,-0,-0,1,236.022,-676.35)">
                <rect x="117.68" y="739.643" width="0.662" height="38.954" style="fill:rgb(0,87,96);"/>
            </g>
            <g transform="matrix(-1,-0,-0,1,244.636,-677.063)">
                <rect x="121.987" y="740.509" width="0.662" height="37.935" style="fill:rgb(0,87,96);"/>
            </g>
            <g transform="matrix(-1,-0,-0,1,253.008,-676.35)">
                <rect x="126.173" y="739.643" width="0.662" height="38.954" style="fill:rgb(0,87,96);"/>
            </g>
            <g transform="matrix(-1,-0,-0,1,260.83,-676.638)">
                <rect x="130.084" y="739.788" width="0.662" height="38.952" style="fill:rgb(0,87,96);"/>
            </g>
            <g transform="matrix(-1,-0,-0,1,269.57,-676.062)">
                <rect x="134.454" y="739.5" width="0.662" height="38.952" style="fill:rgb(0,87,96);"/>
            </g>
            <g transform="matrix(-1,-0,-0,1,277.57,-676.062)">
                <rect x="138.454" y="739.5" width="0.662" height="38.952" style="fill:rgb(0,87,96);"/>
            </g>
            <g transform="matrix(-1,-0,-0,1,287.094,-675.196)">
                <rect x="143.216" y="739.067" width="0.662" height="38.952" style="fill:rgb(0,87,96);"/>
            </g>
            <g transform="matrix(-1,-0,-0,1,294.308,-674.906)">
                <rect x="146.823" y="738.922" width="0.662" height="38.952" style="fill:rgb(0,87,96);"/>
            </g>
            <g transform="matrix(-1,-0,-0,1,303.832,-672.886)">
                <rect x="151.585" y="737.911" width="0.662" height="38.954" style="fill:rgb(0,87,96);"/>
            </g>
            <g transform="matrix(-1,-0,-0,1,311.048,-672.886)">
                <rect x="155.193" y="737.911" width="0.662" height="38.954" style="fill:rgb(0,87,96);"/>
            </g>
            <g transform="matrix(-1,-0,-0,1,321.724,-672.886)">
                <rect x="160.531" y="737.911" width="0.662" height="38.954" style="fill:rgb(0,87,96);"/>
            </g>
            <g transform="matrix(-1,-0,-0,1,328.364,-671.875)">
                <rect x="163.851" y="737.911" width="0.662" height="37.943" style="fill:rgb(0,87,96);"/>
            </g>
            <g transform="matrix(-1,-0,-0,1,339.042,-671.031)">
                <rect x="169.19" y="737.911" width="0.662" height="37.099" style="fill:rgb(0,87,96);"/>
            </g>
            <g transform="matrix(-1,-0,-0,1,346.134,-671.031)">
                <rect x="172.736" y="737.911" width="0.662" height="37.099" style="fill:rgb(0,87,96);"/>
            </g>
            <g transform="matrix(-1,-0,-0,1,357.224,-669.345)">
                <rect x="178.281" y="737.911" width="0.662" height="35.413" style="fill:rgb(0,87,96);"/>
            </g>
            <g transform="matrix(-1,-0,-0,1,363.864,-668.515)">
                <rect x="181.601" y="737.911" width="0.662" height="34.583" style="fill:rgb(0,87,96);"/>
            </g>
            <g transform="matrix(-1,-0,-0,1,375.696,-667.09)">
                <rect x="187.517" y="737.911" width="0.662" height="33.158" style="fill:rgb(0,87,96);"/>
            </g>
            <g transform="matrix(-1,-0,-0,1,382.044,-666.264)">
                <rect x="190.691" y="737.911" width="0.662" height="32.332" style="fill:rgb(0,87,96);"/>
            </g>
            <g transform="matrix(-1,-0,-0,1,391.168,-664.999)">
                <rect x="195.253" y="737.911" width="0.662" height="31.067" style="fill:rgb(0,87,96);"/>
            </g>
            <g transform="matrix(-1,-0,-0,1,397.92,-663.787)">
                <rect x="198.629" y="737.911" width="0.662" height="29.855" style="fill:rgb(0,87,96);"/>
            </g>
            <g transform="matrix(-1,-0,-0,1,407.154,-662.565)">
                <rect x="203.246" y="737.911" width="0.662" height="28.633" style="fill:rgb(0,87,96);"/>
            </g>
            <g transform="matrix(-1,-0,-0,1,414.502,-661.353)">
                <rect x="206.92" y="737.911" width="0.662" height="27.421" style="fill:rgb(0,87,96);"/>
            </g>
            <g transform="matrix(-0.668305,-0.743887,-0.743887,0.668305,64.7614,73.6291)">
                <rect x="-11.431" y="5.096" width="14" height="0.661" style="fill:rgb(0,87,96);"/>
            </g>
            <g transform="matrix(1,0,0,1,219.006,43.1335)">
                <path d="M0,38.646C-48.999,19.457 -91.045,19.429 -117.689,22.787C-146.568,26.424 -164.085,34.708 -164.259,34.791L-165.017,33.211C-164.316,32.873 -93.872,0 0.638,37.013L0,38.646Z" style="fill:rgb(0,87,96);fill-rule:nonzero;"/>
            </g>
            <g transform="matrix(0.0359225,-0.999355,-0.999355,-0.0359225,161.43,-10.5196)">
                <path d="M-91.514,-56.213C-57.913,30.484 -92.681,92.868 -93.034,93.489L-91.514,94.361C-91.155,93.734 -55.962,30.671 -89.878,-56.848L-91.514,-56.213Z" style="fill:rgb(0,87,96);fill-rule:nonzero;"/>
            </g>
            <g transform="matrix(-0.632257,-0.774759,-0.774759,0.632257,68.6399,72.5325)">
                <rect x="-10.942" y="5.193" width="13.72" height="0.662" style="fill:rgb(0,87,96);"/>
            </g>
            <g transform="matrix(-0.691755,-0.722132,-0.722132,0.691755,71.8993,70.1373)">
                <rect x="-12.125" y="5.176" width="14.618" height="0.663" style="fill:rgb(0,87,96);"/>
            </g>
            <g transform="matrix(-0.647738,-0.761863,-0.761863,0.647738,76.8014,69.723)">
                <rect x="-10.389" y="4.802" width="12.917" height="0.663" style="fill:rgb(0,87,96);"/>
            </g>
            <g transform="matrix(-0.729013,-0.6845,-0.6845,0.729013,80.5259,67.7154)">
                <rect x="-12.126" y="4.801" width="14.289" height="0.663" style="fill:rgb(0,87,96);"/>
            </g>
            <g transform="matrix(-0.621055,-0.783767,-0.783767,0.621055,56.0471,77.9614)">
                <rect x="-10.87" y="5.255" width="13.73" height="0.661" style="fill:rgb(0,87,96);"/>
            </g>
            <g transform="matrix(-0.620985,-0.783823,-0.783823,0.620985,60.4085,76.1621)">
                <rect x="-10.87" y="5.256" width="13.732" height="0.661" style="fill:rgb(0,87,96);"/>
            </g>
            <g transform="matrix(-0.715564,-0.698548,-0.698548,0.715564,83.5879,67.1353)">
                <rect x="-11.414" y="4.647" width="13.576" height="0.663" style="fill:rgb(0,87,96);"/>
            </g>
            <g transform="matrix(-0.715469,-0.698644,-0.698644,0.715469,89.0878,65.8536)">
                <rect x="-11.75" y="4.784" width="13.968" height="0.663" style="fill:rgb(0,87,96);"/>
            </g>
            <g transform="matrix(-0.702521,-0.711663,-0.711663,0.702521,92.6654,65.3055)">
                <rect x="-11.124" y="4.649" width="13.345" height="0.663" style="fill:rgb(0,87,96);"/>
            </g>
            <g transform="matrix(-0.715469,-0.698644,-0.698644,0.715469,105.815,63.0958)">
                <rect x="-11.75" y="4.784" width="13.968" height="0.663" style="fill:rgb(0,87,96);"/>
            </g>
            <g transform="matrix(-0.702521,-0.711663,-0.711663,0.702521,109.391,62.5477)">
                <rect x="-11.124" y="4.649" width="13.345" height="0.663" style="fill:rgb(0,87,96);"/>
            </g>
            <g transform="matrix(-0.715469,-0.698644,-0.698644,0.715469,114.564,62.3054)">
                <rect x="-11.75" y="4.784" width="13.968" height="0.663" style="fill:rgb(0,87,96);"/>
            </g>
            <g transform="matrix(-0.702521,-0.711663,-0.711663,0.702521,117.997,62.3352)">
                <rect x="-11.124" y="4.649" width="13.345" height="0.663" style="fill:rgb(0,87,96);"/>
            </g>
            <g transform="matrix(-0.715399,-0.698716,-0.698716,0.715399,122.954,61.6575)">
                <rect x="-11.748" y="4.785" width="13.967" height="0.663" style="fill:rgb(0,87,96);"/>
            </g>
            <g transform="matrix(-0.702434,-0.711749,-0.711749,0.702434,126.606,61.5976)">
                <rect x="-11.644" y="4.868" width="13.956" height="0.662" style="fill:rgb(0,87,96);"/>
            </g>
            <g transform="matrix(-0.687996,-0.725715,-0.725715,0.687996,149.906,69.1417)">
                <rect x="4.279" y="-1.84" width="0.664" height="13.338" style="fill:rgb(0,87,96);"/>
            </g>
            <g transform="matrix(-0.70256,-0.711625,-0.711625,0.70256,145.411,68.8837)">
                <rect x="4.252" y="-1.787" width="0.687" height="13.543" style="fill:rgb(0,87,96);"/>
            </g>
            <g transform="matrix(-0.687996,-0.725715,-0.725715,0.687996,158.824,69.7253)">
                <rect x="4.355" y="-1.872" width="0.663" height="13.544" style="fill:rgb(0,87,96);"/>
            </g>
            <g transform="matrix(-0.687996,-0.725715,-0.725715,0.687996,166.862,71.1441)">
                <rect x="4.354" y="-1.872" width="0.665" height="13.546" style="fill:rgb(0,87,96);"/>
            </g>
            <g transform="matrix(-0.687996,-0.725715,-0.725715,0.687996,163.61,70.1151)">
                <rect x="4.355" y="-1.872" width="0.663" height="13.544" style="fill:rgb(0,87,96);"/>
            </g>
            <g transform="matrix(-0.687996,-0.725715,-0.725715,0.687996,172.326,71.571)">
                <rect x="4.355" y="-1.872" width="0.663" height="13.544" style="fill:rgb(0,87,96);"/>
            </g>
            <g transform="matrix(-0.687996,-0.725715,-0.725715,0.687996,175.645,72.4228)">
                <rect x="4.354" y="-1.872" width="0.665" height="13.546" style="fill:rgb(0,87,96);"/>
            </g>
            <g transform="matrix(-0.687996,-0.725715,-0.725715,0.687996,181.215,73.6924)">
                <rect x="4.355" y="-1.872" width="0.663" height="13.544" style="fill:rgb(0,87,96);"/>
            </g>
            <g transform="matrix(-0.687996,-0.725715,-0.725715,0.687996,184.762,74.3857)">
                <rect x="4.355" y="-1.872" width="0.663" height="13.544" style="fill:rgb(0,87,96);"/>
            </g>
            <g transform="matrix(-0.732362,-0.680915,-0.680915,0.732362,190.74,74.7429)">
                <rect x="4.027" y="-1.584" width="0.674" height="13.546" style="fill:rgb(0,87,96);"/>
            </g>
            <g transform="matrix(-0.732362,-0.680915,-0.680915,0.732362,193.539,75.9284)">
                <rect x="4.028" y="-1.583" width="0.674" height="13.544" style="fill:rgb(0,87,96);"/>
            </g>
            <g transform="matrix(-0.732362,-0.680915,-0.680915,0.732362,199.699,77.7995)">
                <rect x="4.027" y="-1.584" width="0.674" height="13.546" style="fill:rgb(0,87,96);"/>
            </g>
            <g transform="matrix(-0.732362,-0.680915,-0.680915,0.732362,203.08,78.4857)">
                <rect x="4.029" y="-1.584" width="0.673" height="13.547" style="fill:rgb(0,87,96);"/>
            </g>
            <g transform="matrix(-0.732362,-0.680915,-0.680915,0.732362,207.804,80.3314)">
                <rect x="4.226" y="-1.661" width="0.675" height="14.131" style="fill:rgb(0,87,96);"/>
            </g>
            <g transform="matrix(-0.732362,-0.680915,-0.680915,0.732362,210.744,81.8517)">
                <rect x="4.226" y="-1.661" width="0.676" height="14.131" style="fill:rgb(0,87,96);"/>
            </g>
            <g transform="matrix(-0.70256,-0.711625,-0.711625,0.70256,154.763,68.9515)">
                <rect x="4.252" y="-1.787" width="0.687" height="13.543" style="fill:rgb(0,87,96);"/>
            </g>
            <g transform="matrix(-0.687996,-0.725715,-0.725715,0.687996,141.671,68.8067)">
                <rect x="4.587" y="-1.972" width="0.663" height="14.183" style="fill:rgb(0,87,96);"/>
            </g>
            <g transform="matrix(-0.70256,-0.711625,-0.711625,0.70256,137.437,68.4574)">
                <rect x="4.472" y="-1.88" width="0.688" height="14.162" style="fill:rgb(0,87,96);"/>
            </g>
            <g transform="matrix(-0.702521,-0.711663,-0.711663,0.702521,100.643,63.7495)">
                <rect x="-11.124" y="4.649" width="13.345" height="0.663" style="fill:rgb(0,87,96);"/>
            </g>
            <g transform="matrix(-0.723877,-0.68993,-0.68993,0.723877,97.1089,63.9639)">
                <rect x="-12.087" y="4.837" width="14.287" height="0.661" style="fill:rgb(0,87,96);"/>
            </g>
        </g>
    </g>
</svg>
