<?xml version="1.0" encoding="UTF-8" standalone="no"?>
<!DOCTYPE svg PUBLIC "-//W3C//DTD SVG 1.1//EN" "http://www.w3.org/Graphics/SVG/1.1/DTD/svg11.dtd">
<svg width="100%" height="100%" viewBox="0 0 222 773" version="1.1" xmlns="http://www.w3.org/2000/svg" xmlns:xlink="http://www.w3.org/1999/xlink" xml:space="preserve" xmlns:serif="http://www.serif.com/" style="fill-rule:evenodd;clip-rule:evenodd;stroke-miterlimit:10;">
    <g transform="matrix(4.16667,0,0,4.16667,-1161.51,-1663.3)">
        <clipPath id="_clip1">
            <path d="M278.762,452.458L278.762,584.593L332.028,531.326L332.028,399.192L278.762,452.458Z" clip-rule="nonzero"/>
        </clipPath>
        <g clip-path="url(#_clip1)">
            <g transform="matrix(0,1,1,0,344.828,465.259)">
                <path d="M-12.8,-66.066L119.333,-66.066L66.068,-12.8L-66.068,-12.8L-12.8,-66.066Z" style="fill:rgb(70,199,238);fill-rule:nonzero;"/>
            </g>
            <g transform="matrix(0,1,1,0,349.326,513.929)">
                <path d="M-17.315,-70.565L70.565,-70.565L17.314,-17.315L-17.315,-17.315L-17.315,-70.565Z" style="fill:rgb(240,233,52);fill-rule:nonzero;"/>
            </g>
            <g transform="matrix(1,0,0,1,274.508,476.362)">
                <path d="M0,-9.103C-0.054,-11.297 0.826,-14.058 3.481,-14.542C5.465,-14.905 7.367,-13.651 8.126,-12.152C8.859,-13.171 10.989,-13.186 11.653,-12.177C10.158,-14.449 12.926,-16.771 14.943,-17.482C16.466,-18.019 19.432,-17.299 19.823,-15.393C20.215,-17.852 22.694,-18.093 24.332,-17.21C23.513,-20.788 27.378,-25.9 31.882,-25.95C36.385,-26 40.138,-22.177 39.118,-18.578C40.357,-19.039 41.839,-18.524 42.654,-17.679C43.468,-16.834 43.772,-15.736 44.054,-14.675C45.747,-16.053 48.528,-16.432 50.585,-15.566C52.507,-14.756 53.649,-12.919 53.391,-11.143C53.342,-11.026 53.315,-10.902 53.316,-10.773C53.348,-10.896 53.373,-11.019 53.391,-11.143C53.672,-11.82 54.706,-12.276 55.611,-12.191C56.672,-12.091 57.525,-11.475 58.205,-10.819C57.903,-11.837 58.46,-13.01 59.539,-13.628C60.618,-14.246 62.145,-14.268 63.195,-13.68C63.117,-16.492 66.693,-18.957 70.137,-18.778C73.581,-18.599 76.392,-16.164 76.913,-13.397C78.821,-14.733 81.66,-14.913 83.928,-14.177C86.195,-13.442 87.938,-11.917 89.171,-10.21C89.553,-9.681 103.895,9.776 96.499,0.657C96.499,0.657 -14.265,16.897 4.763,15.405C4.763,15.405 -8.006,-1.759 -3.933,-3.574C-2.822,-4.068 2.411,-3.267 1.217,-3.362C0.423,-5.179 0.048,-7.153 0,-9.103" style="fill:white;fill-rule:nonzero;"/>
            </g>
            <g transform="matrix(1,0,0,1,283.422,481.489)">
                <path d="M0,0C0,2.469 -3.16,4.47 -7.059,4.47C-10.958,4.47 -14.118,2.469 -14.118,0C-14.118,-2.469 -10.958,-4.47 -7.059,-4.47C-3.16,-4.47 0,-2.469 0,0" style="fill:rgb(59,140,174);fill-rule:nonzero;"/>
            </g>
            <g transform="matrix(1,0,0,1,341.41,481.489)">
                <path d="M0,0C0,2.469 -3.16,4.47 -7.059,4.47C-10.958,4.47 -14.118,2.469 -14.118,0C-14.118,-2.469 -10.958,-4.47 -7.059,-4.47C-3.16,-4.47 0,-2.469 0,0" style="fill:rgb(59,140,174);fill-rule:nonzero;"/>
            </g>
            <g transform="matrix(1,0,0,1,309.635,467.872)">
                <path d="M0,0C0,1.803 -1.743,3.265 -3.893,3.265C-6.044,3.265 -7.787,1.803 -7.787,0C-7.787,-1.803 -6.044,-3.265 -3.893,-3.265C-1.743,-3.265 0,-1.803 0,0" style="fill:rgb(59,140,174);fill-rule:nonzero;"/>
            </g>
            <g transform="matrix(1,0,0,1,288.973,466.731)">
                <path d="M0,8.922C0,8.922 4.405,-0.993 16.511,-0.993C28.617,-0.993 33.64,7.929 33.523,8.922C33.406,9.915 0,8.922 0,8.922" style="fill:rgb(59,140,174);fill-rule:nonzero;"/>
            </g>
            <g transform="matrix(1,0,0,1,283.833,471.836)">
                <path d="M0,8.767C0,8.767 6.332,-1.776 21.574,-1.776C36.816,-1.776 43.848,8.691 43.848,8.691L40.661,9.888L2.549,10.543L0,8.767Z" style="fill:rgb(247,144,29);fill-rule:nonzero;"/>
            </g>
            <g transform="matrix(-1,-0,-0,1,281.02,495.287)">
                <path d="M1.451,-12.908L2.372,-12.908L2.259,0L-0.921,-7.158L1.451,-12.908Z" style="fill:rgb(247,144,29);fill-rule:nonzero;"/>
            </g>
            <g transform="matrix(-1,-0,-0,1,613.71,150.011)">
                <rect x="278.761" y="345.276" width="56.188" height="1.327" style="fill:rgb(240,233,52);"/>
            </g>
            <g transform="matrix(-1,-0,-0,1,279.006,513.008)">
                <path d="M-52.734,0.941L0,0.941L-0.266,0L-52.734,0L-52.734,0.941Z" style="fill:rgb(247,144,29);fill-rule:nonzero;"/>
            </g>
            <g transform="matrix(-1,-0,-0,1,611.056,182.096)">
                <rect x="279.56" y="329.662" width="51.936" height="0.47" style="fill:rgb(247,144,29);"/>
            </g>
            <g transform="matrix(1,0,0,1,295.642,499.126)">
                <path d="M0,1.596L-12.057,1.596L-12.389,0.399L-16.88,0.399L-16.88,0L-12.086,0L-11.754,1.197L0,1.197L0,1.596Z" style="fill:rgb(247,144,29);fill-rule:nonzero;"/>
            </g>
            <g transform="matrix(1,0,0,1,314.882,499.126)">
                <path d="M0,1.596L12.323,1.596L12.656,0.399L17.146,0.399L17.146,0L12.352,0L12.02,1.197L0.057,1.197L0,1.596Z" style="fill:rgb(247,144,29);fill-rule:nonzero;"/>
            </g>
            <g transform="matrix(1,0,0,1,295.642,498.261)">
                <path d="M0,1.596L-11.259,1.596L-11.591,0.399L-16.88,0.399L-16.88,0L-11.288,0L-10.956,1.197L0,1.197L0,1.596Z" style="fill:rgb(247,144,29);fill-rule:nonzero;"/>
            </g>
            <g transform="matrix(1,0,0,1,314.882,498.261)">
                <path d="M0,1.596L11.259,1.596L11.591,0.399L17.146,0.399L17.146,0L11.288,0L10.956,1.197L0,1.197L0,1.596Z" style="fill:rgb(247,144,29);fill-rule:nonzero;"/>
            </g>
            <g transform="matrix(0.0180994,-0.999836,-0.999836,-0.0180994,307.343,488.318)">
                <path d="M-11.401,-7.746C-8.126,2.479 -11.712,11.401 -11.749,11.491L-11.401,11.702C-11.363,11.611 -7.722,2.472 -11.043,-7.896L-11.401,-7.746Z" style="fill:rgb(247,144,29);fill-rule:nonzero;"/>
            </g>
            <g transform="matrix(0.0202881,-0.999794,-0.999794,-0.0202881,307.427,489.203)">
                <path d="M-11.365,-7.687C-8.111,2.552 -11.719,11.459 -11.756,11.549L-11.365,11.684C-11.327,11.593 -7.661,2.54 -10.959,-7.836L-11.365,-7.687Z" style="fill:rgb(247,144,29);fill-rule:nonzero;"/>
            </g>
            <g transform="matrix(0.026872,-0.999639,-0.999639,-0.026872,307.297,494.189)">
                <path d="M-10.069,-7.15C-7.056,-6.304 -7.894,10.343 -10.537,10.272L-10.069,10.34C-7.362,10.358 -6.881,-6.907 -9.63,-7.208L-10.069,-7.15Z" style="fill:rgb(247,144,29);fill-rule:nonzero;"/>
            </g>
            <g transform="matrix(1,0,0,1,0,166.534)">
                <rect x="314.174" y="337.443" width="15.859" height="0.47" style="fill:rgb(247,144,29);"/>
            </g>
            <g transform="matrix(-1,-0,-0,1,577.768,166.532)">
                <rect x="281.023" y="337.444" width="15.722" height="0.47" style="fill:rgb(247,144,29);"/>
            </g>
            <g transform="matrix(1,0,0,1,0,150.868)">
                <rect x="313.392" y="345.276" width="18.636" height="0.47" style="fill:rgb(247,144,29);"/>
            </g>
            <g transform="matrix(-1,-0,-0,1,576.088,150.868)">
                <rect x="278.761" y="345.276" width="18.566" height="0.47" style="fill:rgb(247,144,29);"/>
            </g>
            <g transform="matrix(1,0,0,1,0,149.143)">
                <rect x="313.392" y="346.261" width="18.636" height="0.225" style="fill:rgb(247,144,29);"/>
            </g>
            <g transform="matrix(-1,-0,-0,1,576.088,149.143)">
                <rect x="278.761" y="346.261" width="18.566" height="0.225" style="fill:rgb(247,144,29);"/>
            </g>
            <g transform="matrix(1,0,0,1,0,148.685)">
                <rect x="313.392" y="346.49" width="18.636" height="0.225" style="fill:rgb(240,233,52);"/>
            </g>
            <g transform="matrix(-1,-0,-0,1,576.088,148.685)">
                <rect x="278.761" y="346.49" width="18.566" height="0.225" style="fill:rgb(240,233,52);"/>
            </g>
            <g transform="matrix(-1,-0,-0,1,580.168,175.72)">
                <rect x="280.225" y="332.85" width="19.718" height="0.47" style="fill:rgb(247,144,29);"/>
            </g>
            <g transform="matrix(1,0,0,1,0,175.72)">
                <rect x="310.895" y="332.85" width="19.936" height="0.47" style="fill:rgb(247,144,29);"/>
            </g>
            <g transform="matrix(1,0,0,1,300.697,505.884)">
                <path d="M0,0.691C-1.403,0.563 -3.652,-0.259 -3.836,-1.94C-3.941,-1.624 -4.007,-1.105 -4.007,-0.611C-4.007,-0.093 -3.882,0.398 -3.66,0.836C-2.247,2.351 -0.355,2.631 4.257,1.866C4.649,1.536 4.14,1.14 4.345,0.674C3.443,0.744 0.918,0.788 0,0.691" style="fill:rgb(247,144,29);fill-rule:nonzero;"/>
            </g>
            <g transform="matrix(1,0,0,1,297.037,508.6)">
                <path d="M0,-1.881C0.566,-0.768 1.765,0 3.153,0C4.042,0 4.853,-0.315 5.47,-0.835C3.454,-0.561 1.413,-0.366 0,-1.881" style="fill:rgb(59,140,174);fill-rule:nonzero;"/>
            </g>
            <g transform="matrix(1,0,0,1,313.773,508.601)">
                <path d="M0,-4.793C0.192,-2.266 -3.199,-1.542 -5.494,-2.026C-5.806,-2.088 -8.425,-2.013 -8.731,-2.042C-8.608,-1.731 -9.617,-1.343 -9.196,-1.094C-7.909,-0.336 -4.272,0 -3.141,0C-1.208,0 0.471,-1.54 0.471,-3.378C0.471,-3.904 0.471,-4.591 0,-4.793" style="fill:rgb(247,144,29);fill-rule:nonzero;"/>
            </g>
            <g transform="matrix(-0.0428751,-0.99908,-0.99908,0.0428751,305.425,502.456)">
                <path d="M-5.952,-5.22C-4.816,-0.964 -5.029,2.918 -5.482,5.722L-5.952,5.742C-5.497,2.955 -5.262,-0.933 -6.421,-5.199L-5.952,-5.22Z" style="fill:rgb(59,140,174);fill-rule:nonzero;"/>
            </g>
            <g transform="matrix(1,0,0,1,313.843,508.6)">
                <path d="M0,-1.881C-0.566,-0.768 -1.765,0 -3.153,0C-4.042,0 -4.853,-0.315 -5.47,-0.835C-3.454,-0.561 -1.413,-0.366 0,-1.881" style="fill:rgb(59,140,174);fill-rule:nonzero;"/>
            </g>
            <g transform="matrix(-0.0428751,-0.99908,-0.99908,0.0428751,305.425,502.848)">
                <path d="M-5.952,-5.22C-4.816,-0.964 -5.029,2.918 -5.482,5.722L-5.952,5.742C-5.497,2.955 -5.262,-0.933 -6.421,-5.199L-5.952,-5.22Z" style="fill:rgb(247,144,29);fill-rule:nonzero;"/>
            </g>
            <g transform="matrix(1,0,0,1,307.002,504.681)">
                <path d="M0,0C0,0.881 -0.714,1.594 -1.594,1.594C-2.475,1.594 -3.189,0.881 -3.189,0C-3.189,-0.881 -2.475,-1.594 -1.594,-1.594C-0.714,-1.594 0,-0.881 0,0" style="fill:rgb(247,144,29);fill-rule:nonzero;"/>
            </g>
            <g transform="matrix(1,0,0,1,306.803,504.868)">
                <path d="M0,0C0,0.778 -0.63,1.408 -1.408,1.408C-2.185,1.408 -2.816,0.778 -2.816,0C-2.816,-0.777 -2.185,-1.408 -1.408,-1.408C-0.63,-1.408 0,-0.777 0,0" style="fill:rgb(240,233,52);fill-rule:nonzero;"/>
            </g>
            <g transform="matrix(1,0,0,1,303.988,503.333)">
                <path d="M0,3.907C-0.588,3.794 -1.105,3.341 -1.58,2.52C-1.976,1.835 -2.47,0.982 -3.21,0.622C-3.614,0.426 -4.236,0.437 -4.656,0.649C-4.933,0.788 -5.099,0.993 -5.149,1.257C-5.189,1.472 -5.103,1.713 -4.931,1.872C-4.768,2.021 -4.534,2.083 -4.35,2.025C-4.167,1.968 -4.03,1.775 -4.05,1.604C-4.064,1.489 -4.233,1.343 -4.363,1.335C-4.396,1.333 -4.431,1.33 -4.454,1.421C-4.462,1.451 -4.436,1.495 -4.421,1.502C-4.422,1.501 -4.427,1.5 -4.434,1.501L-4.383,1.91C-4.515,1.927 -4.645,1.874 -4.741,1.766C-4.849,1.643 -4.893,1.472 -4.854,1.32C-4.788,1.059 -4.589,0.909 -4.336,0.923C-4.003,0.945 -3.678,1.24 -3.641,1.556C-3.597,1.923 -3.855,2.302 -4.226,2.418C-4.552,2.521 -4.938,2.425 -5.21,2.175C-5.485,1.923 -5.62,1.532 -5.554,1.181C-5.481,0.789 -5.234,0.478 -4.842,0.28C-4.309,0.012 -3.547,0 -3.029,0.251C-2.176,0.666 -1.647,1.58 -1.223,2.314C-0.811,3.024 -0.386,3.413 0.078,3.502L0,3.907Z" style="fill:rgb(247,144,29);fill-rule:nonzero;"/>
            </g>
            <g transform="matrix(1,0,0,1,306.866,503.333)">
                <path d="M0,3.907L-0.078,3.502C0.386,3.413 0.811,3.024 1.223,2.314C1.648,1.58 2.177,0.666 3.029,0.251C3.547,0 4.309,0.012 4.842,0.28C5.234,0.478 5.481,0.789 5.554,1.181C5.62,1.533 5.485,1.923 5.21,2.175C4.938,2.425 4.552,2.521 4.226,2.418C3.855,2.302 3.598,1.923 3.641,1.556C3.678,1.24 4.003,0.945 4.336,0.923C4.59,0.907 4.788,1.058 4.854,1.32C4.893,1.472 4.849,1.643 4.741,1.766C4.645,1.874 4.514,1.927 4.383,1.91L4.434,1.501C4.436,1.495 4.462,1.451 4.454,1.421C4.431,1.33 4.396,1.333 4.363,1.335C4.233,1.343 4.064,1.489 4.05,1.604C4.03,1.775 4.167,1.968 4.35,2.025C4.534,2.083 4.768,2.021 4.931,1.872C5.103,1.713 5.189,1.472 5.149,1.257C5.099,0.993 4.933,0.788 4.656,0.649C4.236,0.437 3.614,0.426 3.21,0.622C2.47,0.982 1.977,1.835 1.58,2.52C1.105,3.341 0.588,3.794 0,3.907" style="fill:rgb(247,144,29);fill-rule:nonzero;"/>
            </g>
            <g transform="matrix(1,0,0,1,303.326,526.75)">
                <path d="M0,3.018L-0.412,3.018C-0.412,3.018 -0.434,0 2.14,0C4.731,0 4.731,3.018 4.731,3.018L4.202,3.018C4.202,3.018 3.94,1.308 2.14,1.308C0.341,1.308 0,3.018 0,3.018" style="fill:rgb(247,144,29);fill-rule:nonzero;"/>
            </g>
            <g transform="matrix(1,0,0,1,304.51,534.682)">
                <path d="M0,2.488L1.907,2.444C2.061,2.111 2.202,1.674 2.33,1.181C1.316,0.775 0.309,0.358 -0.702,0C-0.514,0.989 -0.28,1.907 0,2.488" style="fill:rgb(70,199,238);fill-rule:nonzero;"/>
            </g>
            <g transform="matrix(1,0,0,1,305.467,535.863)">
                <path d="M0,-7.938C-1.212,-7.938 -2.195,-6.955 -2.195,-5.743C-2.195,-5.142 -2.01,-3.037 -1.659,-1.181C-0.647,-0.823 0.359,-0.406 1.374,0C1.899,-2.026 2.195,-5.012 2.195,-5.743C2.195,-6.955 1.212,-7.938 0,-7.938" style="fill:rgb(59,140,174);fill-rule:nonzero;"/>
            </g>
            <g transform="matrix(1,0,0,1,297.459,527.095)">
                <path d="M0,4.319L-0.387,4.461C-0.387,4.461 -1.445,1.634 0.972,0.749C3.404,-0.142 4.442,2.692 4.442,2.692L3.946,2.874C3.946,2.874 3.111,1.358 1.422,1.977C-0.268,2.596 0,4.319 0,4.319" style="fill:rgb(247,144,29);fill-rule:nonzero;"/>
            </g>
            <g transform="matrix(1,0,0,1,298.568,537.901)">
                <path d="M0,-4.19C-0.047,-4.19 -0.094,-4.189 -0.141,-4.188C0.623,-2.673 1.707,-0.761 2.547,0.056L4.323,-0.641C4.384,-1.375 4.253,-2.482 4.054,-3.607C2.729,-3.999 1.388,-4.246 0,-4.19" style="fill:rgb(70,199,238);fill-rule:nonzero;"/>
            </g>
            <g transform="matrix(1,0,0,1,298.835,533.877)">
                <path d="M0,-4.93C-1.138,-4.513 -1.723,-3.252 -1.306,-2.114C-1.189,-1.796 -0.852,-1.047 -0.407,-0.164C-0.36,-0.165 -0.314,-0.166 -0.266,-0.166C1.122,-0.222 2.463,0.025 3.787,0.417C3.479,-1.322 3.006,-3.106 2.816,-3.624C2.399,-4.762 1.138,-5.347 0,-4.93" style="fill:rgb(59,140,174);fill-rule:nonzero;"/>
            </g>
            <g transform="matrix(1,0,0,1,315.215,532.655)">
                <path d="M0,-0.468L-0.315,-0.734C-0.315,-0.734 1.617,-3.053 3.583,-1.392C5.562,0.28 3.614,2.585 3.614,2.585L3.21,2.244C3.21,2.244 4.113,0.768 2.739,-0.393C1.364,-1.554 0,-0.468 0,-0.468" style="fill:rgb(247,144,29);fill-rule:nonzero;"/>
            </g>
            <g transform="matrix(1,0,0,1,311.342,538.603)">
                <path d="M0,0.002L1.485,1.199C2.243,0.846 3.298,0.04 4.286,-0.806C3.006,-0.806 1.72,-0.948 0.464,-1.197C0.253,-0.751 0.088,-0.34 0,0.002" style="fill:rgb(70,199,238);fill-rule:nonzero;"/>
            </g>
            <g transform="matrix(1,0,0,1,318.3,533.923)">
                <path d="M0,1.331C0.782,0.405 0.666,-0.98 -0.26,-1.762C-1.186,-2.544 -2.571,-2.428 -3.353,-1.502C-3.834,-0.932 -5.594,1.59 -6.493,3.484C-5.237,3.732 -3.951,3.875 -2.671,3.874C-1.446,2.826 -0.325,1.715 0,1.331" style="fill:rgb(59,140,174);fill-rule:nonzero;"/>
            </g>
            <g transform="matrix(1,0,0,1,320.605,537.714)">
                <path d="M0,-1.947L-0.226,-2.292C-0.226,-2.292 2.29,-3.961 3.698,-1.806C5.114,0.363 2.588,2.014 2.588,2.014L2.299,1.571C2.299,1.571 3.587,0.416 2.602,-1.091C1.618,-2.597 0,-1.947 0,-1.947" style="fill:rgb(247,144,29);fill-rule:nonzero;"/>
            </g>
            <g transform="matrix(1,0,0,1,313.934,537.501)">
                <path d="M0,3.438L1.08,5.01C2.933,4.74 7.987,2.584 8.748,2.087C9.762,1.424 10.047,0.064 9.384,-0.951C9.219,-1.205 9.009,-1.413 8.773,-1.572C7.287,-0.65 5.657,-0.109 3.974,0.137C2.463,1.278 0.696,2.68 0,3.438" style="fill:rgb(70,199,238);fill-rule:nonzero;"/>
            </g>
            <g transform="matrix(1,0,0,1,320.281,537.142)">
                <path d="M0,-1.228C-0.323,-1.017 -1.281,-0.328 -2.373,0.497C-0.689,0.251 0.94,-0.29 2.426,-1.212C1.716,-1.689 0.761,-1.725 0,-1.228" style="fill:rgb(59,140,174);fill-rule:nonzero;"/>
            </g>
            <g transform="matrix(1,0,0,1,295.92,532.655)">
                <path d="M0,-0.468L0.315,-0.734C0.315,-0.734 -1.617,-3.053 -3.583,-1.392C-5.562,0.28 -3.614,2.585 -3.614,2.585L-3.21,2.244C-3.21,2.244 -4.113,0.768 -2.739,-0.393C-1.364,-1.554 0,-0.468 0,-0.468" style="fill:rgb(247,144,29);fill-rule:nonzero;"/>
            </g>
            <g transform="matrix(1,0,0,1,293.095,534.609)">
                <path d="M0,-2.448C-0.926,-1.666 -1.042,-0.281 -0.26,0.645C-0.228,0.684 -0.186,0.73 -0.138,0.782C1.161,-0.022 2.571,-0.587 4.1,-0.802C3.656,-1.456 3.279,-1.968 3.093,-2.188C2.311,-3.114 0.926,-3.23 0,-2.448" style="fill:rgb(59,140,174);fill-rule:nonzero;"/>
            </g>
            <g transform="matrix(1,0,0,1,298.308,533.807)">
                <path d="M0,5.995L1.485,4.798C1.166,3.564 -0.136,1.438 -1.112,0C-2.641,0.215 -4.051,0.78 -5.35,1.584C-4.536,2.475 -1.604,5.249 0,5.995" style="fill:rgb(70,199,238);fill-rule:nonzero;"/>
            </g>
            <g transform="matrix(1,0,0,1,290.53,537.714)">
                <path d="M0,-1.947L0.226,-2.292C0.226,-2.292 -2.29,-3.961 -3.697,-1.806C-5.114,0.363 -2.588,2.014 -2.588,2.014L-2.299,1.571C-2.299,1.571 -3.587,0.416 -2.602,-1.091C-1.618,-2.597 0,-1.947 0,-1.947" style="fill:rgb(247,144,29);fill-rule:nonzero;"/>
            </g>
            <g transform="matrix(1,0,0,1,287.816,538.243)">
                <path d="M0,-1.693C-0.649,-0.7 -0.388,0.622 0.575,1.3C1.535,0.137 2.583,-0.943 3.724,-1.851C3.412,-2.075 3.171,-2.243 3.038,-2.33C2.023,-2.993 0.663,-2.708 0,-1.693" style="fill:rgb(59,140,174);fill-rule:nonzero;"/>
            </g>
            <g transform="matrix(1,0,0,1,288.391,539.361)">
                <path d="M0,0.182C0.021,0.197 0.04,0.213 0.062,0.227C0.823,0.724 5.877,2.88 7.73,3.15L8.81,1.578C7.818,0.498 4.649,-1.892 3.149,-2.968C2.008,-2.061 0.961,-0.98 0,0.182" style="fill:rgb(70,199,238);fill-rule:nonzero;"/>
            </g>
            <g transform="matrix(1,0,0,1,309.404,528.564)">
                <path d="M0,1.36L-0.387,1.218C-0.387,1.218 0.629,-1.624 3.047,-0.74C5.48,0.149 4.443,2.984 4.443,2.984L3.947,2.803C3.947,2.803 4.287,1.106 2.597,0.489C0.908,-0.129 0,1.36 0,1.36" style="fill:rgb(247,144,29);fill-rule:nonzero;"/>
            </g>
            <g transform="matrix(1,0,0,1,307.975,537.896)">
                <path d="M0,-1.589C-0.024,-1.222 -0.027,-0.889 0.001,-0.613L1.807,0C2.015,-0.209 2.239,-0.484 2.469,-0.802C1.682,-1.008 0.912,-1.251 0.171,-1.524C0.114,-1.546 0.057,-1.567 0,-1.589" style="fill:rgb(70,199,238);fill-rule:nonzero;"/>
            </g>
            <g transform="matrix(1,0,0,1,312.048,536.678)">
                <path d="M0,-7.75C-1.139,-8.166 -2.399,-7.581 -2.815,-6.442C-3.084,-5.706 -3.936,-2.461 -4.073,-0.371C-4.016,-0.35 -3.959,-0.328 -3.902,-0.306C-3.161,-0.034 -2.391,0.21 -1.603,0.416C-0.372,-1.283 1.045,-4.216 1.308,-4.935C1.724,-6.074 1.138,-7.334 0,-7.75" style="fill:rgb(59,140,174);fill-rule:nonzero;"/>
            </g>
            <g transform="matrix(1,0,0,1,278.281,524.067)">
                <path d="M0,63.091L-1.195,63.012L1.265,25.919C1.276,11.626 12.908,0 27.204,0C41.507,0 53.143,11.636 53.143,25.939L51.946,25.939C51.946,12.296 40.847,1.197 27.204,1.197C13.561,1.197 2.462,12.296 2.462,25.939L2.461,25.978L0,63.091Z" style="fill:rgb(247,144,29);fill-rule:nonzero;"/>
            </g>
            <g transform="matrix(1,0,0,1,273.934,520.154)">
                <path d="M0,63.15L-1.279,63.039L1.946,25.954C1.954,18.988 4.987,12.465 10.489,7.584C16.002,2.693 23.393,0 31.303,0C39.234,0 46.695,2.692 52.311,7.579C57.952,12.489 61.059,19.025 61.059,25.982L59.775,25.982C59.775,12.363 47.003,1.283 31.303,1.283C23.707,1.283 16.618,3.862 11.341,8.543C6.11,13.184 3.229,19.377 3.229,25.982L3.227,26.037L0,63.15Z" style="fill:rgb(247,144,29);fill-rule:nonzero;"/>
            </g>
            <g transform="matrix(1,0,0,1,298.525,553.022)">
                <path d="M0,-5.397C-0.374,-3.023 -0.404,-0.595 -0.083,1.787C2.62,2.573 5.526,1.528 8.322,1.859C9.177,1.96 10.032,2.19 10.887,2.085C11.92,1.959 12.91,1.35 13.935,1.533C14.209,-0.886 14.159,-3.342 13.787,-5.748C13.712,-6.232 13.615,-6.725 13.488,-7.212C8.911,-7.97 4.48,-6.76 0,-5.397" style="fill:rgb(70,199,238);fill-rule:nonzero;"/>
            </g>
            <g transform="matrix(1,0,0,1,309.046,546.76)">
                <path d="M0,-5.26C-1.776,-6.125 -3.885,-5.621 -5.781,-5.066C-6.921,-4.732 -8.11,-4.352 -8.931,-3.493C-9.708,-2.679 -10.044,-1.547 -10.279,-0.447C-10.372,-0.012 -10.451,0.426 -10.52,0.865C-6.041,-0.499 -1.609,-1.708 2.968,-0.95C2.5,-2.753 1.63,-4.466 0,-5.26" style="fill:rgb(59,140,174);fill-rule:nonzero;"/>
            </g>
            <g transform="matrix(1,0,0,1,298.94,540.783)">
                <path d="M0,14.988L-1.197,14.952C-1.133,12.795 -1.2,10.635 -1.105,8.478C-1.019,6.509 -0.905,4.603 0.232,2.925C1.136,1.591 2.916,0 6.261,0C8.408,0 11.319,0.507 12.991,2.921C14.358,4.896 14.131,7.331 14.171,9.603C14.177,9.956 14.333,14.952 14.33,14.952L13.133,14.988L12.865,5.941C12.857,5.751 12.598,1.198 6.261,1.198C1.054,1.198 0.324,5.566 0.267,5.971L0,14.988Z" style="fill:rgb(247,144,29);fill-rule:nonzero;"/>
            </g>
            <g transform="matrix(1,0,0,1,285.151,557.246)">
                <path d="M0,-9.77C-0.113,-9.683 -0.22,-9.588 -0.32,-9.481C-0.884,-8.88 -1.153,-8.022 -1.351,-7.186C-1.853,-5.068 -2.023,-2.858 -1.853,-0.683C-0.013,0 2.028,-0.715 3.948,-0.379C4.535,-0.277 5.118,-0.075 5.712,-0.13C6.429,-0.196 7.133,-0.634 7.834,-0.463C8.103,-2.31 8.149,-4.194 7.971,-6.049C7.899,-6.798 7.765,-7.58 7.528,-8.295C4.959,-8.147 2.354,-8.639 0,-9.77" style="fill:rgb(70,199,238);fill-rule:nonzero;"/>
            </g>
            <g transform="matrix(1,0,0,1,291.055,548.384)">
                <path d="M0,-1.71C-1.198,-2.425 -2.671,-2.102 -3.998,-1.732C-4.662,-1.547 -5.35,-1.338 -5.905,-0.908C-3.551,0.223 -0.946,0.715 1.624,0.567C1.305,-0.392 0.8,-1.232 0,-1.71" style="fill:rgb(59,140,174);fill-rule:nonzero;"/>
            </g>
            <g transform="matrix(1,0,0,1,283.609,546.076)">
                <path d="M0,11.239L-0.825,11.176C-0.71,9.524 -0.686,7.867 -0.55,6.216C-0.418,4.616 -0.57,3.095 0.41,1.726C1.419,0.318 3.079,-0.538 4.814,-0.464C6.552,-0.39 8.225,0.545 9.208,1.979C10.831,4.348 9.862,8.093 9.982,10.78C9.991,10.982 10,11.193 9.916,11.376C9.831,11.56 9.066,11.777 9.069,11.627L9.18,4.684C9.181,4.538 9.152,1.04 4.775,0.853C1.18,0.699 0.666,4.026 0.613,4.335L0,11.239Z" style="fill:rgb(247,144,29);fill-rule:nonzero;"/>
            </g>
            <g transform="matrix(1,0,0,1,314.145,537.905)">
                <path d="M0,16.853C-0.099,16.712 -0.265,10.702 -0.295,10.15C-0.393,8.322 -0.467,6.45 -1.442,4.867C-3.031,2.286 -6.004,1.314 -8.911,1.314C-11.678,1.314 -13.838,2.405 -15.333,4.558C-16.011,5.535 -16.665,6.682 -16.863,7.867C-17.341,10.732 -17.115,13.871 -17.219,16.78L-18.402,16.732C-18.249,12.444 -18.993,7.521 -16.414,3.807C-15.208,2.069 -12.927,-0.003 -8.911,-0.003C-6.324,-0.003 -2.808,0.648 -0.748,3.752C0.448,5.554 0.718,7.764 0.753,9.878C0.764,10.548 1.025,16.794 1.044,16.793C0.697,16.814 0.35,16.835 0.004,16.856C0.002,16.856 0.001,16.855 0,16.853" style="fill:rgb(247,144,29);fill-rule:nonzero;"/>
            </g>
            <g transform="matrix(0.818977,-0.573827,-0.573827,-0.818977,316.425,549.328)">
                <path d="M-0.783,2.483C-0.783,2.483 3.002,5.383 7.872,2.483" style="fill:none;stroke:rgb(220,137,39);stroke-width:1.06px;"/>
            </g>
            <g transform="matrix(1,0,0,1,280.676,542.245)">
                <path d="M0,9.126L-1.062,9.056C-0.978,7.792 -0.194,5.553 1.143,3.718C2.378,2.022 4.554,0 7.902,0C11.326,0 13.322,1.727 14.393,3.176C15.542,4.73 15.885,6.275 15.899,6.34L15.079,7.794C15.067,6.297 13.585,1.064 7.902,1.064C5.002,1.064 3.093,2.848 2.003,4.345C0.652,6.199 0.057,8.262 0,9.126" style="fill:rgb(247,144,29);fill-rule:nonzero;"/>
            </g>
            <g transform="matrix(1,0,0,1,282.123,538.367)">
                <path d="M0,5.986C0,5.986 1.459,3.503 5.336,2.668C5.336,2.668 3.476,2.727 2.279,0C2.212,0.067 0.483,3.592 0,5.986" style="fill:rgb(247,144,29);fill-rule:nonzero;"/>
            </g>
            <g transform="matrix(1,0,0,1,280.552,532.035)">
                <path d="M0,-10.775L-1.085,-2.786C0.575,-4.825 4.121,-8.489 9.673,-10.816L0,-10.775ZM-2.538,0.997L-0.814,-11.703L15.526,-11.772L12.499,-10.848C3.276,-8.031 -1.351,-0.873 -1.397,-0.801L-2.538,0.997Z" style="fill:rgb(247,144,29);fill-rule:nonzero;"/>
            </g>
            <g transform="matrix(1,0,0,1,281.402,521.703)">
                <path d="M0,5.459C-0.227,5.459 -0.48,5.428 -0.7,5.287C-1.056,5.058 -1.239,4.567 -1.136,4.119C-1.041,3.711 -0.72,3.361 -0.318,3.227C-0.12,3.162 0.077,3.149 0.268,3.137C0.338,3.132 0.408,3.128 0.477,3.121C0.959,3.07 1.393,2.87 1.701,2.557C2.07,2.18 2.331,1.495 2.108,1.044C2.023,0.872 1.849,0.727 1.617,0.633C1.282,0.498 0.814,0.385 0.494,0.615C0.258,0.783 0.134,1.134 0.204,1.431C0.273,1.724 0.533,1.965 0.808,1.992C0.962,2.007 1.107,1.958 1.198,1.861C1.291,1.762 1.323,1.599 1.271,1.49C1.226,1.396 1.108,1.341 1.02,1.373C0.977,1.388 0.941,1.427 0.939,1.458C0.94,1.461 0.944,1.469 0.947,1.472C0.943,1.468 0.922,1.46 0.896,1.467L1.012,1.864C0.903,1.896 0.786,1.871 0.69,1.796C0.582,1.71 0.519,1.572 0.527,1.436C0.538,1.237 0.68,1.056 0.881,0.984C1.171,0.88 1.506,1.024 1.644,1.312C1.77,1.576 1.711,1.918 1.5,2.143C1.322,2.333 1.048,2.43 0.767,2.403C0.318,2.359 -0.088,1.99 -0.198,1.526C-0.308,1.06 -0.122,0.547 0.253,0.278C0.628,0.011 1.153,0 1.772,0.25C2.097,0.381 2.348,0.598 2.478,0.86C2.797,1.506 2.468,2.365 1.996,2.846C1.621,3.228 1.097,3.471 0.521,3.532C0.446,3.54 0.37,3.544 0.294,3.549C0.122,3.56 -0.041,3.57 -0.188,3.619C-0.456,3.709 -0.671,3.941 -0.733,4.212C-0.797,4.491 -0.687,4.804 -0.477,4.939C-0.292,5.058 -0.041,5.054 0.242,5.036C0.401,5.027 0.576,4.985 0.59,4.897L0.998,4.965C0.97,5.131 0.839,5.415 0.267,5.449C0.186,5.454 0.095,5.459 0,5.459" style="fill:rgb(247,144,29);fill-rule:nonzero;"/>
            </g>
            <g transform="matrix(1,0,0,1,284.846,521.478)">
                <path d="M0,2.297C-0.039,2.297 -0.077,2.296 -0.115,2.293C-0.578,2.26 -0.992,2.001 -1.168,1.632C-1.233,1.499 -1.309,1.297 -1.239,1.083L-1.192,0.941L-0.999,0.941L-0.999,1.162L-0.847,1.212C-0.865,1.267 -0.849,1.344 -0.796,1.454C-0.682,1.69 -0.403,1.858 -0.085,1.881C0.19,1.901 0.496,1.825 0.853,1.65C0.95,1.602 1.051,1.548 1.128,1.476C1.316,1.297 1.35,0.967 1.201,0.754C1.052,0.541 0.73,0.459 0.498,0.575C0.373,0.637 0.281,0.751 0.264,0.865C0.247,0.972 0.303,1.089 0.388,1.125C0.424,1.14 0.475,1.137 0.517,1.117C0.551,1.101 0.574,1.077 0.581,1.051L0.979,1.163C0.94,1.303 0.836,1.422 0.696,1.49C0.547,1.561 0.371,1.567 0.227,1.506C-0.031,1.396 -0.191,1.093 -0.145,0.801C-0.106,0.555 0.069,0.327 0.314,0.205C0.726,0 1.276,0.14 1.54,0.517C1.804,0.895 1.746,1.459 1.412,1.776C1.294,1.887 1.155,1.962 1.034,2.021C0.656,2.206 0.317,2.297 0,2.297" style="fill:rgb(247,144,29);fill-rule:nonzero;"/>
            </g>
            <g transform="matrix(1,0,0,1,281.543,525.599)">
                <path d="M0,1.213C0.289,1.206 0.553,0.958 0.579,0.67C0.606,0.382 0.391,0.091 0.107,0.032C-0.046,0 -0.22,0.035 -0.327,0.149C-0.435,0.263 -0.454,0.46 -0.35,0.577" style="fill:none;stroke:rgb(220,137,39);stroke-width:0.41px;"/>
            </g>
            <g transform="matrix(1,0,0,1,320.646,532.083)">
                <path d="M0,-10.864C5.553,-8.537 9.099,-4.873 10.758,-2.834L9.673,-10.823L0,-10.864ZM12.213,0.956L11.07,-0.85C11.016,-0.935 6.389,-8.082 -2.826,-10.896L-5.852,-11.82L10.487,-11.751L12.213,0.956Z" style="fill:rgb(247,144,29);fill-rule:nonzero;"/>
            </g>
            <g transform="matrix(1,0,0,1,329.469,521.704)">
                <path d="M0,5.458C-0.095,5.458 -0.186,5.453 -0.267,5.448C-0.839,5.414 -0.97,5.13 -0.998,4.963L-0.59,4.896C-0.576,4.984 -0.401,5.026 -0.243,5.035C0.042,5.052 0.292,5.056 0.477,4.938C0.687,4.803 0.797,4.49 0.733,4.211C0.671,3.94 0.456,3.708 0.188,3.618C0.041,3.569 -0.122,3.559 -0.294,3.548C-0.37,3.543 -0.446,3.539 -0.521,3.531C-1.097,3.47 -1.621,3.227 -1.996,2.845C-2.468,2.364 -2.797,1.505 -2.478,0.859C-2.348,0.597 -2.097,0.38 -1.772,0.249C-1.153,0 -0.628,0.009 -0.253,0.277C0.122,0.546 0.308,1.059 0.198,1.525C0.088,1.989 -0.317,2.358 -0.767,2.402C-1.048,2.43 -1.322,2.332 -1.5,2.142C-1.711,1.917 -1.77,1.575 -1.644,1.311C-1.506,1.023 -1.171,0.879 -0.88,0.983C-0.68,1.055 -0.538,1.236 -0.527,1.434C-0.519,1.571 -0.582,1.709 -0.69,1.795C-0.786,1.87 -0.903,1.895 -1.012,1.863L-0.896,1.466C-0.922,1.459 -0.943,1.467 -0.947,1.471C-0.944,1.468 -0.94,1.46 -0.94,1.46C-0.941,1.426 -0.977,1.387 -1.019,1.372C-1.109,1.341 -1.226,1.395 -1.271,1.489C-1.323,1.598 -1.291,1.761 -1.198,1.86C-1.108,1.957 -0.962,2.006 -0.807,1.991C-0.533,1.964 -0.273,1.723 -0.204,1.43C-0.134,1.133 -0.258,0.782 -0.494,0.614C-0.814,0.384 -1.282,0.497 -1.617,0.632C-1.849,0.726 -2.023,0.871 -2.108,1.043C-2.331,1.494 -2.07,2.179 -1.701,2.556C-1.393,2.869 -0.959,3.069 -0.477,3.12C-0.408,3.127 -0.338,3.131 -0.268,3.136C-0.077,3.148 0.12,3.161 0.318,3.226C0.721,3.36 1.042,3.71 1.136,4.118C1.239,4.566 1.056,5.057 0.7,5.286C0.48,5.427 0.227,5.458 0,5.458" style="fill:rgb(247,144,29);fill-rule:nonzero;"/>
            </g>
            <g transform="matrix(1,0,0,1,326.025,521.478)">
                <path d="M0,2.297C-0.317,2.297 -0.656,2.206 -1.034,2.021C-1.155,1.962 -1.294,1.887 -1.411,1.776C-1.746,1.46 -1.804,0.895 -1.54,0.517C-1.276,0.14 -0.726,0 -0.314,0.205C-0.069,0.327 0.106,0.555 0.145,0.801C0.191,1.093 0.031,1.396 -0.227,1.506C-0.371,1.567 -0.547,1.561 -0.696,1.49C-0.836,1.422 -0.94,1.303 -0.979,1.163L-0.581,1.051C-0.574,1.077 -0.551,1.101 -0.517,1.117C-0.475,1.137 -0.424,1.141 -0.388,1.125C-0.303,1.089 -0.247,0.972 -0.264,0.865C-0.281,0.751 -0.373,0.637 -0.498,0.575C-0.73,0.459 -1.052,0.541 -1.201,0.754C-1.35,0.967 -1.316,1.297 -1.128,1.476C-1.051,1.548 -0.95,1.602 -0.853,1.65C-0.496,1.825 -0.19,1.901 0.086,1.881C0.403,1.858 0.682,1.69 0.796,1.454C0.849,1.344 0.865,1.267 0.847,1.212L0.999,1.162L0.999,0.941L1.192,0.941L1.239,1.083C1.309,1.297 1.233,1.499 1.168,1.632C0.992,2.001 0.578,2.26 0.115,2.293C0.077,2.296 0.039,2.297 0,2.297" style="fill:rgb(247,144,29);fill-rule:nonzero;"/>
            </g>
            <g transform="matrix(1,0,0,1,329.327,525.599)">
                <path d="M0,1.213C-0.289,1.206 -0.553,0.958 -0.579,0.67C-0.606,0.382 -0.391,0.091 -0.107,0.032C0.046,0 0.22,0.035 0.327,0.149C0.435,0.263 0.454,0.46 0.35,0.577" style="fill:none;stroke:rgb(220,137,39);stroke-width:0.41px;"/>
            </g>
            <g transform="matrix(1,0,0,1,280.202,516.409)">
                <path d="M0,-0.922C-0.509,-0.922 -0.922,-0.509 -0.922,0L0.922,0C0.922,-0.509 0.509,-0.922 0,-0.922" style="fill:rgb(247,144,29);fill-rule:nonzero;"/>
            </g>
            <g transform="matrix(1,0,0,1,282.85,516.409)">
                <path d="M0,-0.922C-0.509,-0.922 -0.922,-0.509 -0.922,0L0.922,0C0.922,-0.509 0.509,-0.922 0,-0.922" style="fill:rgb(247,144,29);fill-rule:nonzero;"/>
            </g>
            <g transform="matrix(1,0,0,1,285.498,516.409)">
                <path d="M0,-0.922C-0.509,-0.922 -0.922,-0.509 -0.922,0L0.922,0C0.922,-0.509 0.509,-0.922 0,-0.922" style="fill:rgb(247,144,29);fill-rule:nonzero;"/>
            </g>
            <g transform="matrix(1,0,0,1,288.146,516.409)">
                <path d="M0,-0.922C-0.509,-0.922 -0.922,-0.509 -0.922,0L0.922,0C0.922,-0.509 0.509,-0.922 0,-0.922" style="fill:rgb(247,144,29);fill-rule:nonzero;"/>
            </g>
            <g transform="matrix(1,0,0,1,290.793,516.409)">
                <path d="M0,-0.922C-0.509,-0.922 -0.922,-0.509 -0.922,0L0.922,0C0.922,-0.509 0.509,-0.922 0,-0.922" style="fill:rgb(247,144,29);fill-rule:nonzero;"/>
            </g>
            <g transform="matrix(1,0,0,1,293.441,516.409)">
                <path d="M0,-0.922C-0.509,-0.922 -0.922,-0.509 -0.922,0L0.922,0C0.922,-0.509 0.509,-0.922 0,-0.922" style="fill:rgb(247,144,29);fill-rule:nonzero;"/>
            </g>
            <g transform="matrix(1,0,0,1,296.089,516.409)">
                <path d="M0,-0.922C-0.509,-0.922 -0.922,-0.509 -0.922,0L0.922,0C0.922,-0.509 0.509,-0.922 0,-0.922" style="fill:rgb(247,144,29);fill-rule:nonzero;"/>
            </g>
            <g transform="matrix(1,0,0,1,298.736,516.409)">
                <path d="M0,-0.922C-0.509,-0.922 -0.922,-0.509 -0.922,0L0.922,0C0.922,-0.509 0.509,-0.922 0,-0.922" style="fill:rgb(247,144,29);fill-rule:nonzero;"/>
            </g>
            <g transform="matrix(1,0,0,1,301.384,516.409)">
                <path d="M0,-0.922C-0.509,-0.922 -0.922,-0.509 -0.922,0L0.922,0C0.922,-0.509 0.509,-0.922 0,-0.922" style="fill:rgb(247,144,29);fill-rule:nonzero;"/>
            </g>
            <g transform="matrix(1,0,0,1,304.032,516.409)">
                <path d="M0,-0.922C-0.509,-0.922 -0.922,-0.509 -0.922,0L0.922,0C0.922,-0.509 0.509,-0.922 0,-0.922" style="fill:rgb(247,144,29);fill-rule:nonzero;"/>
            </g>
            <g transform="matrix(1,0,0,1,306.679,516.409)">
                <path d="M0,-0.922C-0.509,-0.922 -0.922,-0.509 -0.922,0L0.922,0C0.922,-0.509 0.509,-0.922 0,-0.922" style="fill:rgb(247,144,29);fill-rule:nonzero;"/>
            </g>
            <g transform="matrix(1,0,0,1,309.327,516.409)">
                <path d="M0,-0.922C-0.509,-0.922 -0.922,-0.509 -0.922,0L0.922,0C0.922,-0.509 0.509,-0.922 0,-0.922" style="fill:rgb(247,144,29);fill-rule:nonzero;"/>
            </g>
            <g transform="matrix(1,0,0,1,311.975,516.409)">
                <path d="M0,-0.922C-0.509,-0.922 -0.922,-0.509 -0.922,0L0.922,0C0.922,-0.509 0.509,-0.922 0,-0.922" style="fill:rgb(247,144,29);fill-rule:nonzero;"/>
            </g>
            <g transform="matrix(1,0,0,1,314.622,516.409)">
                <path d="M0,-0.922C-0.509,-0.922 -0.922,-0.509 -0.922,0L0.922,0C0.922,-0.509 0.509,-0.922 0,-0.922" style="fill:rgb(247,144,29);fill-rule:nonzero;"/>
            </g>
            <g transform="matrix(1,0,0,1,317.27,516.409)">
                <path d="M0,-0.922C-0.509,-0.922 -0.922,-0.509 -0.922,0L0.922,0C0.922,-0.509 0.509,-0.922 0,-0.922" style="fill:rgb(247,144,29);fill-rule:nonzero;"/>
            </g>
            <g transform="matrix(1,0,0,1,319.918,516.409)">
                <path d="M0,-0.922C-0.509,-0.922 -0.922,-0.509 -0.922,0L0.922,0C0.922,-0.509 0.509,-0.922 0,-0.922" style="fill:rgb(247,144,29);fill-rule:nonzero;"/>
            </g>
            <g transform="matrix(1,0,0,1,322.565,516.409)">
                <path d="M0,-0.922C-0.509,-0.922 -0.922,-0.509 -0.922,0L0.922,0C0.922,-0.509 0.509,-0.922 0,-0.922" style="fill:rgb(247,144,29);fill-rule:nonzero;"/>
            </g>
            <g transform="matrix(1,0,0,1,325.213,516.409)">
                <path d="M0,-0.922C-0.509,-0.922 -0.922,-0.509 -0.922,0L0.922,0C0.922,-0.509 0.509,-0.922 0,-0.922" style="fill:rgb(247,144,29);fill-rule:nonzero;"/>
            </g>
            <g transform="matrix(1,0,0,1,327.861,516.409)">
                <path d="M0,-0.922C-0.509,-0.922 -0.922,-0.509 -0.922,0L0.922,0C0.922,-0.509 0.509,-0.922 0,-0.922" style="fill:rgb(247,144,29);fill-rule:nonzero;"/>
            </g>
            <g transform="matrix(1,0,0,1,330.509,516.409)">
                <path d="M0,-0.922C-0.509,-0.922 -0.922,-0.509 -0.922,0L0.922,0C0.922,-0.509 0.509,-0.922 0,-0.922" style="fill:rgb(247,144,29);fill-rule:nonzero;"/>
            </g>
            <g transform="matrix(1,0,0,1,282.651,503.37)">
                <path d="M0,-0.785C-0.227,-0.785 -0.412,-0.434 -0.412,0L0.412,0C0.412,-0.434 0.227,-0.785 0,-0.785" style="fill:rgb(247,144,29);fill-rule:nonzero;"/>
            </g>
            <g transform="matrix(1,0,0,1,283.833,503.37)">
                <path d="M0,-0.785C-0.227,-0.785 -0.412,-0.434 -0.412,0L0.412,0C0.412,-0.434 0.227,-0.785 0,-0.785" style="fill:rgb(247,144,29);fill-rule:nonzero;"/>
            </g>
            <g transform="matrix(1,0,0,1,285.016,503.37)">
                <path d="M0,-0.785C-0.227,-0.785 -0.412,-0.434 -0.412,0L0.412,0C0.412,-0.434 0.227,-0.785 0,-0.785" style="fill:rgb(247,144,29);fill-rule:nonzero;"/>
            </g>
            <g transform="matrix(1,0,0,1,286.198,503.37)">
                <path d="M0,-0.785C-0.227,-0.785 -0.412,-0.434 -0.412,0L0.412,0C0.412,-0.434 0.227,-0.785 0,-0.785" style="fill:rgb(247,144,29);fill-rule:nonzero;"/>
            </g>
            <g transform="matrix(1,0,0,1,287.38,503.37)">
                <path d="M0,-0.785C-0.227,-0.785 -0.412,-0.434 -0.412,0L0.412,0C0.412,-0.434 0.227,-0.785 0,-0.785" style="fill:rgb(247,144,29);fill-rule:nonzero;"/>
            </g>
            <g transform="matrix(1,0,0,1,288.562,503.37)">
                <path d="M0,-0.785C-0.227,-0.785 -0.412,-0.434 -0.412,0L0.412,0C0.412,-0.434 0.227,-0.785 0,-0.785" style="fill:rgb(247,144,29);fill-rule:nonzero;"/>
            </g>
            <g transform="matrix(1,0,0,1,289.744,503.37)">
                <path d="M0,-0.785C-0.227,-0.785 -0.412,-0.434 -0.412,0L0.412,0C0.412,-0.434 0.227,-0.785 0,-0.785" style="fill:rgb(247,144,29);fill-rule:nonzero;"/>
            </g>
            <g transform="matrix(1,0,0,1,290.926,503.37)">
                <path d="M0,-0.785C-0.227,-0.785 -0.412,-0.434 -0.412,0L0.412,0C0.412,-0.434 0.227,-0.785 0,-0.785" style="fill:rgb(247,144,29);fill-rule:nonzero;"/>
            </g>
            <g transform="matrix(1,0,0,1,292.108,503.37)">
                <path d="M0,-0.785C-0.227,-0.785 -0.412,-0.434 -0.412,0L0.412,0C0.412,-0.434 0.227,-0.785 0,-0.785" style="fill:rgb(247,144,29);fill-rule:nonzero;"/>
            </g>
            <g transform="matrix(1,0,0,1,293.29,503.37)">
                <path d="M0,-0.785C-0.227,-0.785 -0.412,-0.434 -0.412,0L0.412,0C0.412,-0.434 0.227,-0.785 0,-0.785" style="fill:rgb(247,144,29);fill-rule:nonzero;"/>
            </g>
            <g transform="matrix(1,0,0,1,294.472,503.37)">
                <path d="M0,-0.785C-0.227,-0.785 -0.412,-0.434 -0.412,0L0.412,0C0.412,-0.434 0.227,-0.785 0,-0.785" style="fill:rgb(247,144,29);fill-rule:nonzero;"/>
            </g>
            <g transform="matrix(1,0,0,1,295.654,503.37)">
                <path d="M0,-0.785C-0.227,-0.785 -0.412,-0.434 -0.412,0L0.412,0C0.412,-0.434 0.227,-0.785 0,-0.785" style="fill:rgb(247,144,29);fill-rule:nonzero;"/>
            </g>
            <g transform="matrix(1,0,0,1,315.45,503.37)">
                <path d="M0,-0.785C-0.227,-0.785 -0.412,-0.434 -0.412,0L0.412,0C0.412,-0.434 0.227,-0.785 0,-0.785" style="fill:rgb(247,144,29);fill-rule:nonzero;"/>
            </g>
            <g transform="matrix(1,0,0,1,316.632,503.37)">
                <path d="M0,-0.785C-0.227,-0.785 -0.412,-0.434 -0.412,0L0.412,0C0.412,-0.434 0.227,-0.785 0,-0.785" style="fill:rgb(247,144,29);fill-rule:nonzero;"/>
            </g>
            <g transform="matrix(1,0,0,1,317.814,503.37)">
                <path d="M0,-0.785C-0.227,-0.785 -0.412,-0.434 -0.412,0L0.412,0C0.412,-0.434 0.227,-0.785 0,-0.785" style="fill:rgb(247,144,29);fill-rule:nonzero;"/>
            </g>
            <g transform="matrix(1,0,0,1,318.996,503.37)">
                <path d="M0,-0.785C-0.227,-0.785 -0.412,-0.434 -0.412,0L0.412,0C0.412,-0.434 0.227,-0.785 0,-0.785" style="fill:rgb(247,144,29);fill-rule:nonzero;"/>
            </g>
            <g transform="matrix(1,0,0,1,320.178,503.37)">
                <path d="M0,-0.785C-0.227,-0.785 -0.412,-0.434 -0.412,0L0.412,0C0.412,-0.434 0.227,-0.785 0,-0.785" style="fill:rgb(247,144,29);fill-rule:nonzero;"/>
            </g>
            <g transform="matrix(1,0,0,1,321.36,503.37)">
                <path d="M0,-0.785C-0.227,-0.785 -0.412,-0.434 -0.412,0L0.412,0C0.412,-0.434 0.227,-0.785 0,-0.785" style="fill:rgb(247,144,29);fill-rule:nonzero;"/>
            </g>
            <g transform="matrix(1,0,0,1,322.542,503.37)">
                <path d="M0,-0.785C-0.227,-0.785 -0.412,-0.434 -0.412,0L0.412,0C0.412,-0.434 0.227,-0.785 0,-0.785" style="fill:rgb(247,144,29);fill-rule:nonzero;"/>
            </g>
            <g transform="matrix(1,0,0,1,323.724,503.37)">
                <path d="M0,-0.785C-0.227,-0.785 -0.412,-0.434 -0.412,0L0.412,0C0.412,-0.434 0.227,-0.785 0,-0.785" style="fill:rgb(247,144,29);fill-rule:nonzero;"/>
            </g>
            <g transform="matrix(1,0,0,1,324.906,503.37)">
                <path d="M0,-0.785C-0.227,-0.785 -0.412,-0.434 -0.412,0L0.412,0C0.412,-0.434 0.227,-0.785 0,-0.785" style="fill:rgb(247,144,29);fill-rule:nonzero;"/>
            </g>
            <g transform="matrix(1,0,0,1,326.088,503.37)">
                <path d="M0,-0.785C-0.227,-0.785 -0.412,-0.434 -0.412,0L0.412,0C0.412,-0.434 0.227,-0.785 0,-0.785" style="fill:rgb(247,144,29);fill-rule:nonzero;"/>
            </g>
            <g transform="matrix(1,0,0,1,327.27,503.37)">
                <path d="M0,-0.785C-0.227,-0.785 -0.412,-0.434 -0.412,0L0.412,0C0.412,-0.434 0.227,-0.785 0,-0.785" style="fill:rgb(247,144,29);fill-rule:nonzero;"/>
            </g>
            <g transform="matrix(1,0,0,1,328.452,503.37)">
                <path d="M0,-0.785C-0.227,-0.785 -0.412,-0.434 -0.412,0L0.412,0C0.412,-0.434 0.227,-0.785 0,-0.785" style="fill:rgb(247,144,29);fill-rule:nonzero;"/>
            </g>
            <g transform="matrix(1,0,0,1,298.899,502.221)">
                <path d="M0,-0.804C-0.214,-0.765 -0.323,-0.387 -0.245,0.039L0.529,-0.166C0.451,-0.592 0.214,-0.843 0,-0.804" style="fill:rgb(247,144,29);fill-rule:nonzero;"/>
            </g>
            <g transform="matrix(1,0,0,1,297.746,502.501)">
                <path d="M0,-0.802C-0.207,-0.737 -0.269,-0.348 -0.139,0.065L0.612,-0.172C0.481,-0.585 0.207,-0.867 0,-0.802" style="fill:rgb(247,144,29);fill-rule:nonzero;"/>
            </g>
            <g transform="matrix(1,0,0,1,296.617,502.94)">
                <path d="M0,-0.778C-0.193,-0.678 -0.188,-0.285 0.011,0.1L0.71,-0.261C0.511,-0.646 0.193,-0.878 0,-0.778" style="fill:rgb(247,144,29);fill-rule:nonzero;"/>
            </g>
            <g transform="matrix(1,0,0,1,300.01,501.951)">
                <path d="M0,-0.804C-0.214,-0.765 -0.323,-0.387 -0.245,0.039L0.529,-0.103C0.451,-0.53 0.214,-0.843 0,-0.804" style="fill:rgb(247,144,29);fill-rule:nonzero;"/>
            </g>
            <g transform="matrix(1,0,0,1,301.155,501.746)">
                <path d="M0,-0.744C-0.224,-0.703 -0.341,-0.386 -0.263,0.041L0.547,-0.047C0.468,-0.473 0.224,-0.785 0,-0.744" style="fill:rgb(247,144,29);fill-rule:nonzero;"/>
            </g>
            <g transform="matrix(1,0,0,1,302.369,501.668)">
                <path d="M0,-0.8C-0.226,-0.775 -0.37,-0.405 -0.323,0.025L0.496,-0.036C0.448,-0.466 0.226,-0.825 0,-0.8" style="fill:rgb(247,144,29);fill-rule:nonzero;"/>
            </g>
            <g transform="matrix(1,0,0,1,303.585,501.607)">
                <path d="M0,-0.884C-0.227,-0.875 -0.397,-0.475 -0.378,0.009L0.444,-0.022C0.426,-0.506 0.227,-0.893 0,-0.884" style="fill:rgb(247,144,29);fill-rule:nonzero;"/>
            </g>
            <g transform="matrix(1,0,0,1,304.745,501.558)">
                <path d="M0,-0.911C-0.227,-0.902 -0.398,-0.476 -0.38,0.009L0.404,0.009C0.385,-0.476 0.227,-0.92 0,-0.911" style="fill:rgb(247,144,29);fill-rule:nonzero;"/>
            </g>
            <g transform="matrix(1,0,0,1,305.896,501.558)">
                <path d="M0,-0.911C-0.227,-0.902 -0.43,-0.476 -0.412,0.009L0.411,0.009C0.393,-0.476 0.227,-0.92 0,-0.911" style="fill:rgb(247,144,29);fill-rule:nonzero;"/>
            </g>
            <g transform="matrix(1,0,0,1,311.821,502.221)">
                <path d="M0,-0.804C0.214,-0.765 0.323,-0.387 0.245,0.039L-0.529,-0.166C-0.451,-0.592 -0.214,-0.843 0,-0.804" style="fill:rgb(247,144,29);fill-rule:nonzero;"/>
            </g>
            <g transform="matrix(1,0,0,1,312.973,502.501)">
                <path d="M0,-0.802C0.207,-0.737 0.269,-0.348 0.139,0.065L-0.612,-0.172C-0.481,-0.585 -0.207,-0.867 0,-0.802" style="fill:rgb(247,144,29);fill-rule:nonzero;"/>
            </g>
            <g transform="matrix(1,0,0,1,314.102,502.94)">
                <path d="M0,-0.778C0.193,-0.678 0.188,-0.285 -0.011,0.1L-0.71,-0.261C-0.511,-0.646 -0.193,-0.878 0,-0.778" style="fill:rgb(247,144,29);fill-rule:nonzero;"/>
            </g>
            <g transform="matrix(1,0,0,1,310.709,501.951)">
                <path d="M0,-0.804C0.214,-0.765 0.323,-0.387 0.245,0.039L-0.529,-0.103C-0.451,-0.53 -0.214,-0.843 0,-0.804" style="fill:rgb(247,144,29);fill-rule:nonzero;"/>
            </g>
            <g transform="matrix(1,0,0,1,309.565,501.746)">
                <path d="M0,-0.744C0.224,-0.703 0.341,-0.386 0.263,0.041L-0.547,-0.047C-0.468,-0.473 -0.224,-0.785 0,-0.744" style="fill:rgb(247,144,29);fill-rule:nonzero;"/>
            </g>
            <g transform="matrix(1,0,0,1,308.35,501.668)">
                <path d="M0,-0.8C0.226,-0.775 0.37,-0.405 0.323,0.025L-0.496,-0.036C-0.448,-0.466 -0.226,-0.825 0,-0.8" style="fill:rgb(247,144,29);fill-rule:nonzero;"/>
            </g>
            <g transform="matrix(1,0,0,1,307.134,501.607)">
                <path d="M0,-0.884C0.227,-0.875 0.397,-0.475 0.378,0.009L-0.444,-0.022C-0.426,-0.506 -0.227,-0.893 0,-0.884" style="fill:rgb(247,144,29);fill-rule:nonzero;"/>
            </g>
            <g transform="matrix(-1,-0,-0,1,588.85,272.495)">
                <rect x="280.445" y="282.772" width="27.96" height="3.851" style="fill:rgb(240,233,52);"/>
            </g>
            <g transform="matrix(1,0,0,1,290.454,580.321)">
                <path d="M0,-15.217C-0.532,-14.419 0,-13.089 -0.399,-12.823C-3.067,-11.072 -5.891,-9.478 -7.923,-7.287L-8.362,1.75L1.663,1.75L2.3,-16.967C1.358,-16.632 0.516,-16.027 0,-15.217" style="fill:rgb(70,199,238);fill-rule:nonzero;"/>
            </g>
            <g transform="matrix(1,0,0,1,302.426,558.975)">
                <path d="M0,-1.32C0.364,-2.775 1.723,-3.608 3.226,-4.245L-3.725,-4.245L-3.81,2.925C-3.552,2.706 -3.261,2.526 -2.926,2.405C-1.064,1.606 -0.399,0.409 0,-1.32" style="fill:rgb(59,140,174);fill-rule:nonzero;"/>
            </g>
            <g transform="matrix(1,0,0,1,305.652,565.909)">
                <path d="M0,-11.18C-1.503,-10.543 -2.862,-9.71 -3.226,-8.255C-3.625,-6.526 -4.29,-5.328 -6.153,-4.53C-6.487,-4.409 -6.779,-4.229 -7.036,-4.01L-7.084,0L6.982,0L6.982,-11.18L0,-11.18Z" style="fill:rgb(70,199,238);fill-rule:nonzero;"/>
            </g>
            <g transform="matrix(1,0,0,1,283.208,586.387)">
                <path d="M0,-26.072L-3.377,-26.072L-5.524,0.044C-5.524,0.044 -3.078,-26.116 0,-26.072" style="fill:rgb(247,144,29);fill-rule:nonzero;"/>
            </g>
            <g transform="matrix(1,0,0,1,0,277.548)">
                <rect x="279.832" y="281.57" width="3.377" height="1.202" style="fill:rgb(247,144,29);"/>
            </g>
            <g transform="matrix(1,0,0,1,298.649,571.167)">
                <path d="M0,-12.049L-5.751,-12.049L-6.157,-0.123L-5.357,0C-5.357,0 -5.284,-2.038 -5.281,-2.224C-5.275,-2.678 -5.274,-3.133 -5.268,-3.587C-5.256,-4.52 -5.228,-5.457 -5.103,-6.382C-4.918,-7.753 -4.496,-9.286 -3.603,-10.374C-3.438,-10.574 -3.245,-10.764 -3.002,-10.855C-1.62,-11.371 -1.333,-8.445 -1.225,-7.651C-1.151,-7.098 -1.127,-6.54 -1.128,-5.983C-1.128,-5.748 -1.021,-4.474 -1.191,-4.347L-0.081,-5.257L0,-12.049Z" style="fill:rgb(247,144,29);fill-rule:nonzero;"/>
            </g>
            <g transform="matrix(1,0,0,1,278.649,501.531)">
                <path d="M0,13.125L2.476,1.181L5.402,-3.004L5.735,-1.673L3.059,2.105L0.096,16.129L0,13.125Z" style="fill:rgb(247,144,29);fill-rule:nonzero;"/>
            </g>
            <g transform="matrix(1,0,0,1,332.246,501.664)">
                <path d="M0,12.992L-2.219,1.12L-5.774,-3.004L-6.134,-1.806L-2.66,1.839L-0.096,15.996L0,12.992Z" style="fill:rgb(247,144,29);fill-rule:nonzero;"/>
            </g>
            <g transform="matrix(1,0,0,1,286.383,486.961)">
                <path d="M0,-4.582C0,-4.582 7.722,-13.021 18.977,-13.021C30.232,-13.021 38.112,-5.237 38.112,-5.237L41.299,8.214L-3.731,8.439L0,-4.582Z" style="fill:rgb(240,233,52);fill-rule:nonzero;"/>
            </g>
            <g transform="matrix(-0.811007,0.585036,0.585036,0.811007,285.441,495.644)">
                <path d="M-6.278,-5.781L-2.424,-5.781L1.867,-2.028L-1.71,0.552L-6.278,-5.781Z" style="fill:rgb(247,144,29);fill-rule:nonzero;"/>
            </g>
            <g transform="matrix(1,0,0,1,293.048,574.799)">
                <path d="M0,-20.07L-9.626,-20.07L-10.391,-4.35C-10.201,-4.595 -10.002,-4.835 -9.798,-5.072C-9.844,-4.667 -9.82,-4.289 -9.766,-3.882C-9.892,-3.694 -10.003,-3.497 -10.096,-3.292C-10.288,-3.095 -10.413,-2.82 -10.417,-2.466C-10.419,-2.292 -10.421,-2.118 -10.423,-1.944C-10.423,-1.881 -10.419,-1.821 -10.413,-1.763C-10.413,-1.757 -10.412,-1.752 -10.412,-1.752C-10.412,-1.595 -10.383,-1.457 -10.333,-1.331C-10.183,-0.36 -8.803,0 -8.194,-0.629C-8.022,-0.729 -7.874,-0.882 -7.775,-1.096C-7.697,-1.265 -7.629,-1.433 -7.566,-1.602C-7.528,-1.649 -7.491,-1.698 -7.458,-1.752C-7.174,-2.214 -7.044,-2.676 -6.991,-3.158C-6.803,-3.298 -6.619,-3.426 -6.478,-3.548C-5.818,-4.115 -5.358,-4.92 -4.589,-5.345C-3.683,-5.845 -2.96,-6.448 -2.465,-7.38C-2.209,-7.863 -2.057,-8.357 -1.995,-8.898C-1.989,-8.954 -1.986,-9.012 -1.981,-9.069C-1.887,-9.152 -1.799,-9.251 -1.721,-9.367C-1.442,-9.781 -1.335,-10.233 -1.275,-10.715C-1.271,-10.725 -1.267,-10.735 -1.263,-10.745C-1.086,-11.244 -0.961,-11.787 -1.028,-12.317C-1.084,-12.764 -1.259,-13.172 -1.599,-13.425C-1.679,-13.742 -1.789,-14.055 -1.96,-14.362C-2.073,-14.564 -2.229,-14.718 -2.408,-14.828C-2.144,-15.126 -1.824,-15.439 -1.497,-15.546C-1.146,-15.661 -1.017,-15.948 -1.061,-16.217C-0.75,-16.309 -0.436,-16.387 -0.123,-16.447L0,-20.07Z" style="fill:rgb(70,199,238);fill-rule:nonzero;"/>
            </g>
            <g transform="matrix(1,0,0,1,293.56,492.419)">
                <path d="M0,3.054L-1.55,2.969C-1.487,2.94 4.191,0.262 11.677,0.095C18.576,-0.059 26.76,3.086 26.838,3.113L25.067,3.084C24.989,3.056 17.99,0.627 11.677,0.627C5.378,0.627 0.062,3.026 0,3.054" style="fill:rgb(247,144,29);fill-rule:nonzero;"/>
            </g>
            <g transform="matrix(1,0,0,1,287.397,568.012)">
                <path d="M0,-4.637C0.048,-4.531 0.147,-4.459 0.228,-4.376C0.687,-3.904 0.541,-3.093 0.149,-2.564C-0.493,-1.697 -1.507,-0.99 -2.283,-0.236C-2.785,0.251 -4.705,1.725 -4.74,2.437L-4.865,5.022C-4.847,4.625 -3.506,3.723 -3.203,3.474C-1.502,2.08 0.428,0.948 2.27,-0.26C2.831,-0.628 2.822,-0.977 2.792,-1.586C2.714,-3.129 4.029,-4.186 5.357,-4.658L5.528,-9.659C3.032,-9.178 0.451,-7.707 -0.015,-5.001C-0.035,-4.88 -0.051,-4.75 0,-4.637" style="fill:rgb(59,140,174);fill-rule:nonzero;"/>
            </g>
            <g transform="matrix(1,0,0,1,299.874,512.259)">
                <path d="M0,-3.536C0.938,-2.847 2.33,-1.977 3.36,-1.436C6.1,0 9.144,-1.96 11.415,-3.388" style="fill:none;stroke:rgb(220,137,39);stroke-width:0.4px;"/>
            </g>
            <g transform="matrix(1,0,0,1,286.964,484.428)">
                <path d="M0,0C0,2.154 -1.746,3.901 -3.901,3.901C-6.055,3.901 -7.801,2.154 -7.801,0C-7.801,-2.154 -6.055,-3.901 -3.901,-3.901C-1.746,-3.901 0,-2.154 0,0" style="fill:rgb(247,144,29);fill-rule:nonzero;"/>
            </g>
            <g transform="matrix(1,0,0,1,286.964,485.625)">
                <path d="M0,0C0,2.154 -1.746,3.901 -3.901,3.901C-6.055,3.901 -7.801,2.154 -7.801,0C-7.801,-2.154 -6.055,-3.901 -3.901,-3.901C-1.746,-3.901 0,-2.154 0,0" style="fill:rgb(240,233,52);fill-rule:nonzero;"/>
            </g>
            <g transform="matrix(1,0,0,1,284.372,483.123)">
                <path d="M0,6.858L-0.194,6.363C1.079,5.864 1.776,5.263 1.783,5.257L1.796,5.246C2.242,4.904 2.353,4.085 2.072,3.209C1.686,2 0.542,0.683 -1.51,0.609C-5.052,0.482 -5.205,3.26 -5.21,3.378L-5.742,3.358C-5.741,3.323 -5.705,2.483 -5.159,1.656C-4.655,0.893 -3.611,0 -1.491,0.077C0.837,0.161 2.138,1.666 2.579,3.047C2.932,4.149 2.754,5.175 2.126,5.663C2.045,5.733 1.307,6.346 0,6.858" style="fill:rgb(247,144,29);fill-rule:nonzero;"/>
            </g>
            <g transform="matrix(1,0,0,1,285.582,485.124)">
                <path d="M0,4.121L-0.227,3.64C0.004,3.531 0.094,3.177 0.004,2.738C-0.203,1.737 -1.213,0.632 -2.942,0.574C-4.031,0.537 -4.832,0.777 -5.331,1.286C-5.916,1.884 -5.88,2.671 -5.88,2.679L-6.411,2.711C-6.413,2.67 -6.466,1.691 -5.718,0.921C-5.111,0.296 -4.17,0 -2.924,0.042C-0.907,0.11 0.277,1.432 0.525,2.631C0.669,3.33 0.468,3.901 0,4.121" style="fill:rgb(247,144,29);fill-rule:nonzero;"/>
            </g>
            <g transform="matrix(1,0,0,1,284.85,486.648)">
                <path d="M0,3.207L-0.225,2.725C-0.048,2.642 -0.033,2.377 -0.078,2.155C-0.203,1.543 -0.913,0.616 -2.359,0.568C-3.25,0.538 -3.915,0.722 -4.279,1.102C-4.621,1.457 -4.601,1.877 -4.6,1.882L-5.131,1.921C-5.133,1.894 -5.173,1.264 -4.663,0.733C-4.184,0.235 -3.402,0 -2.341,0.036C-1.154,0.075 0.184,0.78 0.443,2.049C0.552,2.585 0.383,3.029 0,3.207" style="fill:rgb(247,144,29);fill-rule:nonzero;"/>
            </g>
            <g transform="matrix(-0.998777,0.0494494,0.0494494,0.998777,280.243,488.573)">
                <path d="M-2.172,6.634L1.812,6.634L-0.336,-0.242L-4.109,0.735L-2.172,6.634Z" style="fill:rgb(240,233,52);fill-rule:nonzero;"/>
            </g>
            <g transform="matrix(1,0,0,1,331.371,495.287)">
                <path d="M0,-12.908L0.921,-12.908L0.808,0L-2.372,-7.158L0,-12.908Z" style="fill:rgb(247,144,29);fill-rule:nonzero;"/>
            </g>
            <g transform="matrix(0.811007,0.585036,0.585036,-0.811007,326.491,486.73)">
                <path d="M-1.867,-2.028L1.987,-2.028L6.278,-5.781L2.701,-8.361L-1.867,-2.028Z" style="fill:rgb(247,144,29);fill-rule:nonzero;"/>
            </g>
            <g transform="matrix(0.998777,0.0494494,0.0494494,-0.998777,328.039,495.029)">
                <path d="M0.164,-0.054L4.148,-0.054L2,6.822L-1.773,5.845L0.164,-0.054Z" style="fill:rgb(240,233,52);fill-rule:nonzero;"/>
            </g>
            <g transform="matrix(1,0,0,1,286.611,477.643)">
                <path d="M0,8.16L-0.37,7.778C-0.35,7.758 1.681,5.807 5.039,3.887C8.14,2.114 13.046,0 18.807,0C24.566,0 29.493,2.009 32.612,3.694C35.991,5.519 38.042,7.375 38.063,7.393L37.704,7.786C37.624,7.714 29.612,0.532 18.807,0.532C8,0.532 0.079,8.084 0,8.16" style="fill:rgb(247,144,29);fill-rule:nonzero;"/>
            </g>
            <g transform="matrix(0.954498,0.298218,0.298218,-0.954498,285.651,494.392)">
                <path d="M1.64,-0.22C1.64,-0.22 0.569,8.62 0.566,8.643C0.51,9.106 1.415,10.827 1.64,9.857C1.939,8.561 3.405,0.244 3.405,0.244L1.64,-0.22Z" style="fill:rgb(247,144,29);fill-rule:nonzero;"/>
            </g>
            <g transform="matrix(0.966316,0.257358,0.257358,-0.966316,289.879,493.876)">
                <path d="M1.56,-0.191C1.56,-0.191 0.125,9.769 0.12,9.809C-0.021,10.787 0.535,11.672 1.56,11.47C1.626,11.29 3.176,1.327 3.176,1.327L1.56,-0.191Z" style="fill:rgb(247,144,29);fill-rule:nonzero;"/>
            </g>
            <g transform="matrix(0.96851,0.248973,0.248973,-0.96851,294.611,492.192)">
                <path d="M1.542,-0.156C1.542,-0.156 -0.37,9.776 -0.38,9.828C-0.567,10.779 1.236,12.192 1.542,10.909C1.943,9.227 4.051,1.148 4.051,1.148L1.542,-0.156Z" style="fill:rgb(247,144,29);fill-rule:nonzero;"/>
            </g>
            <g transform="matrix(1,0,0,1,300.301,489.198)">
                <path d="M0,-1.802C0.036,-1.927 0.049,-2.06 0.056,-2.191C0.093,-2.863 0.038,-3.62 0.626,-4.078C1.126,-4.466 2.157,-3.971 2.458,-4.528C2.893,-5.333 2.281,-7.406 3.329,-7.776C3.523,-7.845 3.735,-7.869 3.912,-7.973C4.101,-8.084 4.229,-8.272 4.383,-8.429C4.804,-8.859 5.393,-8.674 5.834,-8.372C6.307,-8.049 6.357,-6.71 6.467,-6.147C6.498,-5.992 6.098,-5.022 6.205,-4.904C6.296,-4.803 7.213,-4.616 7.326,-6.407C7.357,-6.896 7.997,-5.907 8.075,-5.807C8.247,-5.589 8.443,-5.282 8.682,-5.13C8.975,-4.944 9.364,-5.046 9.643,-4.841C9.841,-4.697 9.886,-4.426 9.915,-4.183C10.052,-3.042 10.068,-1.628 11.01,-0.875C11.436,-0.535 11.862,-0.195 12.289,0.145C12.417,0.247 12.547,0.352 12.636,0.489C12.788,0.722 12.726,0.966 12.654,1.212C12.512,1.697 12.358,2.204 11.996,2.557C11.598,2.947 11.021,3.078 10.478,3.204C7.628,3.864 4.846,4.822 2.194,6.056C1.663,6.303 1.132,6.563 0.562,6.692C-1.046,7.057 -2.683,6.345 -4.325,6.199C-4.17,5.797 -4.242,5.315 -4.507,4.975C-4.132,4.745 -3.533,4.35 -3.506,3.911C-3.465,3.263 -3.917,2.495 -3.743,1.869C-3.618,1.418 -3.419,0.931 -2.994,0.735C-2.738,0.617 -1.305,-0.311 -1.291,0.281C-1.021,0.285 -0.878,-0.033 -0.82,-0.278C-0.757,-0.543 -0.741,-0.831 -0.588,-1.056C-0.454,-1.252 -0.232,-1.375 -0.102,-1.573C-0.056,-1.644 -0.023,-1.721 0,-1.802" style="fill:rgb(247,144,29);fill-rule:nonzero;"/>
            </g>
            <g transform="matrix(1,0,0,1,301.776,480.515)">
                <path d="M0,11.286C-0.021,8.351 -0.043,5.416 -0.064,2.481C-0.067,2.141 -0.097,1.787 -0.072,1.447C-0.03,0.873 0.115,0.42 0.599,0.188C0.84,0.074 1.514,0 1.772,0.069C2.25,0.198 2.265,0.729 2.283,1.136C2.393,3.678 2.535,11.18 2.535,11.18L0,11.286Z" style="fill:rgb(247,144,29);fill-rule:nonzero;"/>
            </g>
            <g transform="matrix(1,0,0,1,298.749,492.268)">
                <path d="M0,-9.124C-0.079,-9.283 -0.251,-9.364 -0.622,-9.334C-1.009,-9.303 -1.186,-9.026 -1.21,-8.669C-1.289,-7.509 -1.736,0.24 -1.736,0.24C-1.736,0.24 0,-0.162 0.069,-0.178C0.186,-0.205 0.068,-3.218 0.068,-3.434C0.066,-5.082 0.064,-6.729 0.063,-8.377C0.062,-8.69 0.085,-8.953 0,-9.124" style="fill:rgb(59,140,174);fill-rule:nonzero;"/>
            </g>
            <g transform="matrix(-0.983902,-0.17871,-0.17871,0.983902,291.694,493.589)">
                <path d="M-0.854,-9.467C-0.854,-9.467 -0.325,-9.379 -0.297,-8.547C-0.268,-7.716 -0.854,0.085 -0.854,0.085L-1.538,-0.461L-0.854,-9.467Z" style="fill:rgb(59,140,174);fill-rule:nonzero;"/>
            </g>
            <g transform="matrix(1,0,0,1,302.294,483.303)">
                <path d="M0,5.35C0,5.35 -0.17,-0.59 -0.171,-0.628C-0.181,-0.967 0.333,-1.429 0.632,-1.458C1.091,-1.503 1.395,-1.067 1.61,-0.724C1.595,0.969 1.681,6.853 1.681,6.853L0,5.35Z" style="fill:rgb(59,140,174);fill-rule:nonzero;"/>
            </g>
            <g transform="matrix(0.954498,-0.298218,-0.298218,-0.954498,325.499,494.392)">
                <path d="M-1.64,-0.22C-1.64,-0.22 -0.569,8.62 -0.566,8.643C-0.51,9.106 -1.415,10.827 -1.64,9.857C-1.939,8.561 -3.405,0.244 -3.405,0.244L-1.64,-0.22Z" style="fill:rgb(247,144,29);fill-rule:nonzero;"/>
            </g>
            <g transform="matrix(0.966316,-0.257358,-0.257358,-0.966316,321.271,493.876)">
                <path d="M-1.56,-0.191C-1.56,-0.191 -0.125,9.769 -0.12,9.809C0.021,10.787 -0.535,11.672 -1.56,11.47C-1.626,11.29 -3.176,1.327 -3.176,1.327L-1.56,-0.191Z" style="fill:rgb(247,144,29);fill-rule:nonzero;"/>
            </g>
            <g transform="matrix(0.96851,-0.248973,-0.248973,-0.96851,316.54,492.192)">
                <path d="M-1.542,-0.156C-1.542,-0.156 0.37,9.776 0.38,9.828C0.567,10.779 -1.236,12.192 -1.542,10.909C-1.943,9.227 -4.051,1.148 -4.051,1.148L-1.542,-0.156Z" style="fill:rgb(247,144,29);fill-rule:nonzero;"/>
            </g>
            <g transform="matrix(1,0,0,1,309.375,480.515)">
                <path d="M0,11.286C0.022,8.351 0.043,5.416 0.064,2.481C0.067,2.141 0.097,1.787 0.072,1.447C0.03,0.873 -0.115,0.42 -0.599,0.188C-0.84,0.074 -1.514,0 -1.772,0.069C-2.25,0.198 -2.265,0.729 -2.283,1.136C-2.393,3.678 -2.535,11.18 -2.535,11.18L0,11.286Z" style="fill:rgb(247,144,29);fill-rule:nonzero;"/>
            </g>
            <g transform="matrix(1,0,0,1,312.401,492.268)">
                <path d="M0,-9.124C0.079,-9.283 0.251,-9.364 0.622,-9.334C1.009,-9.303 1.186,-9.026 1.21,-8.669C1.289,-7.509 1.737,0.24 1.737,0.24C1.737,0.24 0,-0.162 -0.069,-0.178C-0.186,-0.205 -0.068,-3.218 -0.068,-3.434C-0.066,-5.082 -0.064,-6.729 -0.063,-8.377C-0.062,-8.69 -0.085,-8.953 0,-9.124" style="fill:rgb(59,140,174);fill-rule:nonzero;"/>
            </g>
            <g transform="matrix(-0.983902,0.17871,0.17871,0.983902,319.456,493.589)">
                <path d="M0.854,-9.467C0.854,-9.467 0.325,-9.379 0.297,-8.547C0.268,-7.716 0.854,0.085 0.854,0.085L1.538,-0.461L0.854,-9.467Z" style="fill:rgb(59,140,174);fill-rule:nonzero;"/>
            </g>
            <g transform="matrix(1,0,0,1,308.856,483.303)">
                <path d="M0,5.35C0,5.35 0.17,-0.59 0.171,-0.628C0.181,-0.967 -0.333,-1.429 -0.632,-1.458C-1.091,-1.503 -1.395,-1.067 -1.61,-0.724C-1.595,0.969 -1.681,6.853 -1.681,6.853L0,5.35Z" style="fill:rgb(59,140,174);fill-rule:nonzero;"/>
            </g>
            <g transform="matrix(-0.583843,-0.811867,-0.811867,0.583843,289.204,487.763)">
                <rect x="0.688" y="-0.354" width="0.4" height="2.475" style="fill:rgb(247,144,29);"/>
            </g>
            <g transform="matrix(-0.464195,-0.885733,-0.885733,0.464195,292.849,485.965)">
                <rect x="1.165" y="-0.704" width="0.402" height="3.294" style="fill:rgb(247,144,29);"/>
            </g>
            <g transform="matrix(-0.357972,-0.933732,-0.933732,0.357972,296.876,484.489)">
                <rect x="1.284" y="-0.883" width="0.399" height="3.33" style="fill:rgb(247,144,29);"/>
            </g>
            <g transform="matrix(-0.168059,-0.985777,-0.985777,0.168059,301.1,483.749)">
                <rect x="1.589" y="-1.343" width="0.401" height="3.698" style="fill:rgb(247,144,29);"/>
            </g>
            <g transform="matrix(-1,-0,-0,1,611.572,121.413)">
                <rect x="303.471" y="360.039" width="4.63" height="0.399" style="fill:rgb(247,144,29);"/>
            </g>
            <g transform="matrix(-0.986376,-0.164509,-0.164509,0.986376,309.182,481.108)">
                <rect x="-4.362" y="0.361" width="4.426" height="0.399" style="fill:rgb(247,144,29);"/>
            </g>
            <g transform="matrix(-0.955713,-0.2943,-0.2943,0.955713,314.483,482.025)">
                <rect x="-3.474" y="0.523" width="3.612" height="0.399" style="fill:rgb(247,144,29);"/>
            </g>
            <g transform="matrix(-0.891021,-0.453963,-0.453963,0.891021,319.03,483.525)">
                <rect x="-3.378" y="0.811" width="3.668" height="0.399" style="fill:rgb(247,144,29);"/>
            </g>
            <g transform="matrix(-0.788835,-0.614605,-0.614605,0.788835,323.132,486.086)">
                <rect x="-2.3" y="0.79" width="2.709" height="0.399" style="fill:rgb(247,144,29);"/>
            </g>
            <g transform="matrix(1,0,0,1,311.159,482.083)">
                <path d="M0,11.586C0.953,11.75 2.036,12.004 2.489,12.859C2.129,11.34 1.961,9.775 1.993,8.215C1.995,8.101 1.997,7.982 1.943,7.882C1.796,7.608 1.396,7.678 1.088,7.638C-0.009,7.495 -0.272,5.684 -1.374,5.583C-0.957,4.129 -1.428,3.253 -2.206,3.462C-2.212,3.132 -1.671,2.981 -1.505,3.266C-1.187,2.982 -1.653,2.421 -2.068,2.517C-2.483,2.612 -2.725,3.034 -2.916,3.414C-3.73,2.916 -4.613,2.53 -5.53,2.269C-5.51,2.124 -5.489,1.98 -5.468,1.836C-4.848,1.342 -4.851,0.257 -5.474,-0.234C-5.089,-0.414 -5.305,-1.077 -5.718,-1.177C-6.132,-1.277 -6.541,-1.031 -6.896,-0.797C-7.33,-0.509 -7.813,-0.136 -7.813,0.384C-7.813,0.651 -7.681,0.898 -7.618,1.158C-7.392,2.097 -8.086,2.985 -8.733,3.702C-8.982,3.273 -9.613,3.124 -10.027,3.398C-10.442,3.671 -10.554,4.309 -10.258,4.708C-10.158,4.843 -10.019,4.952 -9.951,5.106C-9.828,5.388 -9.994,5.729 -10.247,5.904C-10.5,6.079 -10.816,6.128 -11.12,6.173C-11.101,7.503 -12.538,8.643 -13.829,8.321C-13.898,8.723 -13.846,9.145 -13.679,9.517C-14.003,9.63 -14.301,9.816 -14.544,10.057C-14.286,10.418 -14.028,10.779 -13.77,11.14C-14.05,11.299 -14.341,11.468 -14.513,11.74C-14.685,12.012 -14.689,12.42 -14.435,12.617C-14.118,12.863 -13.666,12.65 -13.311,12.462C-11.446,11.472 -9.269,11.298 -7.161,11.163C-6.098,11.094 -5.033,11.031 -3.968,11.076C-2.635,11.133 -1.315,11.36 0,11.586" style="fill:rgb(240,233,52);fill-rule:nonzero;"/>
            </g>
            <g transform="matrix(1,0,0,1,313.555,493.007)">
                <path d="M0,2.909C-0.019,2.896 -2.638,3.137 -8.317,3.137C-14.048,3.137 -16.57,2.781 -16.59,2.797L-17.331,1.945C-17.234,1.871 -14.451,-0.228 -8.317,-0.228C-2.192,-0.228 0.609,1.843 0.71,1.917L0,2.909Z" style="fill:rgb(240,233,52);fill-rule:nonzero;"/>
            </g>
            <g transform="matrix(1,0,0,1,313.392,493.578)">
                <path d="M0,2.566C-0.019,2.552 -2.476,2.832 -8.155,2.832C-13.885,2.832 -16.294,2.357 -16.314,2.373L-16.975,1.597C-16.878,1.523 -14.289,-0.266 -8.155,-0.266C-2.029,-0.266 0.627,1.483 0.728,1.557L0,2.566Z" style="fill:rgb(247,144,29);fill-rule:nonzero;"/>
            </g>
            <g transform="matrix(1,0,0,1,304.706,487.682)">
                <path d="M0,4.516C0.212,4.512 0.424,4.525 0.634,4.555C0.678,3.942 0.956,3.363 0.992,2.75C1.014,2.357 0.936,1.965 0.919,1.571C0.898,1.088 0.971,0.6 1.134,0.144C0.964,0.197 0.762,0.116 0.675,-0.039C0.484,0.493 0.29,1.045 0.332,1.609C0.35,1.839 0.407,2.067 0.408,2.299C0.413,3.059 -0.175,3.776 0,4.516" style="fill:rgb(247,144,29);fill-rule:nonzero;"/>
            </g>
            <g transform="matrix(1,0,0,1,302.981,486.03)">
                <path d="M0,-0.141C0.29,-0.588 0.463,-1.098 0.634,-1.602C0.638,-1.298 0.7,-0.994 0.815,-0.712C0.896,-0.515 1.003,-0.327 1.052,-0.12C1.102,0.087 1.084,0.326 0.94,0.483C0.563,0.634 0.315,1.058 0.368,1.461C0.166,1.226 -0.004,0.964 -0.134,0.683C-0.181,0.582 -0.224,0.474 -0.223,0.362C-0.221,0.176 -0.101,0.015 0,-0.141" style="fill:rgb(247,144,29);fill-rule:nonzero;"/>
            </g>
            <g transform="matrix(1,0,0,1,306.66,489.167)">
                <path d="M0,-0.252C-0.059,-0.057 -0.122,0.139 -0.14,0.342C-0.171,0.667 -0.087,0.995 -0.128,1.318C-0.204,1.932 -0.716,2.496 -0.559,3.095C-0.315,3.183 -0.071,3.27 0.173,3.358C0.133,3.129 0.093,2.89 0.162,2.668C0.232,2.446 0.448,2.252 0.677,2.29C0.691,1.902 0.726,1.501 0.906,1.157C1.087,0.813 1.448,0.536 1.836,0.568C1.559,0.292 1.294,-0.026 1.223,-0.411C1.153,-0.796 1.348,-1.253 1.727,-1.35C1.554,-1.29 1.331,-1.325 1.237,-1.482C1.143,-1.639 1.284,-1.894 1.461,-1.849C1.245,-2.008 1.048,-2.309 1.208,-2.524C1.282,-2.625 1.411,-2.666 1.511,-2.741C1.612,-2.815 1.683,-2.969 1.597,-3.06C0.962,-3.085 0.836,-3.61 0.203,-3.551C0.495,-2.524 0.372,-1.481 0,-0.252" style="fill:rgb(247,144,29);fill-rule:nonzero;"/>
            </g>
            <g transform="matrix(1,0,0,1,308.763,487.889)">
                <path d="M0,-1.733C-0.099,-1.637 -0.133,-1.488 -0.116,-1.351C-0.098,-1.214 -0.036,-1.088 0.034,-0.969C0.078,-0.894 0.128,-0.82 0.2,-0.771C0.328,-0.683 0.496,-0.694 0.65,-0.709C0.613,-0.66 0.55,-0.638 0.505,-0.595C0.452,-0.545 0.429,-0.47 0.414,-0.398C0.399,-0.33 0.389,-0.26 0.383,-0.191C0.379,-0.144 0.375,-0.093 0.345,-0.057C0.31,-0.016 0.251,-0.006 0.197,0C0.192,-0.108 0.178,-0.231 0.09,-0.293C0.026,-0.339 -0.061,-0.337 -0.139,-0.322C-0.077,-0.343 -0.043,-0.417 -0.057,-0.481C-0.07,-0.545 -0.121,-0.596 -0.18,-0.624C-0.205,-0.635 -0.233,-0.644 -0.253,-0.662C-0.274,-0.68 -0.287,-0.712 -0.273,-0.736C-0.268,-0.744 -0.26,-0.75 -0.255,-0.758C-0.243,-0.778 -0.248,-0.807 -0.267,-0.82C-0.286,-0.833 -0.315,-0.83 -0.329,-0.812C-0.244,-0.844 -0.223,-0.964 -0.264,-1.045C-0.306,-1.126 -0.388,-1.178 -0.466,-1.225C-0.338,-1.238 -0.224,-1.337 -0.191,-1.461C-0.171,-1.537 -0.175,-1.629 -0.114,-1.679C-0.081,-1.706 -0.037,-1.713 0,-1.733" style="fill:rgb(247,144,29);fill-rule:nonzero;"/>
            </g>
            <g transform="matrix(1,0,0,1,309.134,486.229)">
                <path d="M0,0.159C-0.021,0.21 -0.071,0.242 -0.12,0.266C-0.156,0.284 -0.196,0.301 -0.237,0.3C-0.278,0.299 -0.321,0.278 -0.335,0.239C-0.354,0.191 -0.322,0.138 -0.287,0.1C-0.168,-0.028 0.004,-0.094 0.176,-0.127C0.22,-0.135 0.267,-0.142 0.311,-0.13C0.354,-0.117 0.395,-0.082 0.399,-0.037C0.401,-0.015 0.393,0.008 0.376,0.021C0.364,0.029 0.349,0.032 0.334,0.035C0.274,0.046 0.203,0.055 0.157,0.014C0.137,-0.004 0.12,-0.031 0.093,-0.033C0.08,-0.034 0.068,-0.028 0.058,-0.02C0.008,0.02 0.025,0.1 0,0.159" style="fill:rgb(247,144,29);fill-rule:nonzero;"/>
            </g>
            <g transform="matrix(1,0,0,1,309.213,488.866)">
                <path d="M0,-0.153C0.088,-0.17 0.17,-0.213 0.235,-0.275C0.287,-0.324 0.339,-0.391 0.411,-0.387C0.447,-0.386 0.479,-0.366 0.509,-0.346C0.565,-0.309 0.62,-0.272 0.675,-0.233C0.735,-0.19 0.799,-0.139 0.815,-0.066C0.833,0.017 0.778,0.103 0.706,0.148C0.633,0.193 0.546,0.206 0.462,0.219C0.418,0.225 0.374,0.232 0.33,0.238C0.258,0.089 0.144,-0.039 0.004,-0.128" style="fill:rgb(247,144,29);fill-rule:nonzero;"/>
            </g>
            <g transform="matrix(1,0,0,1,310.7,489.398)">
                <path d="M0,-0.589C-0.148,-0.673 -0.318,-0.707 -0.486,-0.73C-0.447,-0.489 -0.291,-0.268 -0.076,-0.151C-0.073,-0.067 -0.07,0.017 -0.067,0.101C0.043,0.096 0.151,0.139 0.261,0.14C0.371,0.141 0.499,0.07 0.494,-0.04C0.492,-0.098 0.453,-0.147 0.417,-0.192C0.294,-0.341 0.168,-0.494 0,-0.589" style="fill:rgb(247,144,29);fill-rule:nonzero;"/>
            </g>
            <g transform="matrix(1,0,0,1,307.876,492.021)">
                <path d="M0,-3.267C0.083,-3.335 0.213,-3.308 0.295,-3.239C0.377,-3.171 0.426,-3.071 0.479,-2.979C0.839,-2.36 1.558,-1.97 2.272,-2.005C2.703,-2.026 3.114,-2.187 3.54,-2.252C3.438,-2.186 3.361,-2.082 3.325,-1.966C3.125,-2.04 2.902,-1.99 2.695,-1.939C2.258,-1.832 1.821,-1.725 1.384,-1.618C1.552,-0.998 1.281,-0.284 0.744,0.068C0.643,-0.18 0.541,-0.432 0.512,-0.698C0.459,-1.178 0.645,-1.675 0.514,-2.139C0.493,-2.212 0.465,-2.283 0.416,-2.341C0.347,-2.424 0.244,-2.47 0.16,-2.537C0.003,-2.661 -0.09,-2.863 -0.082,-3.063C-0.079,-3.138 -0.059,-3.219 0,-3.267" style="fill:rgb(247,144,29);fill-rule:nonzero;"/>
            </g>
            <g transform="matrix(1,0,0,1,309.635,491.573)">
                <path d="M0,-1.114C-0.177,-0.759 -0.315,-0.385 -0.41,0C-0.238,-0.098 -0.12,-0.285 -0.106,-0.482C-0.101,-0.563 -0.112,-0.644 -0.107,-0.725C-0.099,-0.86 -0.049,-0.988 0,-1.114" style="fill:rgb(247,144,29);fill-rule:nonzero;"/>
            </g>
            <g transform="matrix(1,0,0,1,311.126,490.749)">
                <path d="M0,1.945C0.239,1.942 0.444,1.76 0.556,1.549C0.668,1.338 0.709,1.098 0.772,0.868C0.9,0.4 1.122,-0.037 1.342,-0.469C1.207,-0.307 1.046,-0.166 0.867,-0.053C0.834,-0.032 0.798,-0.011 0.759,-0.016C0.684,-0.023 0.65,-0.116 0.654,-0.192C0.659,-0.267 0.684,-0.345 0.658,-0.416C0.666,-0.325 0.591,-0.234 0.499,-0.226C0.408,-0.217 0.316,-0.291 0.307,-0.383C0.332,-0.065 0.171,0.237 -0.013,0.496C-0.386,1.022 -0.876,1.464 -1.438,1.779C-1.72,1.937 -2.033,2.075 -2.218,2.34C-2.024,2.414 -1.824,2.267 -1.654,2.149C-1.484,2.031 -1.225,1.945 -1.091,2.102C-1.035,2.168 -1.003,2.274 -0.917,2.284C-0.785,2.3 -0.768,2.099 -0.692,1.991C-0.622,1.891 -0.481,1.87 -0.36,1.886C-0.24,1.902 -0.122,1.947 0,1.945" style="fill:rgb(247,144,29);fill-rule:nonzero;"/>
            </g>
            <g transform="matrix(1,0,0,1,304.025,492.511)">
                <path d="M0,-4.624C0.015,-4.361 0.253,-4.156 0.291,-3.895C0.335,-3.595 0.112,-3.331 0.007,-3.047C-0.13,-2.676 -0.062,-2.259 0.069,-1.886C0.145,-1.669 0.241,-1.457 0.285,-1.232C0.329,-1.006 0.314,-0.756 0.18,-0.569C0.129,-0.497 0.061,-0.436 0.026,-0.354C-0.008,-0.273 0.007,-0.159 0.088,-0.123C-0.081,-0.028 -0.238,0.086 -0.382,0.217C-0.271,0.021 -0.289,-0.24 -0.426,-0.418C-0.563,-0.596 -0.811,-0.681 -1.028,-0.624C-0.97,-1.158 -0.912,-1.708 -1.064,-2.223C-1.112,-2.386 -1.181,-2.548 -1.17,-2.718C-1.164,-2.822 -1.128,-2.921 -1.094,-3.019C-0.99,-3.319 -0.906,-3.63 -0.901,-3.948C-0.896,-4.266 -0.978,-4.593 -1.177,-4.841C-0.91,-4.518 -0.413,-4.556 0,-4.624" style="fill:rgb(247,144,29);fill-rule:nonzero;"/>
            </g>
            <g transform="matrix(1,0,0,1,300.837,493.133)">
                <path d="M0,-2.832C-0.011,-2.775 -0.022,-2.718 -0.033,-2.661C-0.116,-2.633 -0.201,-2.698 -0.25,-2.77C-0.299,-2.842 -0.334,-2.927 -0.405,-2.977C-0.526,-3.061 -0.704,-2.999 -0.796,-2.883C-0.887,-2.767 -0.913,-2.614 -0.937,-2.468C-0.976,-2.224 -1.015,-1.98 -1.05,-1.735C-1.093,-1.423 -1.127,-1.098 -1.019,-0.803C-0.911,-0.508 -0.676,-0.28 -0.448,-0.064C-0.321,0.056 -0.187,0.181 -0.018,0.229C-0.014,0.013 -0.017,-0.203 -0.027,-0.419C0.08,-0.372 0.187,-0.325 0.295,-0.279C0.266,-0.474 0.521,-0.571 0.642,-0.727C0.763,-0.882 0.745,-1.099 0.741,-1.296C0.736,-1.492 0.768,-1.721 0.937,-1.821C0.996,-1.856 1.073,-1.878 1.098,-1.942C1.136,-2.042 1.015,-2.122 0.94,-2.199C0.822,-2.32 0.805,-2.504 0.763,-2.668C0.721,-2.832 0.616,-3.011 0.447,-3.021C0.512,-2.825 0.544,-2.618 0.543,-2.411C0.331,-2.502 0.142,-2.649 0,-2.832" style="fill:rgb(247,144,29);fill-rule:nonzero;"/>
            </g>
            <g transform="matrix(1,0,0,1,301.67,488.905)">
                <path d="M0,-0.303C-0.02,-0.295 -0.035,-0.279 -0.048,-0.263C-0.137,-0.158 -0.208,-0.039 -0.257,0.089C-0.266,0.114 -0.275,0.143 -0.263,0.167C-0.242,0.207 -0.183,0.201 -0.139,0.188C0.042,0.135 0.223,0.082 0.405,0.029C0.445,0.017 0.486,0.005 0.52,-0.018C0.594,-0.068 0.626,-0.163 0.624,-0.252C0.621,-0.341 0.59,-0.426 0.558,-0.51C0.578,-0.437 0.585,-0.361 0.582,-0.285C0.581,-0.264 0.578,-0.24 0.563,-0.224C0.55,-0.21 0.531,-0.205 0.512,-0.201C0.381,-0.175 0.241,-0.199 0.127,-0.267C0.088,-0.29 0.043,-0.319 0,-0.303" style="fill:rgb(247,144,29);fill-rule:nonzero;"/>
            </g>
            <g transform="matrix(1,0,0,1,301.354,489.608)">
                <path d="M0,-0.486C-0.104,-0.49 -0.203,-0.439 -0.289,-0.382C-0.467,-0.264 -0.619,-0.113 -0.77,0.038C-0.822,0.089 -0.872,0.181 -0.813,0.225C-1.05,0.144 -1.339,0.299 -1.402,0.541C-1.425,0.628 -1.43,0.734 -1.506,0.781C-1.547,0.807 -1.599,0.808 -1.648,0.808C-1.802,0.807 -1.956,0.805 -2.11,0.804C-2.025,0.797 -1.949,0.733 -1.928,0.651C-1.907,0.569 -1.944,0.475 -2.015,0.429C-1.761,0.29 -1.493,0.136 -1.363,-0.121C-1.26,-0.324 -1.258,-0.562 -1.21,-0.784C-1.161,-1.007 -1.034,-1.243 -0.812,-1.294C-0.88,-1.171 -0.948,-1.047 -1.015,-0.924C-1.04,-0.879 -1.065,-0.83 -1.055,-0.78C-1.044,-0.728 -0.997,-0.691 -0.949,-0.667C-0.823,-0.601 -0.671,-0.588 -0.535,-0.629C-0.498,-0.641 -0.459,-0.656 -0.42,-0.649C-0.385,-0.643 -0.357,-0.62 -0.328,-0.599C-0.233,-0.532 -0.117,-0.492 0,-0.486" style="fill:rgb(247,144,29);fill-rule:nonzero;"/>
            </g>
            <g transform="matrix(1,0,0,1,297.488,492)">
                <path d="M0,0.718C0.026,0.607 0.147,0.541 0.261,0.539C0.375,0.537 0.482,0.585 0.586,0.632C0.434,0.592 0.356,0.421 0.344,0.265C0.333,0.108 0.368,-0.049 0.349,-0.205C0.33,-0.361 0.231,-0.526 0.076,-0.543C0.141,-0.603 0.236,-0.629 0.322,-0.609C0.185,-0.866 0.193,-1.196 0.343,-1.446C0.413,-0.82 0.642,-0.211 1.004,0.305C1.113,0.46 1.235,0.61 1.297,0.789C1.358,0.968 1.346,1.188 1.21,1.319C1.136,1.391 1.036,1.427 0.946,1.478C0.857,1.529 0.77,1.607 0.759,1.71C0.749,1.812 0.861,1.921 0.952,1.873C0.627,2.026 0.277,2.124 -0.08,2.164C-0.126,2.129 -0.089,2.048 -0.034,2.028C0.021,2.007 0.083,2.019 0.14,2.005C0.197,1.991 0.251,1.928 0.22,1.878C0.201,1.847 0.159,1.84 0.122,1.834C-0.001,1.815 -0.12,1.77 -0.226,1.703C-0.282,1.668 -0.341,1.604 -0.312,1.544C-0.292,1.503 -0.24,1.49 -0.195,1.482C0.011,1.444 0.216,1.406 0.422,1.368C0.401,1.098 -0.062,0.981 0,0.718" style="fill:rgb(247,144,29);fill-rule:nonzero;"/>
            </g>
            <g transform="matrix(1,0,0,1,299.712,490.643)">
                <path d="M0,2.643C0.032,2.69 0.068,2.738 0.121,2.758C0.176,2.778 0.236,2.764 0.293,2.751C0.522,2.699 0.757,2.675 0.992,2.68C0.573,2.308 0.307,1.769 0.265,1.21C0.254,1.054 0.252,0.88 0.141,0.77C0.092,0.722 0.028,0.693 -0.034,0.663C-0.47,0.457 -0.876,0.187 -1.235,-0.135C-0.858,0.178 -0.502,0.517 -0.17,0.878C-0.463,0.834 -0.74,0.686 -0.938,0.466C-0.685,0.821 -0.359,1.117 -0.035,1.409C-0.227,1.449 -0.439,1.377 -0.568,1.228C-0.325,1.52 -0.091,1.818 0.135,2.122C-0.109,2.073 -0.334,1.937 -0.493,1.745C-0.36,2.06 -0.195,2.362 0,2.643" style="fill:rgb(247,144,29);fill-rule:nonzero;"/>
            </g>
            <g transform="matrix(1,0,0,1,302.149,491.942)">
                <path d="M0,0.545C0.075,0.523 0.155,0.52 0.229,0.494C0.303,0.468 0.375,0.41 0.381,0.332C0.363,0.518 0.302,0.7 0.205,0.86C0.251,0.876 0.299,0.848 0.34,0.822C0.577,0.668 0.813,0.462 0.688,0.156C0.65,0.064 0.333,-0.377 0.237,-0.386C0.086,-0.4 -0.104,0.022 -0.168,0.125C-0.315,0.357 -0.511,0.673 -0.338,0.945C-0.305,0.762 -0.183,0.598 0,0.545" style="fill:rgb(247,144,29);fill-rule:nonzero;"/>
            </g>
            <g transform="matrix(1,0,0,1,302.963,489.588)">
                <path d="M0,0.303C-0.386,0.423 -0.816,0.54 -1.18,0.366C-1.214,0.35 -1.249,0.331 -1.286,0.332C-1.374,0.333 -1.421,0.432 -1.486,0.492C-1.561,0.561 -1.673,0.579 -1.775,0.562C-1.876,0.545 -1.969,0.498 -2.061,0.451C-2.195,0.383 -2.329,0.315 -2.463,0.247C-2.322,0.278 -2.181,0.31 -2.04,0.341C-1.888,0.375 -1.72,0.407 -1.582,0.333C-1.487,0.283 -1.422,0.189 -1.373,0.093C-1.339,0.027 -1.302,-0.049 -1.231,-0.071C-1.195,-0.081 -1.156,-0.076 -1.119,-0.071C-0.702,-0.01 -0.23,0.001 0.088,-0.276C0.01,-0.095 -0.02,0.107 0,0.303" style="fill:rgb(247,144,29);fill-rule:nonzero;"/>
            </g>
            <g transform="matrix(1,0,0,1,305.503,487.144)">
                <path d="M0,0.01C-0.057,-0.006 -0.113,-0.027 -0.168,-0.048C-0.395,-0.135 -0.623,-0.221 -0.85,-0.308C-0.651,-0.012 -0.341,0.206 0.005,0.292C0.065,0.307 0.126,0.318 0.188,0.312C0.279,0.302 0.362,0.255 0.437,0.201C0.582,0.1 0.709,-0.027 0.812,-0.171C0.592,0.015 0.278,0.085 0,0.01" style="fill:rgb(247,144,29);fill-rule:nonzero;"/>
            </g>
            <g transform="matrix(1,0,0,1,305.262,486.646)">
                <path d="M0,0.184C-0.063,0.158 -0.126,0.131 -0.189,0.105C-0.038,0.2 0.159,0.156 0.333,0.111C0.641,0.03 0.951,-0.043 1.263,-0.109C1.299,-0.116 1.336,-0.124 1.372,-0.115C1.418,-0.104 1.459,-0.067 1.506,-0.076C1.28,-0.007 1.07,0.104 0.848,0.183C0.626,0.262 0.381,0.308 0.155,0.242C0.102,0.227 0.051,0.205 0,0.184" style="fill:rgb(247,144,29);fill-rule:nonzero;"/>
            </g>
            <g transform="matrix(1,0,0,1,304.337,487.751)">
                <path d="M0,-0.768C-0.219,-0.647 -0.372,-0.415 -0.397,-0.167C-0.401,-0.134 -0.402,-0.101 -0.414,-0.071C-0.445,0.006 -0.536,0.04 -0.619,0.046C-0.701,0.051 -0.785,0.036 -0.866,0.053C-0.754,0.058 -0.655,-0.029 -0.609,-0.131C-0.562,-0.233 -0.556,-0.348 -0.545,-0.46C-0.54,-0.516 -0.533,-0.572 -0.509,-0.623C-0.471,-0.705 -0.391,-0.763 -0.305,-0.792C-0.206,-0.826 -0.09,-0.822 0,-0.768" style="fill:rgb(247,144,29);fill-rule:nonzero;"/>
            </g>
            <g transform="matrix(1,0,0,1,300.968,486.156)">
                <path d="M0,0.254C-0.029,0.17 -0.066,0.073 -0.019,-0.003C0.02,-0.067 0.109,-0.094 0.136,-0.165C0.159,-0.222 0.132,-0.289 0.152,-0.347C0.188,-0.454 0.337,-0.456 0.431,-0.517C0.441,-0.524 0.451,-0.531 0.462,-0.531C0.494,-0.529 0.524,-0.472 0.542,-0.499C0.429,-0.418 0.425,-0.255 0.428,-0.116C0.428,-0.097 0.428,-0.078 0.417,-0.063C0.407,-0.047 0.388,-0.04 0.37,-0.035C0.321,-0.02 0.269,-0.011 0.217,-0.008C0.27,0.087 0.286,0.202 0.261,0.308C0.25,0.354 0.232,0.397 0.214,0.441C0.167,0.556 0.12,0.67 0.073,0.785C0.084,0.605 0.059,0.424 0,0.254" style="fill:rgb(247,144,29);fill-rule:nonzero;"/>
            </g>
            <g transform="matrix(1,0,0,1,302.123,487.23)">
                <path d="M0,-1.229C-0.087,-1.285 -0.16,-1.362 -0.211,-1.451C-0.231,-1.386 -0.208,-1.315 -0.173,-1.257C-0.138,-1.199 -0.09,-1.15 -0.051,-1.094C0.066,-0.923 0.084,-0.688 -0.006,-0.501C-0.034,-0.442 -0.072,-0.387 -0.102,-0.328C-0.188,-0.16 -0.2,0.045 -0.134,0.222C-0.132,0.18 -0.129,0.138 -0.127,0.095C-0.123,0.03 -0.118,-0.038 -0.085,-0.095C-0.051,-0.151 0.02,-0.191 0.081,-0.166C0.097,-0.225 0.038,-0.279 0.034,-0.34C0.026,-0.459 0.218,-0.512 0.219,-0.631C0.22,-0.723 0.102,-0.803 0.142,-0.886C0.153,-0.909 0.175,-0.925 0.189,-0.947C0.223,-1 0.2,-1.075 0.156,-1.121C0.113,-1.167 0.053,-1.195 0,-1.229" style="fill:rgb(247,144,29);fill-rule:nonzero;"/>
            </g>
            <g transform="matrix(1,0,0,1,301.065,486.884)">
                <path d="M0,1.03C0.1,0.796 0.19,0.53 0.097,0.294C0.057,0.193 -0.016,0.091 0.012,-0.014C0.114,0.118 0.221,0.254 0.371,0.325C0.521,0.395 0.727,0.378 0.821,0.24C0.634,0.411 0.525,0.655 0.486,0.905C0.482,0.931 0.478,0.96 0.461,0.98C0.441,1.004 0.408,1.012 0.378,1.017C0.253,1.039 0.126,1.044 0,1.03" style="fill:rgb(247,144,29);fill-rule:nonzero;"/>
            </g>
            <g transform="matrix(1,0,0,1,304.753,484.01)">
                <path d="M0,0.568C-0.196,0.599 -0.377,0.719 -0.48,0.889C-0.583,1.059 -0.608,1.274 -0.545,1.463C-0.797,1.246 -0.985,0.955 -1.08,0.636C-1.123,0.491 -1.147,0.342 -1.167,0.193C-1.214,-0.168 -1.234,-0.532 -1.228,-0.895C-1.181,-0.682 -1.133,-0.466 -1.036,-0.271C-0.94,-0.075 -0.787,0.102 -0.584,0.183C-0.55,0.197 -0.511,0.21 -0.494,0.243C-0.482,0.267 -0.485,0.295 -0.483,0.321C-0.474,0.421 -0.39,0.501 -0.296,0.536C-0.203,0.571 -0.1,0.57 0,0.568" style="fill:rgb(247,144,29);fill-rule:nonzero;"/>
            </g>
            <g transform="matrix(1,0,0,1,304.746,482.084)">
                <path d="M0,1.22C0.014,1.163 0.061,1.105 0.036,1.052C0.01,0.996 -0.083,0.977 -0.076,0.916C-0.074,0.894 -0.058,0.877 -0.046,0.858C0.062,0.682 -0.233,0.436 -0.108,0.271C-0.056,0.202 0.049,0.188 0.096,0.116C0.14,0.048 0.116,-0.041 0.107,-0.121C0.099,-0.202 0.128,-0.305 0.208,-0.314C0.271,-0.321 0.322,-0.264 0.384,-0.25C0.492,-0.226 0.578,-0.337 0.632,-0.433C0.751,-0.323 0.87,-0.213 0.989,-0.103C0.774,-0.137 0.514,-0.155 0.381,0.017C0.332,0.08 0.311,0.16 0.29,0.237C0.27,0.313 0.249,0.389 0.229,0.465C0.21,0.538 0.19,0.611 0.182,0.686C0.164,0.836 0.192,0.987 0.189,1.138C0.185,1.314 0.14,1.487 0.078,1.653C0.14,1.515 -0.037,1.366 0,1.22" style="fill:rgb(247,144,29);fill-rule:nonzero;"/>
            </g>
            <g transform="matrix(1,0,0,1,304.673,481.365)">
                <path d="M0,2.615C0.04,2.349 -0.246,2.066 -0.102,1.838C-0.086,1.813 -0.065,1.789 -0.06,1.76C-0.053,1.707 -0.1,1.666 -0.137,1.628C-0.284,1.477 -0.312,1.224 -0.203,1.043C-0.172,0.992 -0.13,0.944 -0.123,0.884C-0.118,0.843 -0.13,0.801 -0.13,0.76C-0.131,0.601 0.035,0.502 0.178,0.435C0.271,0.392 0.363,0.349 0.455,0.306C0.486,0.291 0.519,0.276 0.554,0.276C0.631,0.274 0.69,0.339 0.751,0.386C0.813,0.434 0.915,0.458 0.957,0.393C0.87,0.363 0.833,0.262 0.795,0.178C0.757,0.093 0.681,0.002 0.591,0.025C0.554,0.034 0.521,0.061 0.483,0.057C0.438,0.051 0.405,0 0.36,0.004C0.331,0.007 0.31,0.03 0.291,0.052C0.027,0.358 -0.324,0.588 -0.71,0.707C-0.735,0.944 -0.521,1.131 -0.431,1.352C-0.3,1.675 -0.444,2.045 -0.388,2.39C-0.355,2.314 -0.321,2.238 -0.288,2.162C-0.149,2.279 -0.047,2.439 0,2.615" style="fill:rgb(247,144,29);fill-rule:nonzero;"/>
            </g>
            <g transform="matrix(1,0,0,1,305.693,482.837)">
                <path d="M0,0.733C-0.146,0.782 -0.305,0.76 -0.457,0.737C-0.565,0.722 -0.676,0.704 -0.765,0.641C-0.867,0.569 -0.923,0.444 -0.934,0.32C-0.946,0.195 -0.918,0.07 -0.879,-0.049C-0.842,0.039 -0.817,0.133 -0.804,0.227C-0.798,0.276 -0.795,0.325 -0.776,0.37C-0.718,0.506 -0.545,0.547 -0.397,0.542C-0.25,0.537 -0.094,0.507 0.039,0.57C0.06,0.579 0.081,0.592 0.09,0.613C0.114,0.665 0.054,0.715 0,0.733" style="fill:rgb(247,144,29);fill-rule:nonzero;"/>
            </g>
            <g transform="matrix(1,0,0,1,305.916,482.627)">
                <path d="M0,-0.092C0.023,-0.026 0.004,0.053 -0.047,0.101C-0.098,0.149 -0.178,0.163 -0.243,0.136C-0.307,0.108 -0.349,0.047 -0.388,-0.011C-0.413,-0.048 -0.437,-0.085 -0.462,-0.122C-0.551,0.029 -0.746,0.109 -0.914,0.062C-0.976,0.046 -1.042,0 -1.038,-0.064C-0.96,-0.176 -0.808,-0.2 -0.672,-0.213C-0.589,-0.222 -0.505,-0.23 -0.422,-0.239C-0.342,-0.247 -0.26,-0.255 -0.181,-0.237C-0.103,-0.218 -0.027,-0.168 0,-0.092" style="fill:rgb(247,144,29);fill-rule:nonzero;"/>
            </g>
            <g transform="matrix(1,0,0,1,305.866,482.664)">
                <path d="M0,0.781C0.08,0.759 0.109,0.662 0.123,0.58C0.124,0.575 0.125,0.569 0.126,0.564C0.146,0.457 0.165,0.35 0.184,0.242C0.19,0.21 0.196,0.178 0.189,0.146C0.184,0.123 0.174,0.102 0.166,0.08C0.154,0.049 0.149,0.021 0.124,0C0.071,0.093 0.049,0.768 0,0.781" style="fill:rgb(247,144,29);fill-rule:nonzero;"/>
            </g>
            <g transform="matrix(1,0,0,1,308.911,485.407)">
                <path d="M0,-0.351C-0.016,-0.382 -0.029,-0.421 -0.062,-0.429C-0.096,-0.437 -0.125,-0.405 -0.146,-0.378C-0.208,-0.296 -0.27,-0.214 -0.331,-0.133C-0.244,-0.124 -0.16,-0.167 -0.072,-0.176C0.015,-0.185 0.125,-0.131 0.115,-0.044C0.112,-0.018 0.099,0.005 0.099,0.031C0.098,0.056 0.118,0.086 0.143,0.079C0.225,-0.072 0.39,-0.175 0.562,-0.181C0.486,-0.188 0.41,-0.195 0.335,-0.202C0.207,-0.213 0.059,-0.238 0,-0.351" style="fill:rgb(247,144,29);fill-rule:nonzero;"/>
            </g>
            <g transform="matrix(1,0,0,1,301.797,486.413)">
                <path d="M0,-0.224C0.107,-0.185 0.225,-0.136 0.271,-0.032C0.282,-0.008 0.289,0.021 0.28,0.046C0.265,0.091 0.211,0.11 0.164,0.115C0.081,0.126 -0.019,0.106 -0.053,0.029C-0.066,-0.001 -0.067,-0.035 -0.078,-0.066C-0.088,-0.097 -0.116,-0.128 -0.149,-0.123C-0.173,-0.12 -0.19,-0.099 -0.207,-0.081C-0.308,0.023 -0.49,0.037 -0.605,-0.052C-0.654,-0.089 -0.692,-0.145 -0.694,-0.206C-0.696,-0.268 -0.655,-0.332 -0.594,-0.343C-0.554,-0.35 -0.514,-0.334 -0.475,-0.325C-0.414,-0.312 -0.351,-0.313 -0.289,-0.305C-0.19,-0.293 -0.094,-0.258 0,-0.224" style="fill:rgb(247,144,29);fill-rule:nonzero;"/>
            </g>
            <g transform="matrix(-1,-0,-0,1,610.719,151.782)">
                <rect x="297.327" y="344.361" width="16.065" height="1.386" style="fill:rgb(240,233,52);"/>
            </g>
            <g transform="matrix(1,0,0,1,313.214,494.192)">
                <path d="M0,2.192C-0.019,2.178 -2.297,2.645 -7.976,2.645C-13.707,2.645 -15.789,2.166 -15.81,2.182L-16.597,1.213C-16.5,1.138 -14.111,-0.453 -7.976,-0.453C-1.851,-0.453 0.603,1.15 0.705,1.224L0,2.192Z" style="fill:rgb(240,233,52);fill-rule:nonzero;"/>
            </g>
            <g transform="matrix(1,0,0,1,304.311,476.068)">
                <path d="M0,-0.831C-0.485,-0.831 -0.955,-0.484 -0.965,0C-0.39,-0.06 0.168,-0.124 0.775,-0.152C0.702,-0.572 0.44,-0.831 0,-0.831" style="fill:rgb(247,144,29);fill-rule:nonzero;"/>
            </g>
            <g transform="matrix(1,0,0,1,297.116,477.748)">
                <path d="M0,-1.28C-0.492,-1.28 -1.051,-0.756 -1.051,-0.264C-1.051,-0.172 -1.037,-0.083 -1.011,0C-0.475,-0.196 -0.108,-0.326 0.487,-0.504C0.543,-0.958 0.387,-1.28 0,-1.28" style="fill:rgb(247,144,29);fill-rule:nonzero;"/>
            </g>
            <g transform="matrix(1,0,0,1,294.986,478.635)">
                <path d="M0,-1.355C-0.492,-1.355 -1.107,-0.941 -1.107,-0.449L-1.107,0C-0.604,-0.233 -0.272,-0.352 0.309,-0.578C0.309,-0.578 0.412,-1.355 0,-1.355" style="fill:rgb(247,144,29);fill-rule:nonzero;"/>
            </g>
            <g transform="matrix(1,0,0,1,292.974,479.656)">
                <path d="M0,-1.394C-1.046,-1.394 -1.14,0 -1.14,0C-0.676,-0.264 -0.417,-0.409 0.167,-0.691C0.167,-0.691 0.377,-1.394 0,-1.394" style="fill:rgb(247,144,29);fill-rule:nonzero;"/>
            </g>
            <g transform="matrix(1,0,0,1,289.264,482.051)">
                <path d="M0,-1.394C-0.748,-1.394 -0.815,0 -0.815,0C-0.483,-0.264 -0.298,-0.409 0.119,-0.691C0.119,-0.691 0.27,-1.394 0,-1.394" style="fill:rgb(247,144,29);fill-rule:nonzero;"/>
            </g>
            <g transform="matrix(1,0,0,1,287.861,483.352)">
                <path d="M0,-1.394C-0.573,-1.394 -0.758,0 -0.758,0C-0.503,-0.264 -0.361,-0.409 -0.042,-0.691C-0.042,-0.691 0.207,-1.394 0,-1.394" style="fill:rgb(247,144,29);fill-rule:nonzero;"/>
            </g>
            <g transform="matrix(1,0,0,1,290.996,480.884)">
                <path d="M0,-1.458C-0.492,-1.458 -0.908,-1.134 -1.027,-0.564L-1.092,0C-0.741,-0.252 -0.509,-0.324 0.13,-0.704C0.13,-0.704 0.346,-1.458 0,-1.458" style="fill:rgb(247,144,29);fill-rule:nonzero;"/>
            </g>
            <g transform="matrix(1,0,0,1,301.827,476.451)">
                <path d="M0,-0.959C-0.492,-0.959 -1.028,-0.557 -1.028,-0.065C-1.028,-0.043 -1.026,-0.021 -1.024,0C-0.458,-0.108 0.128,-0.203 0.733,-0.282C0.733,-0.748 0.417,-0.959 0,-0.959" style="fill:rgb(247,144,29);fill-rule:nonzero;"/>
            </g>
            <g transform="matrix(1,0,0,1,299.26,476.956)">
                <path d="M0,-1.024C-0.487,-0.955 -0.967,-0.508 -0.902,-0.02C-0.898,0.008 -0.893,0.036 -0.887,0.063C-0.332,-0.091 0.127,-0.209 0.729,-0.338C0.772,-0.984 0.449,-1.087 0,-1.024" style="fill:rgb(247,144,29);fill-rule:nonzero;"/>
            </g>
            <g transform="matrix(1,0,0,1,319.584,474.757)">
                <path d="M0,-0.117C0.041,-0.541 -15.943,0.471 -15.494,0.436C-14.999,0.396 1.74,-0.588 1.788,-0.107" style="fill:rgb(247,144,29);fill-rule:nonzero;"/>
            </g>
            <g transform="matrix(1,0,0,1,311.533,476.989)">
                <path d="M0,-1.154C0.502,-1.194 1.114,-0.717 1.153,-0.226C1.161,-0.135 1.153,-0.045 1.133,0.04C0.571,-0.112 0.186,-0.211 -0.435,-0.34C-0.529,-0.789 -0.395,-1.123 0,-1.154" style="fill:rgb(247,144,29);fill-rule:nonzero;"/>
            </g>
            <g transform="matrix(1,0,0,1,313.772,477.693)">
                <path d="M0,-1.221C0.502,-1.261 1.163,-0.898 1.202,-0.408C1.215,-0.24 1.238,0.04 1.238,0.04C0.705,-0.151 0.358,-0.243 -0.254,-0.421C-0.254,-0.421 -0.421,-1.187 0,-1.221" style="fill:rgb(247,144,29);fill-rule:nonzero;"/>
            </g>
            <g transform="matrix(1,0,0,1,316.037,478.498)">
                <path d="M0,-1.212C1.068,-1.297 1.274,0.085 1.274,0.085C0.78,-0.14 0.504,-0.264 -0.115,-0.498C-0.115,-0.498 -0.385,-1.181 0,-1.212" style="fill:rgb(247,144,29);fill-rule:nonzero;"/>
            </g>
            <g transform="matrix(1,0,0,1,320.148,480.635)">
                <path d="M0,-1.262C0.764,-1.323 0.943,0.061 0.943,0.061C0.583,-0.175 0.383,-0.305 -0.066,-0.552C-0.066,-0.552 -0.276,-1.24 0,-1.262" style="fill:rgb(247,144,29);fill-rule:nonzero;"/>
            </g>
            <g transform="matrix(1,0,0,1,321.816,481.837)">
                <path d="M0,-1.281C0.585,-1.328 0.884,0.047 0.884,0.047C0.604,-0.195 0.447,-0.329 0.098,-0.584C0.098,-0.584 -0.211,-1.264 0,-1.281" style="fill:rgb(247,144,29);fill-rule:nonzero;"/>
            </g>
            <g transform="matrix(1,0,0,1,323.435,482.574)">
                <path d="M0,-0.858C-0.211,-0.841 0.098,-0.161 0.098,-0.161C0.19,-0.093 0.269,-0.035 0.34,0.02C0.414,-0.105 0.501,-0.226 0.592,-0.357C0.448,-0.638 0.25,-0.878 0,-0.858" style="fill:rgb(247,144,29);fill-rule:nonzero;"/>
            </g>
            <g transform="matrix(1,0,0,1,318.149,479.611)">
                <path d="M0,-1.325C0.502,-1.365 0.952,-1.076 1.12,-0.517L1.23,0.04C0.852,-0.183 0.609,-0.236 -0.073,-0.563C-0.073,-0.563 -0.353,-1.297 0,-1.325" style="fill:rgb(247,144,29);fill-rule:nonzero;"/>
            </g>
            <g transform="matrix(1,0,0,1,306.646,476.078)">
                <path d="M0,-0.833C0.502,-0.873 1.081,-0.515 1.12,-0.025C1.122,-0.003 1.122,0.019 1.122,0.04C0.535,-0.021 -0.071,-0.069 -0.694,-0.099C-0.731,-0.563 -0.425,-0.799 0,-0.833" style="fill:rgb(247,144,29);fill-rule:nonzero;"/>
            </g>
            <g transform="matrix(1,0,0,1,309.302,476.459)">
                <path d="M0,-0.984C0.503,-0.955 1.028,-0.548 1.001,-0.057C0.999,-0.028 0.996,0 0.992,0.027C0.413,-0.081 -0.065,-0.161 -0.69,-0.241C-0.785,-0.882 -0.463,-1.011 0,-0.984" style="fill:rgb(247,144,29);fill-rule:nonzero;"/>
            </g>
            <g transform="matrix(1,0,0,1,323.178,484.827)">
                <path d="M0,0C0,2.329 1.888,4.217 4.217,4.217C6.546,4.217 8.434,2.329 8.434,0C8.434,-2.329 6.546,-4.217 4.217,-4.217C1.888,-4.217 0,-2.329 0,0" style="fill:rgb(247,144,29);fill-rule:nonzero;"/>
            </g>
            <g transform="matrix(1,0,0,1,323.844,485.492)">
                <path d="M0,0C0,2.154 1.746,3.901 3.901,3.901C6.055,3.901 7.801,2.154 7.801,0C7.801,-2.154 6.055,-3.901 3.901,-3.901C1.746,-3.901 0,-2.154 0,0" style="fill:rgb(240,233,52);fill-rule:nonzero;"/>
            </g>
            <g transform="matrix(1,0,0,1,326.435,482.86)">
                <path d="M0,6.855C-1.307,6.343 -2.045,5.73 -2.126,5.66C-2.754,5.172 -2.932,4.146 -2.579,3.044C-2.138,1.663 -0.837,0.158 1.491,0.074C3.61,0 4.655,0.891 5.159,1.653C5.705,2.48 5.741,3.32 5.742,3.355L5.21,3.374C5.205,3.259 5.057,0.601 1.744,0.601C1.668,0.601 1.59,0.603 1.51,0.606C-0.542,0.68 -1.686,1.997 -2.072,3.206C-2.353,4.082 -2.242,4.901 -1.796,5.243L-1.783,5.254C-1.777,5.259 -1.071,5.864 0.194,6.36L0,6.855Z" style="fill:rgb(247,144,29);fill-rule:nonzero;"/>
            </g>
            <g transform="matrix(1,0,0,1,325.225,484.858)">
                <path d="M0,4.121C-0.468,3.901 -0.669,3.33 -0.525,2.631C-0.277,1.432 0.907,0.11 2.924,0.042C4.169,0 5.111,0.296 5.718,0.921C6.466,1.691 6.413,2.67 6.411,2.711L5.88,2.678L6.145,2.694L5.88,2.679C5.88,2.671 5.916,1.884 5.331,1.286C4.832,0.777 4.03,0.537 2.942,0.574C1.213,0.632 0.203,1.737 -0.003,2.738C-0.094,3.177 -0.004,3.531 0.227,3.64L0,4.121Z" style="fill:rgb(247,144,29);fill-rule:nonzero;"/>
            </g>
            <g transform="matrix(1,0,0,1,325.957,486.383)">
                <path d="M0,3.206C-0.383,3.028 -0.552,2.584 -0.443,2.048C-0.184,0.779 1.154,0.074 2.341,0.035C3.403,0 4.184,0.234 4.663,0.732C5.173,1.263 5.133,1.893 5.131,1.92L4.6,1.883C4.601,1.865 4.62,1.449 4.272,1.093C3.906,0.719 3.244,0.537 2.359,0.567C0.913,0.615 0.203,1.542 0.078,2.154C0.033,2.376 0.048,2.641 0.225,2.724L0,3.206Z" style="fill:rgb(247,144,29);fill-rule:nonzero;"/>
            </g>
            <g transform="matrix(-1,-0,-0,1,610.658,267.569)">
                <rect x="279.832" y="286.562" width="50.994" height="1.197" style="fill:rgb(247,144,29);"/>
            </g>
            <g transform="matrix(1,0,0,1,0,272.495)">
                <rect x="278.745" y="282.772" width="5.502" height="3.851" style="fill:rgb(240,233,52);"/>
            </g>
            <g transform="matrix(1,0,0,1,0,272.495)">
                <rect x="292.139" y="282.772" width="7.232" height="3.851" style="fill:rgb(240,233,52);"/>
            </g>
        </g>
    </g>
</svg>
