<?xml version="1.0" encoding="UTF-8" standalone="no"?>
<!DOCTYPE svg PUBLIC "-//W3C//DTD SVG 1.1//EN" "http://www.w3.org/Graphics/SVG/1.1/DTD/svg11.dtd">
<svg width="100%" height="100%" viewBox="0 0 769 221" version="1.1" xmlns="http://www.w3.org/2000/svg" xmlns:xlink="http://www.w3.org/1999/xlink" xml:space="preserve" xmlns:serif="http://www.serif.com/" style="fill-rule:evenodd;clip-rule:evenodd;stroke-linejoin:round;stroke-miterlimit:1.41421;">
    <g transform="matrix(4.16667,0,0,4.16667,-175.821,-696.296)">
        <clipPath id="_clip1">
            <path d="M95.178,167.111L42.197,220.092L173.623,220.092L226.603,167.111L95.178,167.111Z" clip-rule="nonzero"/>
        </clipPath>
        <g clip-path="url(#_clip1)">
            <g transform="matrix(1,0,0,1,123.985,204.022)">
                <path d="M0,-0.038C-0.031,-0.039 -0.062,-0.04 -0.093,-0.04C-0.052,0.002 -0.024,-0.009 0,-0.038" style="fill:rgb(92,196,233);fill-rule:nonzero;"/>
            </g>
            <g transform="matrix(1,0,0,1,128.258,180.045)">
                <path d="M0,23.937C-1.165,24.714 -2.838,23.97 -4.273,23.939C-4.297,23.968 -4.325,23.978 -4.366,23.937C-4.335,23.937 -4.304,23.938 -4.273,23.939C-4.221,23.873 -4.193,23.714 -4.102,23.805C-4.193,23.714 -4.221,23.873 -4.273,23.939C-2.838,23.97 -1.165,24.714 0,23.937C0.529,23.672 1.323,23.672 1.985,23.408C1.323,23.275 0.529,23.54 -0.132,23.275L-0.132,23.805C-1.455,23.937 -2.778,23.275 -4.102,23.672C-2.778,23.275 -1.455,23.937 -0.132,23.805L-0.132,23.275C0.529,23.54 1.323,23.275 1.985,23.408C1.323,23.672 0.529,23.672 0,23.937M-35.991,-14.522L-88.972,38.459L42.453,38.459L42.453,38.458L95.434,-14.522L-35.991,-14.522Z" style="fill:rgb(92,196,233);fill-rule:nonzero;"/>
            </g>
            <g transform="matrix(1,0,0,1,135.742,182.873)">
                <path d="M0,0.458C0.031,0.302 0.03,0.149 0.007,0C-0.012,0.15 -0.015,0.302 0,0.458" style="fill:white;fill-rule:nonzero;"/>
            </g>
            <g transform="matrix(1,0,0,1,97.0146,191.808)">
                <path d="M0,-0.379C0.034,-0.251 0.075,-0.125 0.125,0C0.113,-0.134 0.069,-0.261 0,-0.379" style="fill:white;fill-rule:nonzero;"/>
            </g>
            <g transform="matrix(1,0,0,1,168.792,205.519)">
                <path d="M0,-11.643C-0.029,-14.288 -1.206,-17.576 -4.424,-18.046C-6.829,-18.398 -9.066,-16.807 -9.917,-14.969C-10.844,-16.165 -13.41,-16.093 -14.166,-14.849C-12.522,-17.391 -15.415,-18.629 -18.517,-20.164C-22.309,-22.04 -24.172,-18.204 -24.143,-18.375C-24.72,-21.32 -27.717,-21.504 -29.652,-20.371C-28.818,-24.715 -33.69,-30.708 -39.117,-30.576C-44.543,-30.445 -48.901,-25.68 -47.519,-21.39C-49.031,-21.892 -50.794,-21.209 -51.739,-20.156C-52.684,-19.103 -53.003,-17.768 -53.298,-16.479C-55.395,-18.065 -58.762,-18.404 -61.201,-17.273C-63.482,-16.216 -64.779,-13.954 -64.393,-11.827C-64.329,-11.687 -64.291,-11.539 -64.287,-11.384C-64.331,-11.531 -64.366,-11.678 -64.393,-11.827C-64.76,-12.63 -66.026,-13.135 -67.112,-12.994C-68.386,-12.829 -69.387,-12.05 -70.177,-11.232C-69.857,-12.47 -70.578,-13.859 -71.904,-14.558C-73.229,-15.257 -75.069,-15.218 -76.31,-14.465C-76.335,-17.855 -80.748,-20.672 -84.888,-20.31C-89.029,-19.948 -92.311,-16.895 -92.82,-13.539C-95.175,-15.067 -98.602,-15.164 -101.302,-14.181C-104.002,-13.198 -106.036,-11.288 -107.448,-9.179C-107.886,-8.525 -124.332,15.519 -115.812,4.222C-115.812,4.222 18.288,19.065 -4.694,18.078C-4.694,18.078 9.955,-3.139 4.972,-5.151C3.614,-5.699 -2.655,-4.511 -1.222,-4.677C-0.343,-6.898 0.025,-9.293 0,-11.643" style="fill:white;fill-rule:nonzero;"/>
            </g>
            <g transform="matrix(1,0,0,1,122.686,202.795)">
                <path d="M0,-0.535L0,-0.428C-1.604,-0.268 -3.209,-1.025 -4.813,-0.651L-3.857,-0.141L-3.91,-0.114C-2.456,0.122 -0.958,0.49 0.168,-0.26C0.75,-0.551 1.584,-0.591 2.342,-0.814C1.557,-0.797 0.748,-0.967 0,-0.535" style="fill:rgb(59,140,174);fill-rule:nonzero;"/>
            </g>
            <g transform="matrix(1,0,0,1,118.603,197.213)">
                <path d="M0,1.643L-0.056,1.822L0.377,1.698C2.174,1.154 4.586,1.152 6.425,0.232C4.466,0.396 1.384,-0.179 0,1.643" style="fill:rgb(59,140,174);fill-rule:nonzero;"/>
            </g>
            <g transform="matrix(1,0,0,1,145.806,195.261)">
                <path d="M0,-2.89C-0.515,-2.991 -1.118,-3.198 -1.512,-2.85C-1.835,-3.425 -2.237,-4.047 -2.88,-4.195C-3.522,-4.343 -4.288,-3.596 -3.901,-3.061C-4.712,-3.544 -5.732,-3.417 -6.664,-3.274C-7.268,-3.181 -7.987,-2.996 -8.169,-2.412C-8.607,-2.755 -9.377,-2.33 -9.319,-1.776C-9.701,-1.897 -10.083,-2.018 -10.465,-2.139C-10.654,-2.079 -10.843,-2.02 -11.032,-1.961C-11.125,-2.399 -11.217,-2.837 -11.31,-3.275C-11.364,-2.856 -11.516,-2.45 -11.752,-2.1C-12.007,-2.501 -12.691,-2.511 -12.958,-2.117C-13.621,-2.379 -14.401,-2.327 -15.024,-1.981C-15.101,-2.524 -15.626,-2.966 -16.174,-2.949C-16.268,-2.608 -16.363,-2.268 -16.457,-1.927C-17.198,-2.481 -18.36,-2.354 -18.963,-1.654C-19.7,-1.928 -20.575,-1.791 -21.193,-1.305C-21.534,-1.764 -22.253,-1.546 -22.759,-1.282C-23.326,-0.988 -23.89,-0.688 -24.451,-0.384C-24.566,-0.562 -24.838,-0.49 -25.037,-0.416C-25.532,-0.234 -26.078,-0.172 -26.522,0.111C-26.966,0.395 -27.26,1.031 -26.944,1.453C-26.602,1.235 -26.317,0.927 -26.126,0.569C-25.926,0.927 -25.383,0.757 -25.033,0.545C-24.712,0.35 -24.392,0.156 -24.059,-0.018C-23.109,-0.515 -22.068,-0.838 -21.004,-0.966C-20.198,-1.124 -19.388,-1.264 -18.575,-1.386C-16.522,-1.693 -14.415,-1.883 -12.38,-1.473C-11.847,-1.365 -11.243,-1.232 -10.803,-1.55C-10.016,-1.308 -9.253,-1.066 -8.431,-1.026C-8.408,-1.574 -7.902,-2.197 -7.446,-2.502C-6.874,-2.484 -6.456,-2.471 -5.883,-2.453C-5.425,-2.438 -4.957,-2.425 -4.517,-2.556C-4.597,-2.35 -4.676,-2.143 -4.756,-1.937C-4.348,-1.84 -3.89,-2.126 -3.797,-2.534C-3.381,-2.342 -2.886,-2.325 -2.457,-2.488C-1.529,-1.887 -0.293,-1.882 0.824,-2.053C2.292,-1.82 2.523,-3.074 2.562,-3.319C2.27,-3.295 0.288,-2.833 0,-2.89" style="fill:rgb(59,140,174);fill-rule:nonzero;"/>
            </g>
            <g transform="matrix(1,0,0,1,136.867,206.848)">
                <path d="M0,-11.766C-0.013,-11.767 -0.026,-11.767 -0.039,-11.767C-0.027,-11.808 -0.007,-11.859 0.07,-11.893C0.078,-11.873 0.088,-11.854 0.101,-11.834C-0.098,-11.771 0.098,-11.761 0,-11.766M0.465,-12.949C0.464,-12.946 0.463,-12.944 0.463,-12.944C0.463,-12.944 0.464,-12.946 0.465,-12.949M0.472,-12.958C0.469,-12.954 0.467,-12.951 0.466,-12.949C0.467,-12.951 0.469,-12.954 0.472,-12.958M0.498,-12.998L0.498,-12.997L0.498,-12.998ZM-16.681,-8.28L-18.362,-6.942L-18.667,-6.126C-17.65,-6.421 -16.737,-6.141 -15.691,-5.991C-16.761,-5.838 -17.83,-6.378 -18.773,-5.842L-19.164,-4.795L-18.994,-4.704C-17.439,-4.984 -14.558,-3.991 -13.629,-4.587C-13.629,-4.587 -16.551,-4.222 -18.09,-4.167L-19.223,-3.596L-20.124,-0.957L-18.603,-0.505L-19.409,0.22L-20.18,0.183L-21.15,1.993L-22.978,3.325L-1.928,5.548L15.272,2.351L39.116,-16.536C39.116,-16.536 31.073,-17.314 27.496,-16.287C23.92,-15.259 22.009,-15.243 22.009,-15.243C22.009,-15.243 20.434,-16.085 18.669,-16.062C16.905,-16.039 15.002,-15.476 13.785,-14.989C12.569,-14.502 11.831,-14.429 10.658,-14.486C9.485,-14.543 10.773,-13.825 8.427,-13.939C6.082,-14.054 3.915,-14.815 1.538,-14.276C1.324,-14.208 0.853,-13.533 0.604,-13.158C0.657,-12.787 0.08,-12.405 0.047,-12.046C-0.01,-12.384 0.562,-12.617 0.506,-13.01C0.505,-13.009 0.505,-13.008 0.505,-13.008C0.505,-13.008 0.505,-13.009 0.506,-13.01C0.506,-13.01 -5.251,-13.666 -9.541,-13.071C-13.831,-12.476 -17.275,-11.151 -17.275,-11.151L-17.444,-10.611L-18.264,-7.993C-16.88,-9.814 -14.126,-9.184 -12.167,-9.347" style="fill:rgb(92,196,233);fill-rule:nonzero;"/>
            </g>
            <g transform="matrix(1,0,0,1,121.176,200.58)">
                <path d="M0,0.277C-1.046,0.128 -1.959,-0.153 -2.976,0.142L-3.083,0.426C-2.139,-0.11 -1.07,0.43 0,0.277" style="fill:rgb(59,140,174);fill-rule:nonzero;"/>
            </g>
            <g transform="matrix(1,0,0,1,127.407,205.501)">
                <path d="M0,-2.441C0.015,-2.609 0.03,-2.776 0.045,-2.944C0.442,-2.783 0.923,-2.848 1.263,-3.109C1.324,-3.155 1.382,-3.209 1.454,-3.233C1.532,-3.259 2.442,-3.478 2.523,-3.467C2.755,-3.436 2.211,-3.129 2.262,-2.9C2.285,-2.798 2.252,-2.693 2.219,-2.593C2.028,-2.01 1.836,-1.426 1.645,-0.842C1.49,-0.851 1.333,-0.817 1.197,-0.743C0.964,-0.15 0.731,0.444 0.498,1.037C-0.331,0.974 -1.162,0.924 -1.993,0.888C-1.892,0.495 -1.791,0.103 -1.689,-0.29C-1.678,-0.335 -1.664,-0.384 -1.627,-0.413C-1.596,-0.437 -1.555,-0.443 -1.516,-0.447C-1.185,-0.479 -0.852,-0.434 -0.519,-0.439C-0.186,-0.445 0.163,-0.51 0.416,-0.726C-0.166,-0.711 -0.747,-0.683 -1.328,-0.64C-1.083,-1.001 -0.928,-1.421 -0.879,-1.854C-0.389,-1.839 0.101,-1.871 0.585,-1.949C0.615,-2.063 0.644,-2.176 0.674,-2.29C0.315,-2.241 -0.048,-2.217 -0.41,-2.218C-0.391,-2.28 -0.371,-2.343 -0.352,-2.405C-0.235,-2.417 -0.117,-2.429 0,-2.441" style="fill:rgb(59,140,174);fill-rule:nonzero;"/>
            </g>
            <g transform="matrix(1,0,0,1,134.99,207.325)">
                <path d="M0,-6.49C0.122,-5.764 -0.19,-5.712 -0.777,-5.211C-0.71,-5.15 -0.758,-5.03 -0.848,-4.976C-0.562,-4.931 -0.292,-4.807 -0.021,-4.853C-0.517,-4.594 -0.939,-4.723 -1.487,-4.639C-1.614,-4.113 -1.835,-3.571 -1.887,-3.058C-1.679,-2.965 -1.119,-3.08 -0.75,-2.858C-1.771,-2.671 -2.18,-2.745 -2.497,-2.6C-2.381,-1.973 -3.062,-0.746 -3.535,-0.267C-3.534,-0.243 -4.263,0.417 -3.687,-0.1C-3.717,-0.096 -3.506,-0.271 -3.535,-0.267C-3.536,-0.266 -3.688,-0.099 -3.688,-0.099C-4.172,0.401 -3.536,-0.266 -3.535,-0.267C-3.858,-0.221 -3.613,-0.691 -3.798,-0.654C-3.68,-0.338 -4.053,0.227 -4.391,0.704C-4.393,0.767 -4.395,0.832 -4.399,0.901C-3.71,0.864 -3.022,0.827 -2.333,0.79C-2.246,0.785 -2.15,0.777 -2.083,0.726C-2.026,0.682 -2.001,0.616 -1.984,0.553C-1.981,0.543 -1.98,0.532 -1.978,0.522C-1.593,0.467 -1.207,0.422 -0.821,0.388C-0.89,-0.182 -0.929,-0.756 -0.938,-1.332C-0.941,-1.513 -0.939,-1.703 -0.843,-1.869C-0.747,-2.035 -0.528,-2.167 -0.326,-2.122C-0.498,-2.442 -0.477,-2.839 -0.271,-3.161C-0.021,-3.88 0.153,-4.614 0.317,-5.349C0.47,-6.028 0.611,-6.709 0.747,-7.391C0.527,-7.262 0.309,-6.455 0,-6.49" style="fill:rgb(59,140,174);fill-rule:nonzero;"/>
            </g>
            <g transform="matrix(1,0,0,1,164.879,183.182)">
                <path d="M0,-6.248C-0.007,-6.514 0.156,-6.751 0.249,-7.001C0.341,-7.251 0.326,-7.595 0.085,-7.709C-0.029,-7.763 -0.163,-7.748 -0.286,-7.722C-1.061,-7.559 -1.739,-6.989 -2.032,-6.253C-2.467,-6.438 -2.902,-6.623 -3.337,-6.809C-3.452,-6.67 -3.505,-6.481 -3.477,-6.303C-3.927,-6.432 -4.307,-6.729 -4.731,-6.924C-5.156,-7.119 -5.697,-7.197 -6.062,-6.905C-6.427,-6.613 -6.343,-5.872 -5.878,-5.823C-6.497,-5.999 -7.22,-5.603 -7.405,-4.987C-8.029,-5.072 -8.672,-5.156 -9.283,-5.002C-9.894,-4.848 -10.474,-4.398 -10.586,-3.777C-10.911,-3.936 -11.265,-4.034 -11.626,-4.065C-11.728,-3.822 -11.79,-3.563 -11.81,-3.3C-11.925,-3.516 -12.276,-3.477 -12.43,-3.286C-12.584,-3.096 -12.597,-2.832 -12.603,-2.587C-13.094,-2.921 -13.671,-3.237 -14.252,-3.115C-14.833,-2.993 -15.25,-2.194 -14.824,-1.781C-15.376,-1.901 -15.972,-1.809 -16.463,-1.529C-16.642,-1.427 -16.821,-1.277 -16.845,-1.072C-16.868,-0.867 -16.628,-0.652 -16.458,-0.768C-16.748,-0.157 -16.938,0.501 -17.019,1.172C-17.044,1.379 -17.006,1.659 -16.8,1.69C-16.668,1.71 -16.554,1.606 -16.465,1.506C-15.891,0.859 -15.5,0.059 -14.894,-0.558C-13.462,-2.016 -11.213,-2.153 -9.225,-2.624C-7.046,-3.14 -5.014,-4.147 -2.856,-4.745C-0.63,-5.361 1.718,-5.532 4.01,-5.244C4.862,-5.137 5.71,-4.967 6.569,-4.971C7.428,-4.974 8.318,-5.169 8.983,-5.712C9.094,-5.803 9.204,-5.913 9.227,-6.054C9.254,-6.21 9.168,-6.362 9.078,-6.493C8.621,-7.157 7.957,-7.675 7.202,-7.958C7.262,-7.499 7.379,-7.048 7.55,-6.617C6.903,-6.87 6.246,-7.125 5.554,-7.194C4.863,-7.263 4.122,-7.123 3.599,-6.666C3.435,-7.162 3.075,-7.591 2.615,-7.839C2.672,-7.396 2.559,-6.934 2.305,-6.567C2.208,-7.047 1.603,-7.277 1.132,-7.144C0.662,-7.01 0.309,-6.628 0,-6.248" style="fill:rgb(0,71,81);fill-rule:nonzero;"/>
            </g>
            <g transform="matrix(1,0,0,1,107.484,178.133)">
                <path d="M0,0.001C0,2.981 -2.416,5.396 -5.395,5.396C-8.375,5.396 -10.791,2.981 -10.791,0.001C-10.791,-2.979 -8.375,-5.395 -5.395,-5.395C-2.416,-5.395 0,-2.979 0,0.001" style="fill:rgb(240,233,52);fill-rule:nonzero;"/>
            </g>
            <g transform="matrix(1,0,0,1,149.956,185.365)">
                <path d="M0,-1.493C-0.255,-2.64 0.594,-3.419 1.13,-4.302C-0.005,-3.735 -0.667,-3.343 -0.667,-3.343L-0.86,-2.347L-1.858,2.809L-1.791,2.779C-1.211,1.216 -0.32,-0.184 0.662,-1.493L0,-1.493Z" style="fill:rgb(247,144,29);fill-rule:nonzero;"/>
            </g>
            <g transform="matrix(1,0,0,1,150.485,191.494)">
                <path d="M0,-0.081C-0.794,-0.213 -1.455,0.051 -2.117,0.448C-1.72,-1.139 -0.397,-1.933 1.058,-2.595C-0.192,-2.708 -1.344,-2.236 -2.399,-1.681L-3.329,2.237L-2.714,2.627C-1.945,1.51 -1.684,-0.081 0,-0.081" style="fill:rgb(247,144,29);fill-rule:nonzero;"/>
            </g>
            <g transform="matrix(1,0,0,1,172.58,198.083)">
                <path d="M0,-18.71C-0.018,-18.71 -0.035,-18.709 -0.053,-18.709C-0.039,-18.785 -0.016,-18.878 0.086,-18.948C0.099,-18.912 0.113,-18.877 0.132,-18.842C-0.132,-18.71 0.132,-18.71 0,-18.71M0.551,-20.899C0.548,-20.893 0.547,-20.891 0.547,-20.891C0.547,-20.891 0.548,-20.893 0.551,-20.899M0.559,-20.917C0.556,-20.91 0.553,-20.904 0.551,-20.9C0.553,-20.904 0.556,-20.91 0.559,-20.917M0.591,-20.991L0.591,-20.989L0.591,-20.991ZM36.839,-29.357C32.076,-27.174 29.496,-26.976 29.496,-26.976C29.496,-26.976 27.313,-28.365 24.932,-28.167C22.55,-27.968 20.017,-26.777 18.406,-25.785C16.795,-24.793 15.803,-24.595 14.216,-24.595C12.628,-24.595 14.414,-23.404 11.239,-23.404C8.064,-23.404 5.087,-24.595 1.912,-23.404C1.627,-23.261 1.035,-21.995 0.724,-21.291C0.82,-20.622 0.066,-19.878 0.045,-19.222C-0.055,-19.831 0.703,-20.305 0.602,-21.014C0.601,-21.011 0.6,-21.01 0.599,-21.007C0.6,-21.01 0.601,-21.011 0.602,-21.014C0.602,-21.014 -7.217,-21.694 -12.972,-20.233C-16.538,-19.329 -19.646,-17.944 -21.495,-17.021C-22.03,-16.137 -22.879,-15.358 -22.624,-14.212L-21.963,-14.212C-22.945,-12.902 -23.836,-11.503 -24.415,-9.94L-22.299,-10.901L-24.482,-8.322L-24.494,-8.27C-23.439,-8.825 -22.287,-9.298 -21.037,-9.184C-22.492,-8.522 -23.815,-7.729 -24.212,-6.141C-23.55,-6.538 -22.889,-6.802 -22.095,-6.67C-23.779,-6.67 -24.04,-5.079 -24.81,-3.962L-23.862,-3.36L-24.535,-2.848C-24.515,-2.843 -24.496,-2.837 -24.477,-2.833C-24.496,-2.837 -24.515,-2.843 -24.535,-2.848L-25.127,-2.396C-24.236,-2.656 -23.298,-2.646 -22.36,-2.833C-23.683,-2.172 -25.138,-1.642 -24.874,-0.055C-24.874,0.078 -24.212,-0.319 -23.815,-0.187C-24.85,0.434 -25.722,1.542 -26.307,2.755L-24.383,3.387L-24.727,4.128L-26.467,4.776L-27.657,8.15L-30.039,10.73L-1.462,12.9L21.558,5.57L55.04,-31.61C55.04,-31.61 41.602,-31.54 36.839,-29.357" style="fill:rgb(247,144,29);fill-rule:nonzero;"/>
            </g>
            <g transform="matrix(1,0,0,1,140.762,195.528)">
                <path d="M0,1.472C0.176,1.483 0.36,1.493 0.522,1.44C0.773,1.359 0.928,1.142 1.193,1.095C1.456,1.048 1.706,1.186 1.96,1.258C2.213,1.33 2.597,1.274 2.606,1.069C3.259,1.339 4.096,1.604 4.696,1.271C4.867,1.176 4.993,1.042 5.149,0.933C5.391,0.762 5.706,0.652 6.035,0.624C5.934,0.81 6.301,0.928 6.565,0.936C6.815,0.944 7.065,0.952 7.315,0.96C7.492,0.966 7.684,0.968 7.827,0.888C7.97,0.808 8.024,0.667 8.069,0.537C8.146,0.314 8.223,0.091 8.3,-0.132C7.364,0.09 6.375,0.184 5.395,0.145C5.105,0.133 4.797,0.113 4.541,0.217C4.373,0.286 4.242,0.404 4.062,0.454C3.913,0.496 3.747,0.485 3.59,0.464C2.724,0.345 1.789,-0.073 1.043,0.28C0.834,0.379 0.668,0.531 0.44,0.601C0.252,0.659 0.043,0.654 -0.159,0.661C-0.975,0.689 -1.775,0.925 -2.402,1.323C-1.601,1.373 -0.801,1.422 0,1.472" style="fill:rgb(59,140,174);fill-rule:nonzero;"/>
            </g>
            <g transform="matrix(1,0,0,1,148.765,198.192)">
                <path d="M0,-0.296C-0.397,-0.428 -1.058,-0.031 -1.058,-0.164C-1.323,-1.751 0.132,-2.281 1.455,-2.942C0.517,-2.754 -0.421,-2.765 -1.312,-2.505L-1.609,-2.279L-2.652,2.593L-2.492,2.646C-1.907,1.433 -1.035,0.325 0,-0.296" style="fill:rgb(247,144,29);fill-rule:nonzero;"/>
            </g>
            <g transform="matrix(1,0,0,1,217.31,170.626)">
                <path d="M0,-4.087C-0.804,-3.632 -1.803,-4.041 -2.631,-4.451C-2.864,-4.095 -3.097,-3.739 -3.33,-3.383C-3.729,-3.966 -4.348,-4.47 -5.054,-4.46C-5.76,-4.451 -6.441,-3.712 -6.185,-3.054C-6.729,-3.766 -7.877,-3.552 -8.615,-3.043C-9.094,-2.712 -9.545,-2.157 -9.371,-1.601C-9.847,-2.006 -10.346,-2.423 -10.952,-2.571C-11.559,-2.719 -12.303,-2.504 -12.552,-1.932C-12.754,-1.471 -12.588,-0.937 -12.65,-0.437C-12.851,-0.627 -13.102,-0.764 -13.37,-0.834C-13.498,-0.672 -13.575,-0.47 -13.584,-0.264C-13.775,-0.391 -13.749,-0.687 -13.892,-0.866C-14.069,-1.087 -14.444,-1.032 -14.643,-0.831C-14.842,-0.63 -14.911,-0.338 -14.972,-0.061C-14.958,-0.566 -15.02,-1.073 -15.157,-1.559C-15.226,-1.804 -15.383,-2.092 -15.637,-2.069C-15.799,-2.054 -15.916,-1.912 -16.013,-1.781C-16.228,-1.492 -16.442,-1.204 -16.657,-0.915C-16.842,-1.477 -17.535,-1.811 -18.091,-1.607C-18.646,-1.402 -18.957,-0.698 -18.733,-0.15C-18.538,0.327 -18.044,0.607 -17.563,0.791C-15.059,1.754 -12.232,1.092 -9.73,0.124C-7.229,-0.843 -4.79,-2.123 -2.124,-2.413C-0.781,-2.559 0.578,-2.448 1.923,-2.565C3.658,-2.716 5.436,-3.3 6.604,-4.591C6.889,-4.906 7.108,-5.455 6.762,-5.7C6.662,-5.771 6.536,-5.793 6.414,-5.803C5.965,-5.841 5.504,-5.743 5.11,-5.523C4.708,-5.3 4.378,-4.957 3.961,-4.762C3.545,-4.566 2.968,-4.573 2.71,-4.953C2.529,-4.686 2.258,-4.481 1.951,-4.38C1.982,-4.796 1.391,-4.99 1.009,-4.821C0.628,-4.653 0.363,-4.293 0,-4.087" style="fill:rgb(0,71,81);fill-rule:nonzero;"/>
            </g>
            <g transform="matrix(1,0,0,1,159.87,178.649)">
                <path d="M0,-1.305C-0.708,-1.117 -1.287,-0.512 -1.445,0.203C-1.307,0.334 -1.081,0.212 -0.945,0.079C-0.81,-0.055 -0.631,-0.215 -0.456,-0.141C-0.395,-0.115 -0.349,-0.065 -0.294,-0.027C-0.103,0.104 0.168,0.051 0.352,-0.089C0.537,-0.229 0.654,-0.438 0.766,-0.64C1.203,-0.526 1.674,-0.463 2.103,-0.606C2.532,-0.749 2.902,-1.146 2.89,-1.598C2.247,-1.609 1.604,-1.62 0.962,-1.632C0.548,-1.639 0.054,-1.603 -0.152,-1.245" style="fill:rgb(0,71,81);fill-rule:nonzero;"/>
            </g>
            <g transform="matrix(1,0,0,1,203.107,168.029)">
                <path d="M0,5.312C0.157,5.272 0.263,5.13 0.352,4.995C0.593,4.628 0.798,4.237 0.963,3.83C1.018,3.94 1.117,4.026 1.233,4.065C1.419,3.812 1.604,3.559 1.789,3.306C2.681,3.513 3.683,2.937 3.954,2.062C3.948,2.541 4.614,2.784 5.039,2.562C5.464,2.34 5.676,1.859 5.838,1.408C6.201,1.659 6.732,1.484 7.016,1.146C7.3,0.807 7.398,0.355 7.488,-0.077C6.387,-0.085 5.497,0.789 4.464,1.17C3.871,1.389 3.226,1.445 2.64,1.682C1.853,1.999 1.101,2.648 0.271,2.468C0.109,2.433 -0.049,2.365 -0.215,2.362C-0.593,2.356 -0.89,2.675 -1.116,2.979C-1.346,3.289 -1.569,3.659 -1.493,4.037C-1.163,3.949 -0.848,3.808 -0.562,3.623C-0.435,3.94 -0.563,4.296 -0.57,4.638C-0.578,4.979 -0.331,5.397 0,5.312" style="fill:rgb(0,71,81);fill-rule:nonzero;"/>
            </g>
            <g transform="matrix(1,0,0,1,192.567,171.069)">
                <path d="M0,0.661C-0.246,0.925 -0.609,1.077 -0.97,1.066C-1.183,1.06 -1.453,0.871 -1.337,0.692C-1.311,0.652 -1.271,0.625 -1.232,0.6C0.321,-0.415 2.101,-1.079 3.939,-1.329C3.594,-0.576 3.026,0.072 2.325,0.514C2.343,0.271 2.36,0.028 2.378,-0.216C1.806,0.45 1.183,1.07 0.515,1.638C0.306,1.815 -0.008,1.99 -0.215,1.811C-0.305,1.734 -0.34,1.61 -0.349,1.493C-0.374,1.182 -0.239,0.862 0,0.661" style="fill:rgb(0,71,81);fill-rule:nonzero;"/>
            </g>
            <g transform="matrix(1,0,0,1,172.383,177.083)">
                <path d="M0,2.453C-0.1,2.815 -0.226,3.214 -0.552,3.401C-0.737,3.151 -0.771,2.797 -0.637,2.515C-1.008,2.475 -1.317,2.83 -1.689,2.856C-2.081,2.882 -2.413,2.518 -2.492,2.133C-2.57,1.748 -2.462,1.352 -2.355,0.974C-2.62,1.119 -2.914,1.268 -3.211,1.211C-3.508,1.155 -3.745,0.775 -3.554,0.54C-4.069,0.716 -4.613,0.893 -5.146,0.788C-5.679,0.683 -6.176,0.183 -6.072,-0.351C-4.594,0.017 -3.05,-0.948 -1.551,-0.677C-0.775,-0.536 -0.015,-0.069 0.749,-0.264C0.499,0.642 0.25,1.547 0,2.453" style="fill:rgb(0,71,81);fill-rule:nonzero;"/>
            </g>
            <g transform="matrix(1,0,0,1,184.4,200.859)">
                <path d="M0,-13.647C0.752,-14.211 1.837,-13.948 2.59,-14.513C1.561,-14.716 0.478,-14.707 -0.547,-14.486C-0.946,-14.4 -1.361,-14.267 -1.61,-13.98C-1.823,-13.735 -1.881,-13.415 -1.932,-13.109C-2.072,-12.268 -2.212,-11.427 -2.352,-10.586L-3.446,-10.32C-3.84,-9.156 -4.234,-7.992 -4.629,-6.828C-4.908,-6.004 -5.455,-5.003 -6.435,-5.052C-6.867,-2.993 -7.399,-0.951 -8.028,1.069C-7.652,0.289 -7.159,-0.583 -6.224,-0.799C-5.588,-0.947 -4.902,-0.74 -4.259,-0.864C-5.554,-0.836 -6.341,-1.527 -5.733,-3.141C-5.234,-4.469 -5.031,-4.454 -2.927,-4.654C-2.191,-4.724 -1.46,-4.829 -0.727,-4.917C-1.359,-5.054 -1.992,-5.192 -2.624,-5.33C-2.8,-5.368 -2.985,-5.412 -3.11,-5.527C-3.217,-5.626 -3.262,-5.764 -3.292,-5.898C-3.52,-6.908 -2.876,-9.225 -2.029,-9.939C-2.029,-9.939 0.975,-10.342 2.146,-10.248C0.865,-10.367 -1.297,-10.427 -1.032,-11.354C-0.955,-11.624 -0.241,-13.466 0,-13.647" style="fill:rgb(240,233,52);fill-rule:nonzero;"/>
            </g>
            <g transform="matrix(1,0,0,1,182.896,187.944)">
                <path d="M0,-2.066C-0.046,-1.875 -0.022,-1.657 -0.139,-1.499C-0.236,-1.367 -0.403,-1.314 -0.552,-1.247C-1.4,-0.863 -1.806,0.275 -1.393,1.109C-0.736,1.133 -0.092,0.666 0.089,0.034C0.379,0.464 1.054,0.489 1.475,0.187C1.896,-0.115 2.097,-0.644 2.163,-1.158C2.599,-0.894 3.169,-0.865 3.629,-1.084C4.089,-1.303 4.426,-1.764 4.495,-2.269C5.709,-1.992 7.029,-2.207 8.092,-2.856C6.762,-3.199 5.361,-3.049 3.996,-2.897C3.836,-2.88 3.671,-2.86 3.535,-2.774C3.421,-2.701 3.334,-2.584 3.206,-2.539C3.097,-2.501 2.978,-2.521 2.864,-2.543C2.571,-2.597 2.279,-2.651 1.986,-2.706C1.607,-2.776 1.216,-2.847 0.838,-2.772C0.459,-2.697 0.091,-2.441 0,-2.066" style="fill:rgb(0,71,81);fill-rule:nonzero;"/>
            </g>
            <g transform="matrix(1,0,0,1,192.006,180.298)">
                <path d="M0,1.319C0.405,0.954 1.01,0.954 1.555,0.976C1.466,-0.381 1.869,-1.765 2.673,-2.862C2.138,-2.997 1.524,-3.121 1.07,-2.807C0.626,-2.501 0.516,-1.904 0.444,-1.369C0.38,-0.904 0.317,-0.439 0.254,0.026C0.043,0.037 -0.168,0.049 -0.379,0.06C-0.449,0.064 -0.524,0.069 -0.577,0.114C-0.632,0.16 -0.65,0.236 -0.665,0.306C-0.956,1.684 -1.248,3.062 -1.539,4.44C-1.18,3.645 -0.821,2.849 -0.462,2.053C-0.342,1.788 -0.216,1.514 0,1.319" style="fill:rgb(240,233,52);fill-rule:nonzero;"/>
            </g>
            <g transform="matrix(1,0,0,1,205.931,175.074)">
                <path d="M0,-0.118C-0.315,-0.057 -0.634,-0.021 -0.948,0.042C-1.608,0.173 -2.239,0.419 -2.887,0.598C-5.377,1.286 -8.029,0.968 -10.587,1.323C-11.959,1.514 -13.435,1.995 -14.145,3.184C-13.238,3.191 -12.332,2.85 -11.655,2.246C-11.585,3.068 -10.584,3.541 -9.777,3.37C-8.97,3.198 -8.334,2.595 -7.745,2.018C-7.519,2.779 -6.459,2.818 -5.686,2.642C-4.149,2.292 -2.665,1.712 -1.299,0.927C-1.438,2.005 -0.554,3.108 0.529,3.206C1.611,3.304 2.679,2.378 2.735,1.293C3.104,1.937 3.93,2.28 4.647,2.087C5.363,1.894 5.905,1.183 5.9,0.44C6.581,1.045 7.829,0.759 8.179,-0.081C7.691,0.373 7.799,1.232 8.26,1.715C8.72,2.197 9.417,2.373 10.082,2.426C13.549,2.705 16.957,-0.193 17.241,-3.659C15.364,-3.636 13.481,-3.613 11.626,-3.334C9.607,-3.03 7.647,-2.426 5.696,-1.825C4.216,-1.369 2.737,-0.913 1.258,-0.457C0.843,-0.329 0.427,-0.201 0,-0.118" style="fill:rgb(0,71,81);fill-rule:nonzero;"/>
            </g>
            <g transform="matrix(1,0,0,1,154.119,198.215)">
                <path d="M0,1.3C0.231,1.289 0.517,1.361 0.654,1.175C0.704,1.107 0.717,1.021 0.732,0.939C0.851,0.261 1.115,-0.383 1.377,-1.02C1.198,-1.15 0.968,-1.208 0.748,-1.178C0.45,-0.585 0.221,0.042 0.068,0.688C-0.177,0.575 -0.48,0.707 -0.648,0.92C-0.815,1.132 -0.879,1.406 -0.939,1.671C-1.002,1.95 -1.064,2.229 -1.127,2.508C-1.021,2.236 -0.912,1.959 -0.733,1.728C-0.554,1.498 -0.292,1.314 0,1.3" style="fill:rgb(240,233,52);fill-rule:nonzero;"/>
            </g>
            <g transform="matrix(1,0,0,1,156.241,190.348)">
                <path d="M0,5.31C0.312,4.709 1.28,2.157 1.751,1.624C1.819,1.547 1.89,1.469 1.985,1.413C2.246,1.26 2.608,1.302 2.93,1.334C3.657,1.405 4.398,1.385 5.117,1.274C4.704,1.307 4.278,1.338 3.88,1.246C3.481,1.153 3.399,1.08 3.352,0.757C3.322,0.556 3.212,0.206 3.244,0C2.856,0.138 2.413,0.176 1.997,0.108C1.851,0.084 1.69,0.049 1.559,0.106C1.442,0.157 1.39,0.265 1.348,0.365C0.947,1.326 0.114,4.302 0,5.31" style="fill:rgb(240,233,52);fill-rule:nonzero;"/>
            </g>
            <g transform="matrix(1,0,0,1,160.652,186.731)">
                <path d="M0,1.351L0.939,1.188C0.664,1.098 0.605,0.67 0.598,0.328C0.581,-0.583 0.597,-1.599 1.123,-2.257C0.714,-2.098 0.306,-2.734 -0.103,-2.575C-0.152,-2.556 -0.205,-2.534 -0.235,-2.483C-0.254,-2.45 -0.26,-1.615 -0.267,-1.576C-0.38,-0.845 -0.463,-0.108 -0.514,0.633C-0.839,0.659 -1.164,0.684 -1.489,0.71C-1.56,0.716 -1.639,0.726 -1.684,0.791C-1.717,0.837 -1.725,0.901 -1.732,0.962C-1.846,2.003 -1.96,3.044 -2.075,4.085C-1.779,3.978 -1.461,3.962 -1.159,4.039C-1.199,3.595 -1.192,3.145 -1.137,2.703C-1.086,2.292 -0.976,1.857 -0.696,1.614C-0.497,1.441 -0.243,1.393 0,1.351" style="fill:rgb(240,233,52);fill-rule:nonzero;"/>
            </g>
            <g transform="matrix(1,0,0,1,169.871,192.283)">
                <path d="M0,-2.677C0.413,-4.668 0.46,-5.316 0.747,-6.48C-0.62,-5.389 -1.311,-3.513 -0.98,-1.796C-1.388,-1.775 -1.796,-1.755 -2.204,-1.734C-2.553,-0.9 -2.36,0.087 -2.722,0.915C-2.925,1.379 -3.288,1.758 -3.495,2.22C-3.715,2.712 -3.744,3.265 -3.766,3.803C-3.418,3.749 -3.066,3.728 -2.714,3.74C-2.863,3.434 -2.871,3.061 -2.728,2.752C-2.529,2.323 -2.07,2.061 -1.604,1.975C-1.138,1.89 -0.66,1.955 -0.191,2.02C-0.754,1.966 -1.455,1.792 -1.554,1.234C-1.584,1.061 -1.544,0.884 -1.504,0.713C-1.423,0.367 -1.343,0.022 -1.262,-0.324C-1.227,-0.474 -1.188,-0.631 -1.085,-0.745C-0.935,-0.912 -0.691,-0.946 -0.467,-0.968C0.388,-1.05 1.246,-1.099 2.105,-1.115C1.481,-1.34 0.857,-1.565 0.233,-1.79C0.136,-1.825 0.036,-1.862 -0.034,-1.937C-0.214,-2.129 -0.053,-2.42 0,-2.677" style="fill:rgb(240,233,52);fill-rule:nonzero;"/>
            </g>
            <g transform="matrix(1,0,0,1,173.514,177.744)">
                <path d="M0,3.261C-0.252,4.127 -0.503,4.994 -0.755,5.86C-1.155,5.829 -1.555,5.798 -1.954,5.766C-1.534,3.82 -1.114,1.874 -0.694,-0.072C-0.57,-0.643 -0.442,-1.228 -0.127,-1.719C0.189,-2.211 0.734,-2.599 1.317,-2.558C0.855,-1.377 0.496,-0.155 0.248,1.088C0.886,0.514 1.802,0.402 2.657,0.316C3.572,0.224 4.487,0.133 5.403,0.041C4.22,0.463 3.036,0.884 1.853,1.306C1.395,1.47 0.918,1.645 0.588,2.003C0.27,2.346 0.13,2.812 0,3.261" style="fill:rgb(240,233,52);fill-rule:nonzero;"/>
            </g>
            <g transform="matrix(1,0,0,1,185.146,174.817)">
                <path d="M0,-2.573L0.199,-1.327C-0.413,-1.708 -1.06,-2.1 -1.78,-2.138C-2.5,-2.177 -3.301,-1.724 -3.384,-1.008C-3.813,-1.502 -4.641,-1.578 -5.154,-1.172C-4.819,-1.988 -4.713,-2.897 -4.85,-3.769C-5.515,-3.133 -5.985,-2.296 -6.184,-1.397C-6.479,-2.065 -7.193,-2.527 -7.924,-2.522L-7.578,-1.59C-8.483,-2.006 -9.499,-2.18 -10.491,-2.089C-10.475,-1.831 -10.379,-1.578 -10.218,-1.374C-10.789,-1.482 -11.367,-1.094 -11.639,-0.581C-11.912,-0.068 -12.271,2.587 -12.231,3.166C-12.234,3.895 -9.433,0.314 -8.121,0.355C-4.287,0.477 -0.391,0.519 3.312,-0.482C4.958,-0.928 6.541,-1.573 8.12,-2.218C9.096,-2.616 13.357,-3.185 14.16,-3.867C14.963,-4.55 12.29,-5.406 12.201,-6.456C11.631,-6.468 11.083,-6.033 10.966,-5.475C10.191,-6.049 9.226,-6.364 8.262,-6.356C8.137,-6.355 7.998,-6.344 7.948,-6.177C7.912,-6.057 7.956,-5.927 8.046,-5.84L9.014,-4.906C8.001,-4.823 7.075,-4.328 6.182,-3.843C5.722,-3.593 5.184,-3.149 5.378,-2.663L4.969,-3.645C4.566,-3.285 4.231,-2.847 3.989,-2.363C3.989,-3.019 3.869,-3.676 3.636,-4.29C3.119,-3.845 2.864,-3.115 2.993,-2.445L1.966,-2.913L1.959,-2.014C1.438,-2.487 0.692,-2.7 0,-2.573" style="fill:rgb(0,71,81);fill-rule:nonzero;"/>
            </g>
            <g transform="matrix(1,0,0,1,176.203,176.23)">
                <path d="M0,-2.47C-0.295,-2.466 -0.593,-2.461 -0.878,-2.386C-1.866,-2.127 -2.487,-0.927 -2.126,0.029C-1.745,-0.356 -1.39,-0.767 -1.066,-1.201C-0.879,-0.931 -0.522,-0.791 -0.201,-0.861C0.12,-0.931 0.385,-1.208 0.442,-1.531C0.611,-1.31 1.031,-1.395 1.1,-1.665C1.23,-1.487 1.005,-1.254 1.01,-1.034C1.013,-0.858 1.174,-0.715 1.346,-0.681C1.518,-0.646 1.697,-0.698 1.858,-0.767C2.47,-1.028 2.959,-1.563 3.166,-2.196C2.146,-2.499 1.063,-2.486 0,-2.47" style="fill:rgb(0,71,81);fill-rule:nonzero;"/>
            </g>
            <g transform="matrix(1,0,0,1,169.279,187.802)">
                <path d="M0,-2.798C-0.194,-2.228 -0.742,-1.82 -0.89,-1.236C-1.103,-0.399 -0.876,0.875 -0.846,1.309C-0.816,1.742 -0.446,2.238 -0.026,1.839C0.406,1.292 0.629,0.583 0.587,-0.112C0.583,-0.176 0.619,-0.236 0.68,-0.256C1.395,-0.485 1.57,-1.427 1.557,-2.244C1.556,-2.348 1.661,-2.418 1.756,-2.375C2.368,-2.093 3.205,-2.359 3.52,-2.961C3.554,-3.025 3.632,-3.051 3.699,-3.022C4.127,-2.839 4.574,-2.683 5.038,-2.69C5.478,-2.696 5.938,-2.88 6.194,-3.228C6.242,-3.292 6.333,-3.291 6.393,-3.237C6.564,-3.081 6.909,-3.113 7.064,-3.288C7.124,-3.355 7.225,-3.356 7.28,-3.285C7.578,-2.894 8.086,-2.664 8.577,-2.722C9.108,-2.784 9.583,-3.179 9.754,-3.684C9.778,-3.756 9.855,-3.792 9.928,-3.769C10.709,-3.523 11.572,-3.745 12.37,-3.969L14.368,-4.529C14.523,-4.572 14.497,-4.8 14.336,-4.806L9.495,-5.006C9.075,-5.024 8.631,-5.036 8.26,-4.838C8.023,-4.712 7.823,-4.503 7.56,-4.45C7.177,-4.373 6.612,-4.552 6.42,-4.307C6.373,-4.247 6.283,-4.243 6.224,-4.29C5.448,-4.912 4.211,-4.887 3.467,-4.224C3.417,-4.179 3.345,-4.173 3.29,-4.211C2.822,-4.537 2.288,-4.79 1.721,-4.804C1.116,-4.819 0.475,-4.505 0.243,-3.945C0.094,-3.583 0.126,-3.169 0,-2.798" style="fill:rgb(0,71,81);fill-rule:nonzero;"/>
            </g>
            <g transform="matrix(1,0,0,1,187.089,185.147)">
                <path d="M0,10.196C0.227,9.409 0.465,8.599 0.974,7.958C1.483,7.316 2.337,6.876 3.126,7.095C2.561,7.055 1.996,6.775 1.703,6.29C1.409,5.805 1.448,4.599 1.86,4.21C2.17,3.918 2.616,3.834 3.036,3.771C4.536,3.546 6.053,3.955 7.569,3.965C7.075,2.689 7.179,1.195 7.846,0C7.275,0.132 6.972,0.77 6.906,1.352C6.84,1.934 6.927,2.537 6.761,3.099C4.928,2.815 3.012,2.537 1.252,3.123C1.122,3.167 0.984,3.221 0.905,3.335C0.797,3.491 0.836,3.701 0.865,3.889C1.192,6.004 -0.348,8.084 0,10.196" style="fill:rgb(240,233,52);fill-rule:nonzero;"/>
            </g>
            <g transform="matrix(1,0,0,1,159.939,196.609)">
                <path d="M0,6.033C0.143,5.351 0.31,4.675 0.502,4.006C0.583,3.724 0.679,3.427 0.907,3.244C1.199,3.011 1.611,3.033 1.983,3.067C1.552,2.715 1.411,2.1 1.489,1.549C1.567,0.998 1.829,0.493 2.087,0C1.748,0.063 1.411,0.137 1.077,0.222C1.015,0.238 0.949,0.257 0.906,0.305C0.87,0.346 0.856,0.402 0.844,0.456C0.432,2.294 0.017,4.149 0,6.033" style="fill:rgb(240,233,52);fill-rule:nonzero;"/>
            </g>
            <g transform="matrix(1,0,0,1,156.587,196.352)">
                <path d="M0,1.11C0.371,1.068 0.696,0.837 1.064,0.774C1.448,0.707 1.836,0.83 2.225,0.859C2.614,0.887 3.069,0.776 3.231,0.422C3.124,0.912 3.214,1.441 3.476,1.868C3.805,1.62 4.133,1.371 4.462,1.122C4.618,1.004 4.775,0.885 4.944,0.786C6.434,-0.081 8.4,0.798 10.025,0.22C10.481,0.057 10.906,-0.219 11.388,-0.264C12.261,-0.345 13.204,0.341 13.957,-0.109C13.936,0.277 14.27,0.646 14.656,0.664C15.042,0.683 15.409,0.347 15.426,-0.039C15.629,0.366 16.194,0.379 16.645,0.334C18.004,0.198 19.362,0.061 20.72,-0.075C16.131,-0.671 11.473,-0.94 6.876,-0.41C5.808,-0.287 4.735,-0.121 3.663,-0.191C2.839,-0.245 2.012,-0.437 1.197,-0.307C0.58,-0.208 0.005,0.072 -0.607,0.2C-1.633,0.416 -2.703,0.196 -3.747,0.299C-4.791,0.401 -5.939,1.01 -6.073,2.05C-5.296,1.964 -4.533,1.754 -3.82,1.433C-3.563,1.859 -2.953,2.025 -2.516,1.788C-2.152,1.59 -1.93,1.174 -1.542,1.03C-1.054,0.849 -0.517,1.168 0,1.11" style="fill:rgb(0,71,81);fill-rule:nonzero;"/>
            </g>
            <g transform="matrix(1,0,0,1,146.877,204.814)">
                <path d="M0,0.369C-0.073,0.374 -0.153,0.347 -0.218,0.382C-0.262,0.406 -0.288,0.454 -0.31,0.499C-0.59,1.069 -0.78,1.684 -0.871,2.312C-0.738,1.946 -0.599,1.57 -0.342,1.277C-0.086,0.983 0.319,0.786 0.697,0.885C0.888,-0.034 1.131,-0.943 1.424,-1.835C1.239,-1.943 0.988,-1.853 0.849,-1.69C0.71,-1.526 0.654,-1.31 0.603,-1.101C0.52,-0.764 0.436,-0.426 0.353,-0.089C0.304,0.112 0.207,0.355 0,0.369" style="fill:rgb(240,233,52);fill-rule:nonzero;"/>
            </g>
            <g transform="matrix(1,0,0,1,156.772,203.488)">
                <path d="M0,-1.63C-1.062,-1.785 -2.123,-1.939 -3.185,-2.094C-3.539,-2.145 -3.912,-2.195 -4.245,-2.064C-4.512,-1.958 -4.736,-1.741 -5.019,-1.696C-5.432,-1.63 -5.855,-1.947 -6.251,-1.815C-6.501,-1.731 -6.674,-1.485 -6.929,-1.418C-7.098,-1.373 -7.276,-1.415 -7.451,-1.431C-8.209,-1.497 -8.91,-1.063 -9.546,-0.646C-9.759,-0.507 -9.977,-0.362 -10.119,-0.15C-10.26,0.061 -10.305,0.358 -10.158,0.565C-9.545,0.244 -8.955,-0.12 -8.394,-0.525C-8.591,-0.256 -8.452,0.164 -8.162,0.329C-7.873,0.495 -7.497,0.44 -7.21,0.27C-6.924,0.1 -6.711,-0.169 -6.52,-0.443C-6.477,-0.504 -6.431,-0.57 -6.36,-0.597C-6.197,-0.66 -6.049,-0.487 -5.895,-0.403C-5.593,-0.239 -5.158,-0.511 -5.175,-0.855C-4.871,-0.416 -4.191,-0.299 -3.758,-0.611C-3.55,-0.761 -3.401,-0.989 -3.176,-1.112C-3.015,-1.201 -2.828,-1.228 -2.646,-1.254C-1.764,-1.379 -0.882,-1.505 0,-1.63" style="fill:rgb(0,71,81);fill-rule:nonzero;"/>
            </g>
            <g transform="matrix(1,0,0,1,148.447,198.808)">
                <path d="M0,-3.06C-0.076,-2.978 -0.117,-2.87 -0.155,-2.766C-0.356,-2.224 -0.556,-1.682 -0.756,-1.141C-0.435,-1.211 -0.097,-1.197 0.217,-1.102C-0.03,-0.83 -0.5,-0.883 -0.766,-0.628C-0.86,-0.538 -0.918,-0.418 -0.971,-0.299C-1.097,-0.017 -1.204,0.273 -1.29,0.569C-1.143,0.151 -0.779,-0.162 -0.377,-0.349C0.025,-0.535 0.468,-0.611 0.905,-0.685C0.617,-1.14 0.315,-1.662 0.44,-2.186C0.483,-2.366 0.574,-2.53 0.663,-2.691C0.837,-3.004 1.011,-3.316 1.185,-3.629L0.295,-3.24C0.188,-3.194 0.079,-3.145 0,-3.06" style="fill:rgb(240,233,52);fill-rule:nonzero;"/>
            </g>
            <g transform="matrix(1,0,0,1,155.697,183.329)">
                <path d="M0,2.381C-0.224,1.636 -0.12,0.798 0.281,0.132C-0.016,0.092 -0.306,-0.002 -0.569,-0.145C-0.759,0.735 -0.896,1.627 -0.979,2.523C-0.648,2.526 -0.316,2.478 0,2.381" style="fill:rgb(240,233,52);fill-rule:nonzero;"/>
            </g>
            <g transform="matrix(1,0,0,1,171.618,187.483)">
                <path d="M0,-5.226C-0.762,-5.384 -1.541,-5.543 -2.313,-5.443C-3.085,-5.344 -3.862,-4.937 -4.197,-4.235C-4.519,-5.001 -5.496,-5.415 -6.27,-5.114C-6.99,-4.835 -7.515,-4.046 -8.287,-4.048C-8.544,-4.048 -8.803,-4.142 -9.055,-4.089C-9.39,-4.018 -9.639,-3.701 -9.979,-3.652C-10.408,-3.591 -10.805,-3.979 -11.234,-3.924C-11.876,-3.841 -12.074,-2.885 -12.701,-2.729C-12.992,-2.656 -13.291,-2.78 -13.589,-2.803C-14.318,-2.859 -15.02,-2.198 -15.008,-1.466C-15.366,-1.974 -15.972,-2.546 -16.511,-2.238C-16.851,-2.045 -16.966,-1.57 -17.323,-1.41C-17.553,-1.308 -17.817,-1.366 -18.067,-1.393C-19.075,-1.5 -20.125,-1.011 -20.692,-0.17C-20.795,-0.017 -20.883,0.145 -20.97,0.308C-20.562,0.317 -20.161,0.061 -19.998,-0.313C-19.62,0.076 -18.821,-0.229 -18.8,-0.771C-18.344,-0.637 -17.873,-0.502 -17.399,-0.55C-16.926,-0.598 -16.443,-0.875 -16.298,-1.328C-16.368,-0.806 -16.002,-0.26 -15.493,-0.125C-14.983,0.009 -14.395,-0.285 -14.199,-0.775C-13.953,-0.585 -13.569,-0.727 -13.396,-0.985C-13.223,-1.242 -13.203,-1.57 -13.19,-1.88C-12.307,-1.658 -11.302,-2.265 -11.088,-3.15C-10.731,-2.689 -9.916,-2.711 -9.584,-3.191C-9.177,-2.625 -8.083,-2.961 -8.063,-3.658C-7.854,-3.259 -7.09,-3.593 -7.239,-4.018C-6.661,-3.529 -5.616,-3.853 -5.416,-4.583C-5.46,-3.968 -5.086,-3.345 -4.522,-3.096C-4.333,-3.26 -4.268,-3.553 -4.371,-3.782C-4.336,-3.398 -3.744,-3.314 -3.467,-3.582C-3.19,-3.85 -3.153,-4.274 -3.133,-4.658C-2.967,-4.696 -2.802,-4.734 -2.636,-4.771C-1.766,-4.969 -0.891,-5.168 0,-5.226" style="fill:rgb(0,71,81);fill-rule:nonzero;"/>
            </g>
            <g transform="matrix(1,0,0,1,193.677,185.53)">
                <path d="M0,-0.157C-0.229,0.2 -0.458,0.558 -0.687,0.915C-0.786,1.069 -0.889,1.239 -0.872,1.421C-0.831,1.885 -0.111,1.92 0.238,1.612C0.587,1.304 0.759,0.824 1.134,0.548C1.084,0.963 1.63,1.245 2.023,1.1C2.415,0.955 2.651,0.56 2.823,0.178C3.428,0.361 4.11,0.276 4.652,-0.051C4.485,0.433 4.318,0.918 4.152,1.403C4.073,1.632 3.994,1.884 4.074,2.112C4.222,2.531 4.804,2.605 5.218,2.446C5.849,2.203 6.312,1.575 6.357,0.901C6.598,1.547 7.732,1.506 7.926,0.845C8.256,1.449 8.949,1.835 9.636,1.797C10.323,1.76 10.97,1.3 11.232,0.664C11.297,0.939 11.606,1.13 11.881,1.065C11.982,0.898 12.084,0.73 12.185,0.563C11.915,1.176 12.725,1.812 13.377,1.661C14.029,1.51 14.469,0.918 14.85,0.368C16.076,0.913 17.491,0.431 18.743,-0.053C19.761,-0.447 20.952,-1.066 20.998,-2.157C21.007,-2.372 20.944,-2.62 20.75,-2.714C20.651,-2.762 20.536,-2.76 20.425,-2.757L13.173,-2.548C12.655,-2.533 12.126,-2.516 11.641,-2.331C11.385,-2.234 11.144,-2.091 10.878,-2.026C10.386,-1.907 9.876,-2.067 9.372,-2.114C8.524,-2.193 7.649,-1.933 6.982,-1.404C6.816,-1.273 6.651,-1.12 6.442,-1.082C6.008,-1.003 5.675,-1.436 5.295,-1.661C4.655,-2.041 3.713,-1.734 3.419,-1.05C3.277,-1.362 2.819,-1.362 2.513,-1.205C2.208,-1.048 1.948,-0.787 1.611,-0.722C1.243,-0.65 0.839,-0.827 0.495,-0.675C0.274,-0.576 0.131,-0.361 0,-0.157" style="fill:rgb(0,71,81);fill-rule:nonzero;"/>
            </g>
            <g transform="matrix(1,0,0,1,135.299,198.496)">
                <path d="M0,-4.522C0.452,-4.512 0.919,-4.721 1.294,-5.102C1.513,-4.923 1.732,-4.743 1.951,-4.564C1.992,-4.647 2.305,-5.192 2.346,-5.275C1.961,-4.332 1.709,-3.109 1.577,-2.139C1.472,-2.152 1.287,-2.153 1.181,-2.165C0.933,-1.262 0.766,-0.371 0.518,0.532C0.501,0.595 0.481,0.662 0.441,0.703C0.393,0.753 0.328,0.753 0.27,0.75C-0.781,0.7 -1.831,0.629 -2.878,0.536C-2.714,0.615 -2.515,0.501 -2.39,0.317C-2.265,0.133 -2.201,-0.106 -2.155,-0.34C-2.14,-0.419 -2.124,-0.503 -2.079,-0.562C-2.029,-0.627 -1.957,-0.644 -1.89,-0.657C-1.505,-0.731 -1.12,-0.805 -0.736,-0.879C-1.167,-0.989 -1.609,-1.044 -2.055,-1.042C-1.678,-1.564 -1.406,-2.22 -1.283,-2.909C-0.937,-2.913 -0.588,-2.991 -0.251,-3.139C-0.432,-3.221 -0.613,-3.304 -0.794,-3.386C-0.469,-3.46 -0.147,-3.571 0.168,-3.717C0.034,-4.034 -0.498,-3.783 -0.528,-4.154C-0.54,-4.3 -0.44,-4.439 -0.332,-4.489C-0.225,-4.539 -0.111,-4.525 0,-4.522" style="fill:rgb(59,140,174);fill-rule:nonzero;"/>
            </g>
            <g transform="matrix(1,0,0,1,136.688,199.757)">
                <path d="M0,-1.284C0.27,-1.51 0.61,-1.653 0.961,-1.687C1.013,-2.081 1.218,-2.454 1.524,-2.708C1.483,-2.915 1.173,-2.884 0.992,-2.778C0.232,-2.333 -0.232,-1.524 -0.619,-0.733C-0.764,-0.436 -0.904,-0.135 -1.093,0.136C-1.417,0.598 -1.911,1.104 -1.706,1.631C-1.443,1.383 -1.23,1.081 -1.084,0.75C-1.029,0.624 -0.976,0.486 -0.861,0.412C-0.784,0.362 -0.689,0.348 -0.602,0.318C-0.31,0.219 -0.112,-0.066 -0.034,-0.364C0.044,-0.662 0.022,-0.976 0,-1.284" style="fill:rgb(59,140,174);fill-rule:nonzero;"/>
            </g>
            <g transform="matrix(1,0,0,1,137.715,203.139)">
                <path d="M0,-0.369C-0.064,-0.271 -0.198,-0.253 -0.315,-0.244C-1.16,-0.182 -2.004,-0.12 -2.849,-0.058C-2.847,0.061 -2.882,0.18 -2.947,0.28C-1.902,0.149 -0.849,0.074 0.204,0.057C0.275,-0.096 0.347,-0.248 0.418,-0.4C1.091,-0.52 1.772,-0.589 2.456,-0.609C1.731,-0.644 1.005,-0.649 0.281,-0.624C0.218,-0.622 0.149,-0.617 0.103,-0.575C0.045,-0.523 0.042,-0.434 0,-0.369" style="fill:rgb(59,140,174);fill-rule:nonzero;"/>
            </g>
            <g transform="matrix(1,0,0,1,185.822,201.725)">
                <path d="M0,-1.092C0.341,-1.083 0.65,-1.256 0.931,-1.42C1.842,-1.954 2.754,-2.488 3.665,-3.022C3.02,-2.644 3.401,-1.794 3.754,-1.415C4.223,-0.91 4.929,-0.559 5.688,-0.419C6.332,-0.301 7.011,-0.327 7.656,-0.462C7.846,-0.502 9.248,-0.83 9.163,-1.134C9.456,-0.084 9.408,1.035 9.026,2.081C2.316,0.63 -4.514,3.426 -11.371,4.66C-10.427,3.155 -9.246,1.89 -7.9,0.621C-7.943,1.014 -7.982,1.427 -7.786,1.783C-7.59,2.139 -7.073,2.403 -6.624,2.251C-6.386,2.171 -6.218,1.996 -6.063,1.827C-3.878,-0.543 -1.979,-3.086 -0.402,-5.752C-0.631,-4.736 -0.806,-3.714 -0.927,-2.687C-1.005,-2.021 -0.816,-1.112 0,-1.092" style="fill:white;fill-rule:nonzero;"/>
            </g>
            <g transform="matrix(1,0,0,1,175.103,204.853)">
                <path d="M0,0.835C-0.173,0.947 -0.371,1.019 -0.575,1.044C-0.665,1.056 -0.76,1.057 -0.842,1.018C-0.915,0.982 -0.97,0.917 -1.01,0.846C-1.201,0.513 -1.097,0.093 -0.961,-0.266C-0.802,-0.69 -0.607,-1.1 -0.378,-1.49C-0.75,-0.884 -1.305,-0.413 -1.886,-0.004C-2.331,0.31 -2.828,0.604 -3.373,0.61C-3.565,0.612 -3.773,0.568 -3.898,0.423C-4.039,0.259 -4.034,0.019 -4.014,-0.196C-4.291,0.458 -4.659,1.072 -5.105,1.624C-5.245,1.797 -5.397,1.972 -5.45,2.188C-5.457,2.216 -5.462,2.248 -5.449,2.275C-5.425,2.32 -5.364,2.325 -5.313,2.325C-4.922,2.319 -4.531,2.312 -4.14,2.306C-3.853,2.302 -3.565,2.297 -3.28,2.269C-2.991,2.239 -2.704,2.185 -2.414,2.165C-1.862,2.128 -1.259,2.204 -0.799,1.896C-0.577,1.747 -0.417,1.524 -0.261,1.305" style="fill:white;fill-rule:nonzero;"/>
            </g>
            <g transform="matrix(1,0,0,1,156.47,206.867)">
                <path d="M0,-1.94C-0.349,-1.378 -0.571,-0.503 0.146,-0.273C0.99,-0.003 1.553,-1.11 2.437,-1.267C2.35,-0.975 2.441,-0.65 2.674,-0.418C4.172,-1.618 5.67,-2.818 7.168,-4.018C6.967,-3.279 6.767,-2.54 6.566,-1.802C6.482,-1.493 6.442,-1.094 6.775,-0.933C6.981,-0.834 7.242,-0.881 7.471,-0.938C8.343,-1.155 9.174,-1.483 9.926,-1.906C9.447,-1.63 9.737,-0.924 10.299,-0.786C10.861,-0.649 11.457,-0.92 11.856,-1.272C12.076,-0.614 12.17,0.072 12.134,0.753C8.869,1.091 5.604,1.429 2.339,1.768C0.85,1.922 -0.643,2.076 -2.145,2.077C-4.188,2.078 -6.215,1.794 -8.231,1.511C-8.135,0.992 -7.376,0.802 -6.776,0.627C-5.68,0.308 -4.718,-0.312 -4.082,-1.112C-4.364,-0.618 -4.63,-0.118 -4.878,0.388C-2.156,-0.053 -0.316,-2.083 1.256,-3.962L0,-1.94Z" style="fill:white;fill-rule:nonzero;"/>
            </g>
            <g transform="matrix(1,0,0,1,147.064,204.256)">
                <path d="M0,9.673C-0.058,9.758 -0.11,9.846 -0.156,9.938C-1.073,9.934 -1.958,9.875 -2.796,9.758C-1.919,9.809 -0.965,9.771 0,9.673M2.982,3.606C-6.522,3.598 -17.842,2.815 -31.143,0.746C-82.559,-7.252 -97.052,0.085 -97.052,0.085L-114.465,16.925L22.935,16.206C23.55,16.221 24.168,16.219 24.788,16.196L37.279,16.131L48.102,-1.672C48.102,-1.672 40.528,-1.482 33.062,0.387C33.526,0.357 33.526,0.357 33.989,0.328C33.33,1.044 33.099,1.89 32.929,2.808C32.698,2.884 32.471,2.969 32.25,3.062C31.468,3.392 30.748,3.836 30.114,4.392C29.466,4.461 28.813,4.54 28.167,4.65C29.42,3.491 30.539,2.186 31.486,0.765C28.02,1.561 23.785,2.308 18.726,2.837C16.839,4.798 14.186,6.423 11.251,7.622C10.694,7.655 10.138,7.701 9.582,7.765C9.14,7.816 8.703,7.896 8.309,8.076C8.252,8.073 8.195,8.072 8.138,8.069C7.8,8.05 7.457,8.02 7.11,7.987C9.923,6.895 11.662,5.533 13.806,3.258C12.871,3.321 11.912,3.377 10.929,3.424C10.773,3.577 10.634,3.706 10.528,3.78" style="fill:rgb(59,140,174);fill-rule:nonzero;"/>
            </g>
            <g transform="matrix(1,0,0,1,124.699,209.826)">
                <path d="M0,-0.142C3.955,1.157 7.876,1.564 11.754,1.773C16.043,2.004 20.387,1.804 24.619,1.047C26.52,0.706 28.459,0.339 30.262,-0.376C31.19,-0.743 32.075,-1.22 32.893,-1.791C32.999,-1.865 33.138,-1.994 33.294,-2.146C30.8,-2.027 28.153,-1.962 25.347,-1.964C22.233,-0.533 18.503,0.16 14.802,0.362C10.572,0.593 4.672,0.551 0,-0.142" style="fill:rgb(92,196,233);fill-rule:nonzero;"/>
            </g>
            <g transform="matrix(1,0,0,1,152.637,209.273)">
                <path d="M0,3.508C-2.296,4.234 -5.686,4.895 -8.368,4.741C-1.58,5.688 8.307,2.857 13.154,-2.18C11.593,-2.017 9.953,-1.875 8.234,-1.759C5.724,0.903 3.771,2.315 0,3.508" style="fill:rgb(92,196,233);fill-rule:nonzero;"/>
            </g>
            <g transform="matrix(1,0,0,1,159.984,208.369)">
                <path d="M0,5.597C2.399,5.079 4.751,4.398 7.025,3.562C2.879,7.816 -3.9,8.884 -9.835,9.212C-5.048,9.849 -0.903,9.308 3.787,8.269C6.764,7.61 11.683,5.568 13.655,3.552C12.563,5.3 10.278,7.301 8.372,8.428C13.573,6.361 21.276,1.634 22.447,-4.252L17.323,-3.072C16.825,-2.045 16.437,-1.201 15.655,-0.313C14.978,0.455 13.894,1.63 12.686,1.751C12.458,1.773 12.205,1.741 12.045,1.599C11.882,1.454 11.857,1.229 11.895,1.03C12.01,0.43 12.418,-0.158 12.741,-0.697C12.962,-1.065 13.911,-2.221 14.286,-2.472L12.218,-2.119L10.579,-1.869C8.806,0.109 6.73,3.257 0,5.597" style="fill:rgb(92,196,233);fill-rule:nonzero;"/>
            </g>
            <g transform="matrix(1,0,0,1,70.981,211.849)">
                <path d="M0,-0.418C10.954,-1.271 19.448,-0.792 30.928,2.001C40.928,4.435 50.328,6.66 64.908,3.644C44.109,4.695 30.519,-7.078 0,-0.418" style="fill:rgb(92,196,233);fill-rule:nonzero;"/>
            </g>
            <g transform="matrix(1,0,0,1,131.011,204.635)">
                <path d="M0,-0.061C-0.302,-0.108 -0.603,-0.155 -0.905,-0.201C-1.235,-0.253 -1.567,-0.304 -1.901,-0.307C-2.076,-0.308 -2.633,-0.09 -2.663,0.082C-1.486,-0.03 -0.33,0.083 0.658,0.247C0.557,0.16 0.454,0.073 0.332,0.02C0.227,-0.025 0.113,-0.043 0,-0.061" style="fill:rgb(59,140,174);fill-rule:nonzero;"/>
            </g>
            <g transform="matrix(1,0,0,1,130.151,202.396)">
                <path d="M0,-0.361C-0.048,-0.363 -0.098,-0.365 -0.142,-0.346C-0.269,-0.291 -0.281,-0.109 -0.385,-0.018C0.266,-0.1 0.928,-0.092 1.577,0.004C1.078,-0.21 0.542,-0.334 0,-0.361" style="fill:rgb(59,140,174);fill-rule:nonzero;"/>
            </g>
            <g transform="matrix(1,0,0,1,121.961,200.492)">
                <path d="M0,1.963C-0.351,1.946 -0.7,1.914 -1.048,1.867C-1.015,1.781 -0.982,1.696 -0.949,1.61C-0.613,1.634 -0.275,1.624 0.059,1.579C-0.17,1.506 -0.409,1.465 -0.649,1.458C-0.483,1.217 -0.376,0.936 -0.34,0.645C-0.175,0.635 -0.011,0.625 0.154,0.615C0.182,0.598 0.139,0.563 0.107,0.56C0.031,0.554 -0.046,0.548 -0.122,0.542C-0.071,0.454 -0.04,0.355 -0.029,0.253C0.148,0.28 0.669,0.08 0.827,-0.003C0.695,0.292 0.244,0.763 0.147,1.072C0.139,1.099 0.13,1.13 0.141,1.156C0.169,1.228 0.283,1.196 0.348,1.237C0.424,1.286 0.398,1.403 0.363,1.486C0.312,1.606 0.261,1.726 0.211,1.846C0.198,1.876 0.184,1.907 0.16,1.929C0.118,1.966 0.056,1.966 0,1.963" style="fill:rgb(59,140,174);fill-rule:nonzero;"/>
            </g>
            <g transform="matrix(1,0,0,1,122.206,200.364)">
                <path d="M0,0.457C0.832,0.494 1.665,0.532 2.497,0.532C2.714,0.532 2.931,0.529 3.148,0.527C3.352,0.524 3.557,0.522 3.762,0.52C4.59,0.51 5.496,0.472 6.117,-0.075C4.591,0.016 3.062,0.06 1.533,0.059C0.99,0.059 0.386,0.076 0,0.457" style="fill:rgb(59,140,174);fill-rule:nonzero;"/>
            </g>
            <g transform="matrix(1,0,0,1,127.231,200.284)">
                <path d="M0,-0.119C-0.155,-0.093 -0.311,-0.067 -0.466,-0.042C-0.246,0 -0.099,-0.034 0,-0.119" style="fill:rgb(59,140,174);fill-rule:nonzero;"/>
            </g>
            <g transform="matrix(1,0,0,1,128.759,195.756)">
                <path d="M0,1.806C0.081,1.569 0.115,1.314 0.242,1.099C0.37,0.884 0.635,0.718 0.867,0.811C0.948,0.315 1.134,-0.163 1.408,-0.583C1.088,-0.496 0.815,-0.25 0.695,0.059C0.651,0.171 0.623,0.295 0.542,0.384C0.436,0.501 0.265,0.529 0.108,0.547C-0.617,0.634 -1.347,0.676 -2.077,0.673C-1.555,0.812 -1.02,0.896 -0.481,0.925C-0.412,1.121 -0.441,1.349 -0.557,1.521C-1.466,1.41 -2.372,1.999 -3.267,1.808C-3.228,2.073 -2.98,2.267 -2.72,2.328C-2.46,2.389 -2.188,2.345 -1.924,2.301L-0.262,2.022C-0.203,2.012 -0.14,2.001 -0.093,1.963C-0.045,1.924 -0.02,1.864 0,1.806" style="fill:rgb(59,140,174);fill-rule:nonzero;"/>
            </g>
            <g transform="matrix(1,0,0,1,122.93,198.156)">
                <path d="M0,-0.308C-0.171,-0.298 -0.342,-0.321 -0.513,-0.328C-1.083,-0.352 -1.644,-0.2 -2.195,-0.048C-2.457,0.024 -2.79,0.248 -2.653,0.483C-1.972,0.347 -1.271,0.312 -0.581,0.382C-0.446,0.395 -0.306,0.412 -0.176,0.373C-0.001,0.32 0.132,0.173 0.306,0.115C0.545,0.035 0.804,0.141 1.056,0.132C1.308,0.124 1.592,-0.13 1.456,-0.342C1.607,0.053 2.299,0.032 2.425,-0.373C2.258,-0.082 2.383,0.347 2.692,0.474C3.002,0.601 3.411,0.351 3.409,0.016C3.612,0.421 4.286,0.454 4.528,0.071C4.973,0.12 5.424,0.114 5.867,0.054C5.968,0.041 6.072,0.023 6.157,-0.033C6.419,-0.206 6.354,-0.595 6.363,-0.909C5.462,-0.215 4.13,-0.714 3.047,-0.368C2.67,-0.733 2.114,-0.902 1.597,-0.811C1.046,-0.712 0.56,-0.34 0,-0.308" style="fill:rgb(59,140,174);fill-rule:nonzero;"/>
            </g>
            <g transform="matrix(1,0,0,1,141.339,194.404)">
                <path d="M0,0.25C0.237,0.275 0.467,0.339 0.699,0.389C1.286,0.516 1.889,0.554 2.489,0.546C2.895,0.541 3.3,0.515 3.703,0.469C2.633,0.616 1.66,-0.173 0.588,-0.308C-0.579,-0.455 -1.705,0.185 -2.881,0.233C-2.027,0.705 -0.97,0.149 0,0.25" style="fill:rgb(59,140,174);fill-rule:nonzero;"/>
            </g>
            <g transform="matrix(1,0,0,1,143.824,200.494)">
                <path d="M0,-2.22C-0.084,-2.222 -0.173,-2.221 -0.244,-2.177C-0.297,-2.143 -0.334,-2.09 -0.369,-2.038C-0.514,-1.824 -0.659,-1.61 -0.803,-1.396C-0.852,-1.324 -0.904,-1.25 -0.982,-1.213C-1.073,-1.17 -1.179,-1.187 -1.278,-1.204C-1.791,-1.291 -2.309,-1.342 -2.829,-1.355C-2.881,-1.357 -2.936,-1.356 -2.978,-1.326C-3.034,-1.285 -3.043,-1.207 -3.066,-1.141C-3.178,-0.828 -3.607,-0.812 -3.938,-0.84C-4.678,-0.904 -5.423,-0.9 -6.162,-0.83C-6.084,-0.687 -6.183,-0.503 -6.322,-0.419C-6.461,-0.335 -6.629,-0.319 -6.787,-0.28C-6.999,-0.227 -7.199,-0.131 -7.372,0.002C-5.853,-0.232 -4.306,-0.287 -2.774,-0.162C-2.703,-0.411 -2.617,-0.656 -2.517,-0.894C-2.501,-0.932 -2.483,-0.971 -2.448,-0.992C-2.41,-1.015 -2.362,-1.009 -2.318,-1.003C-1.801,-0.932 -1.284,-0.86 -0.767,-0.788L-0.339,-1.537C-0.268,-1.661 -0.195,-1.787 -0.091,-1.885C0.189,-2.149 0.618,-2.151 1.002,-2.136C0.67,-2.185 0.335,-2.213 0,-2.22" style="fill:rgb(59,140,174);fill-rule:nonzero;"/>
            </g>
            <g transform="matrix(1,0,0,1,124.017,195.81)">
                <path d="M0,-0.011C0.126,-0.131 0.205,-0.272 0.225,-0.414C-0.396,-0.373 -0.999,-0.212 -1.593,-0.053C-2.021,0.062 -2.45,0.177 -2.879,0.292C-2.018,0.155 -1.157,0.018 -0.295,-0.119C-0.431,0.048 -0.543,0.223 -0.63,0.403C0.809,-0.068 2.427,0.125 3.977,0.05C2.713,-0.199 1.331,-0.22 0,-0.011" style="fill:rgb(59,140,174);fill-rule:nonzero;"/>
            </g>
            <g transform="matrix(1,0,0,1,130.639,204.545)">
                <path d="M0,0.07C0.229,0.011 0.472,0.061 0.705,0.024C0.928,-0.012 1.131,-0.125 1.328,-0.237C1.311,-0.066 1.254,0.1 1.162,0.244C1.147,0.267 1.13,0.292 1.103,0.3C1.081,0.307 1.056,0.302 1.033,0.296C0.936,0.271 0.839,0.246 0.741,0.221C0.497,0.159 0.251,0.096 0,0.07" style="fill:rgb(59,140,174);fill-rule:nonzero;"/>
            </g>
            <g transform="matrix(1,0,0,1,154.261,184.08)">
                <path d="M0,-1.45C-0.032,-1.316 -0.016,-1.163 -0.097,-1.052C-0.165,-0.96 -0.283,-0.922 -0.388,-0.875C-0.982,-0.606 -1.267,0.193 -0.978,0.778C-0.516,0.795 -0.064,0.467 0.063,0.024C0.266,0.325 0.739,0.343 1.035,0.131C1.331,-0.081 1.472,-0.452 1.518,-0.813C1.824,-0.627 2.223,-0.607 2.547,-0.761C2.87,-0.915 3.106,-1.238 3.154,-1.593C4.006,-1.398 4.932,-1.549 5.678,-2.004C4.745,-2.245 3.762,-2.14 2.804,-2.033C2.692,-2.021 2.576,-2.007 2.481,-1.947C2.401,-1.895 2.339,-1.814 2.25,-1.782C2.173,-1.755 2.09,-1.77 2.01,-1.784C1.804,-1.822 1.599,-1.861 1.393,-1.899C1.127,-1.948 0.853,-1.998 0.588,-1.945C0.322,-1.893 0.064,-1.713 0,-1.45" style="fill:rgb(0,71,81);fill-rule:nonzero;"/>
            </g>
            <g transform="matrix(1,0,0,1,161.266,181.056)">
                <path d="M0,-3.34C0.644,-3.696 1.517,-3.806 2.31,-3.892C2.812,-3.947 3.314,-4.001 3.815,-4.056C3.118,-3.811 2.422,-3.566 1.725,-3.321C1.543,-3.257 1.35,-3.187 1.239,-3.084C1.15,-3.001 1.129,-2.911 1.111,-2.825C0.935,-1.997 0.363,-0.111 0.188,0.716C-0.064,-0.572 -0.119,-2.283 0,-3.34" style="fill:rgb(240,233,52);fill-rule:nonzero;"/>
            </g>
            <g transform="matrix(1,0,0,1,46.2722,205.527)">
                <path d="M0,4.087C0.434,4.32 -0.195,4.991 -0.588,4.714C0.249,4.404 1.086,4.094 1.928,3.794C17.373,-1.72 35.207,-3.987 50.881,0.586C39.948,-0.817 28.537,0.051 18.012,3.085C14.13,4.204 10.364,5.613 6.407,6.534C1.301,7.722 -4.078,8.074 -9.313,7.563" style="fill:rgb(92,196,233);fill-rule:nonzero;"/>
            </g>
            <g transform="matrix(1,0,0,1,132.53,197.186)">
                <path d="M0,2.916C-0.058,2.792 0.022,2.639 0.14,2.57C0.258,2.501 0.401,2.495 0.538,2.494C1.422,2.483 2.277,2.637 3.143,2.734C3.273,1.307 3.66,-0.202 1.944,0.84C1.267,1.25 0.647,1.746 -0.062,2.106C-0.846,2.505 -1.919,2.537 -2.59,3.079C-2.377,3.118 0.045,3.013 0,2.916" style="fill:rgb(59,140,174);fill-rule:nonzero;"/>
            </g>
            <g transform="matrix(1,0,0,1,134.417,201.978)">
                <path d="M0,-2.808C0.167,-1.823 0.276,-0.829 0.326,0.168C0.805,-0.669 1.164,-1.576 1.389,-2.514C0.92,-2.576 0.464,-2.734 0.057,-2.976" style="fill:rgb(59,140,174);fill-rule:nonzero;"/>
            </g>
        </g>
    </g>
</svg>
