<?xml version="1.0" encoding="UTF-8" standalone="no"?>
<!DOCTYPE svg PUBLIC "-//W3C//DTD SVG 1.1//EN" "http://www.w3.org/Graphics/SVG/1.1/DTD/svg11.dtd">
<svg width="100%" height="100%" viewBox="0 0 222 773" version="1.1" xmlns="http://www.w3.org/2000/svg" xmlns:xlink="http://www.w3.org/1999/xlink" xml:space="preserve" xmlns:serif="http://www.serif.com/" style="fill-rule:evenodd;clip-rule:evenodd;stroke-linejoin:round;stroke-miterlimit:1.41421;">
    <g transform="matrix(0,4.16667,4.16667,0,275.279,275.279)">
        <path d="M-12.801,-66.067L119.333,-66.067L66.067,-12.801L-66.067,-12.801L-12.801,-66.067Z" style="fill:rgb(59,140,174);fill-rule:nonzero;"/>
    </g>
</svg>
