<?xml version="1.0" encoding="UTF-8" standalone="no"?>
<!DOCTYPE svg PUBLIC "-//W3C//DTD SVG 1.1//EN" "http://www.w3.org/Graphics/SVG/1.1/DTD/svg11.dtd">
<svg width="100%" height="100%" viewBox="0 0 222 773" version="1.1" xmlns="http://www.w3.org/2000/svg" xmlns:xlink="http://www.w3.org/1999/xlink" xml:space="preserve" xmlns:serif="http://www.serif.com/" style="fill-rule:evenodd;clip-rule:evenodd;stroke-linejoin:round;stroke-miterlimit:1.41421;">
    <g transform="matrix(0,4.16667,4.16667,0,275.277,275.281)">
        <path d="M-12.8,-66.066L119.333,-66.066L66.068,-12.8L-66.068,-12.8L-12.8,-66.066Z" style="fill:rgb(59,140,174);fill-rule:nonzero;"/>
    </g>
    <g transform="matrix(4.16667,0,0,4.16667,-1161.51,-2574.64)">
        <clipPath id="_clip1">
            <path d="M278.762,671.181L278.762,803.315L332.028,750.049L332.028,617.914L278.762,671.181Z" clip-rule="nonzero"/>
        </clipPath>
        <g clip-path="url(#_clip1)">
            <g transform="matrix(1,0,0,1,279.148,697.589)">
                <path d="M0,116.477C8.893,110.433 17.786,104.388 26.679,98.344C32.252,94.557 37.863,90.737 42.611,85.956C48.072,80.456 52.333,73.74 58.464,69C60.244,67.623 62.276,66.286 63.023,64.163C64.074,61.177 62.173,58.06 61.382,54.995C60.078,49.944 61.786,44.255 59.488,39.571C58.849,38.27 57.925,37.114 57.397,35.765C56.461,33.375 56.872,30.688 56.495,28.149C55.936,24.393 53.34,20.832 49.688,19.791C46.035,18.751 41.584,20.808 40.573,24.469C41.228,23.116 40.65,21.297 39.333,20.572C38.016,19.847 36.169,20.33 35.377,21.608C35.597,11.937 27.792,2.731 18.215,1.366C8.639,0 -1.428,6.658 -3.919,16.006C-5.138,20.579 -4.699,25.407 -4.327,30.125C-3.675,38.394 -3.257,46.685 -3.267,54.98C-3.292,75.598 -5.907,96.723 0,116.477" style="fill:rgb(247,144,29);fill-rule:nonzero;"/>
            </g>
            <g transform="matrix(1,0,0,1,310.583,687.199)">
                <path d="M0,-15.249C0,-15.249 16.673,-8.248 17.382,-1.153C17.294,0 16.052,-2.306 16.052,-2.306C16.052,-2.306 11.262,-10.501 -1.197,-9.773C-13.656,-9.046 0,-15.249 0,-15.249" style="fill:rgb(35,31,32);fill-rule:nonzero;"/>
            </g>
            <g transform="matrix(1,0,0,1,304.462,738.506)">
                <path d="M0,-18.997C0.232,-15.789 -1.149,-12.909 -1.149,-12.909C0.802,-4.041 -0.44,-1.912 -0.197,-0.848C0.045,0.216 1.511,-0.759 1.6,-0.848C1.731,-4.296 0.447,-10.514 0.432,-11.401C0.418,-12.288 1.073,-12.377 1.073,-12.377L0.867,-16.234C0.856,-16.436 0.892,-16.637 0.973,-16.823C1.089,-17.09 1.279,-17.532 1.5,-18.079C1.284,-18.743 0.765,-19.213 0,-18.997" style="fill:rgb(35,31,32);fill-rule:nonzero;"/>
            </g>
            <g transform="matrix(1,0,0,1,307.053,720.296)">
                <path d="M0,-7.114C-2.29,-6.937 -3.696,-4.409 -3.696,-4.409C-2.993,-3.246 -2.679,-1.994 -2.591,-0.787C-1.827,-1.003 -1.307,-0.533 -1.091,0.131C-0.056,-2.42 1.687,-7.245 0,-7.114" style="fill:rgb(35,31,32);fill-rule:nonzero;"/>
            </g>
            <g transform="matrix(1,0,0,1,300.681,737.509)">
                <path d="M0,0.751C0.07,0.77 0.139,0.794 0.205,0.824C0.348,0.888 0.704,1.118 0.679,1.315C0.647,1.563 0.11,1.558 -0.103,1.574C-0.726,1.621 -1.348,1.508 -1.962,1.396C-2.543,1.29 -3.123,1.184 -3.704,1.078C-3.79,1.062 -3.878,1.045 -3.952,0.998C-4.111,0.897 -4.156,0.688 -4.182,0.501C-4.239,0.095 -4.276,-0.315 -4.292,-0.726C-4.213,-0.564 -3.864,-0.87 -3.756,-0.726C-3.006,0.271 -1.77,0.501 -0.589,0.653C-0.392,0.678 -0.191,0.698 0,0.751" style="fill:rgb(247,144,29);fill-rule:nonzero;"/>
            </g>
            <g transform="matrix(1,0,0,1,293.535,725.618)">
                <path d="M0,-0.164C0,-0.164 2.311,-5.754 -0.493,-9.862C-0.493,-9.862 0.772,-12.463 3.048,-12.767C5.084,-13.039 2.477,-5.737 1.903,-4.19C1.832,-4 1.807,-3.797 1.829,-3.595L2.248,0.244C2.248,0.244 1.599,0.369 1.662,1.254C1.726,2.138 3.352,8.276 3.412,11.726C3.328,11.82 1.918,12.875 1.617,11.825C1.316,10.776 2.438,8.583 0,-0.164" style="fill:rgb(35,31,32);fill-rule:nonzero;"/>
            </g>
            <g transform="matrix(1,0,0,1,310.029,738.956)">
                <path d="M0,0.061C0.13,0.09 0.258,0.126 0.381,0.178C0.623,0.28 1.013,0.535 1.042,0.831C1.067,1.093 0.675,1.268 0.688,1.415C0.43,1.493 0.165,0.863 -0.103,0.884C-0.726,0.93 -1.348,0.818 -1.962,0.706C-2.543,0.599 -3.124,0.493 -3.704,0.387C-3.79,0.372 -3.879,0.355 -3.952,0.308C-4.111,0.206 -4.156,-0.002 -4.182,-0.189C-4.24,-0.596 -4.276,-1.006 -4.292,-1.416C-4.214,-1.254 -4.087,-1.432 -3.967,-1.298C-3.176,-0.419 -1.708,-0.197 -0.599,-0.036C-0.399,-0.007 -0.197,0.018 0,0.061" style="fill:rgb(35,31,32);fill-rule:nonzero;"/>
            </g>
            <g transform="matrix(1,0,0,1,0,707.866)">
                <rect x="274.425" y="40.305" width="45.404" height="53.414" style="fill:rgb(59,140,174);"/>
            </g>
            <g transform="matrix(1,0,0,1,319.126,746.552)">
                <path d="M0,2.67C-3.38,5.149 -14.283,7.498 -27.373,7.498C-43.151,7.498 -55.942,4.326 -55.942,1.069C-55.942,-2.188 -43.151,-4.828 -27.373,-4.828C-14.283,-4.828 -3.02,-4.54 -0.025,-1.591C0.38,-1.192 0.694,2.161 0,2.67" style="fill:rgb(0,71,81);fill-rule:nonzero;"/>
            </g>
            <g transform="matrix(1,0,0,1,319.83,745.501)">
                <path d="M0,2.67C-3.446,5.149 -14.564,7.498 -27.912,7.498C-44.001,7.498 -57.044,4.326 -57.044,1.069C-57.044,-2.188 -44.001,-4.828 -27.912,-4.828C-14.564,-4.828 -3.079,-4.54 -0.025,-1.591C0.388,-1.192 0.708,2.161 0,2.67" style="fill:rgb(59,140,174);fill-rule:nonzero;"/>
            </g>
            <g transform="matrix(1,0,0,1,319.963,744.575)">
                <path d="M0,0C0,3.379 -11.971,6.119 -26.737,6.119C-41.504,6.119 -53.474,3.379 -53.474,0C-53.474,-3.379 -41.504,-6.119 -26.737,-6.119C-11.971,-6.119 0,-3.379 0,0" style="fill:rgb(92,196,233);fill-rule:nonzero;"/>
            </g>
            <g transform="matrix(1,0,0,1,307.924,741.268)">
                <path d="M0,0.912C0,-0.263 -6.521,-1.216 -14.566,-1.216C-22.61,-1.216 -29.131,-0.263 -29.131,0.912C-29.131,1.364 -28.165,1.783 -26.519,2.128C-26.178,1.673 -20.957,1.311 -14.566,1.311C-8.174,1.311 -2.953,1.673 -2.612,2.128C-0.966,1.783 0,1.364 0,0.912" style="fill:rgb(59,140,174);fill-rule:nonzero;"/>
            </g>
            <g transform="matrix(1,0,0,1,293.358,744.308)">
                <path d="M0,-1.729C-6.391,-1.729 -11.612,-1.367 -11.954,-0.912C-9.321,-0.361 -4.949,0 0,0C4.949,0 9.321,-0.361 11.954,-0.912C11.612,-1.367 6.391,-1.729 0,-1.729" style="fill:rgb(0,71,81);fill-rule:nonzero;"/>
            </g>
            <g transform="matrix(1,0,0,1,294.799,756.488)">
                <rect x="0" y="0" width="1.685" height="46.533" style="fill:rgb(0,71,81);"/>
            </g>
            <g transform="matrix(1,0,0,1,291.526,803.012)">
                <path d="M0,-46.422L0,0.009L1.685,0.009L1.685,-46.431C1.202,-46.425 0.717,-46.421 0.228,-46.421C0.152,-46.421 0.076,-46.422 0,-46.422" style="fill:rgb(0,71,81);fill-rule:nonzero;"/>
            </g>
            <g transform="matrix(1,0,0,1,288.252,756.538)">
                <rect x="0" y="0" width="1.685" height="46.483" style="fill:rgb(0,71,81);"/>
            </g>
            <g transform="matrix(1,0,0,1,285.111,756.4)">
                <path d="M0,46.621L1.685,46.621L1.685,0.085C1.117,0.061 0.556,0.032 0,0L0,46.621Z" style="fill:rgb(0,71,81);fill-rule:nonzero;"/>
            </g>
            <g transform="matrix(1,0,0,1,282.103,756.182)">
                <path d="M0,46.839L1.685,46.839L1.685,0.133C1.116,0.093 0.554,0.048 0,0L0,46.839Z" style="fill:rgb(0,71,81);fill-rule:nonzero;"/>
            </g>
            <g transform="matrix(1,0,0,1,279.096,755.874)">
                <path d="M0,47.147L1.685,47.147L1.685,0.185C1.114,0.127 0.552,0.066 0,0L0,47.147Z" style="fill:rgb(0,71,81);fill-rule:nonzero;"/>
            </g>
            <g transform="matrix(1,0,0,1,298.036,756.296)">
                <path d="M0,46.725L1.685,46.725L1.685,0C1.13,0.041 0.568,0.079 0,0.112L0,46.725Z" style="fill:rgb(0,71,81);fill-rule:nonzero;"/>
            </g>
            <g transform="matrix(1,0,0,1,301.044,756.024)">
                <path d="M0,46.997L1.685,46.997L1.685,0C1.132,0.059 0.57,0.113 0,0.164L0,46.997Z" style="fill:rgb(0,71,81);fill-rule:nonzero;"/>
            </g>
            <g transform="matrix(1,0,0,1,304.052,755.653)">
                <path d="M0,47.368L1.685,47.368L1.685,0C1.135,0.077 0.573,0.151 0,0.22L0,47.368Z" style="fill:rgb(0,71,81);fill-rule:nonzero;"/>
            </g>
            <g transform="matrix(1,0,0,1,306.926,755.192)">
                <path d="M0,47.829L1.685,47.829L1.685,0C1.138,0.099 0.576,0.193 0,0.283L0,47.829Z" style="fill:rgb(0,71,81);fill-rule:nonzero;"/>
            </g>
            <g transform="matrix(1,0,0,1,309.735,754.684)">
                <path d="M0,48.337L1.406,48.337L1.406,0C0.951,0.102 0.482,0.2 0,0.296L0,48.337Z" style="fill:rgb(0,71,81);fill-rule:nonzero;"/>
            </g>
            <g transform="matrix(1,0,0,1,312.188,754.118)">
                <path d="M0,48.903L1.239,48.903L1.239,0C0.841,0.109 0.428,0.217 0,0.321L0,48.903Z" style="fill:rgb(0,71,81);fill-rule:nonzero;"/>
            </g>
            <g transform="matrix(1,0,0,1,314.139,753.585)">
                <path d="M0,49.436L1.057,49.436L1.057,0C0.719,0.112 0.367,0.222 0,0.33L0,49.436Z" style="fill:rgb(0,71,81);fill-rule:nonzero;"/>
            </g>
            <g transform="matrix(1,0,0,1,315.78,752.979)">
                <path d="M0,50.042L1.057,50.042L1.057,0C0.726,0.137 0.374,0.272 0,0.405L0,50.042Z" style="fill:rgb(0,71,81);fill-rule:nonzero;"/>
            </g>
            <g transform="matrix(1,0,0,1,317.465,752.31)">
                <path d="M0,50.711L0.788,50.711L0.788,0C0.546,0.133 0.283,0.265 0,0.395L0,50.711Z" style="fill:rgb(0,71,81);fill-rule:nonzero;"/>
            </g>
            <g transform="matrix(1,0,0,1,319.126,802.9)">
                <path d="M0,-51.138C-0.141,-51.034 -0.297,-50.931 -0.465,-50.828L-0.465,0.121L0.113,0.121L0.113,-51.259C0.079,-51.209 0.041,-51.168 0,-51.138" style="fill:rgb(0,71,81);fill-rule:nonzero;"/>
            </g>
            <g transform="matrix(1,0,0,1,312.087,716.158)">
                <path d="M0,-18.611C-1.054,-21.488 -5.106,-22.265 -6.339,-25.071C-9.503,-24.214 -12.625,-23.206 -15.692,-22.05C-17.36,-21.421 -19.056,-20.721 -20.341,-19.486C-21.433,-18.437 -22.156,-17.069 -22.788,-15.693C-23.342,-14.486 -23.804,-13.308 -24.196,-12.133C-24.791,-10.351 -25.22,-8.574 -25.543,-6.714C-25.746,-5.547 -25.91,-4.347 -26.045,-3.09C-26.244,-1.252 -25.914,1.327 -25.259,3.056C-24.604,4.785 -23.863,6.292 -22.017,6.4C-21.001,6.46 -20.011,6.103 -19.055,5.751C-15.434,4.415 -11.788,3.044 -8.545,0.951C-5.302,-1.141 -2.452,-4.038 -1.091,-7.65C-0.159,-10.123 0.036,-12.802 0.222,-15.438C0.297,-16.504 0.368,-17.608 0,-18.611" style="fill:white;fill-rule:nonzero;"/>
            </g>
            <g transform="matrix(1,0,0,1,299.704,720.509)">
                <path d="M0,1.75C-0.05,-0.322 -0.099,-2.395 -0.149,-4.467C-1.477,-5.003 -2.868,-5.253 -4.288,-5.321C-6.648,-5.434 -9.084,-5.045 -11.429,-4.635C-11.584,-2.435 -12.505,-0.354 -12.765,1.836C-12.975,3.613 -12.745,5.41 -12.516,7.184C-11.609,7.129 -10.736,6.66 -10.191,5.934C-10.065,5.767 -9.938,5.575 -9.736,5.524C-9.577,5.484 -9.411,5.544 -9.259,5.608C-8.341,5.995 -7.353,6.567 -6.416,6.23C-5.685,5.966 -5.16,5.184 -4.384,5.148C-3.713,5.117 -3.153,5.667 -2.493,5.792C-1.595,5.962 -0.711,5.281 -0.337,4.447C-0.278,4.316 -0.23,4.183 -0.189,4.047C0.031,3.316 0.018,2.521 0,1.75" style="fill:white;fill-rule:nonzero;"/>
            </g>
            <g transform="matrix(1,0,0,1,307.863,680.295)">
                <path d="M0,-1.084C-0.13,-1.835 -0.288,-2.205 0.355,-2.613C0.822,-2.91 1.178,-2.858 1.657,-3.135C1.974,-3.318 2.064,-3.363 2.228,-3.69C2.881,-4.995 4.239,-6.826 3.252,-7.901C2.265,-8.976 -1.181,-10.211 -2.358,-9.216C-3.171,-8.792 -3.888,-7.231 -4.34,-6.207C-4.778,-5.216 -5.235,-3.346 -5.163,-2.265C-4.932,1.196 -0.689,2.579 -1.241,6.002C-1.268,6.173 -1.304,6.342 -1.345,6.511C-0.69,6.197 -0.02,5.943 0.682,5.751C2.58,5.193 2.885,7.445 2.855,9.127C3.085,7.807 3.223,6.429 3.225,5.625C3.231,2.825 0.34,0.88 0,-1.084" style="fill:rgb(35,31,32);fill-rule:nonzero;"/>
            </g>
            <g transform="matrix(1,0,0,1,308.545,695.996)">
                <path d="M0,-9.95C-0.702,-9.759 -1.372,-9.504 -2.028,-9.191C-2.6,-6.872 -4.449,-4.742 -5.881,-2.448C-5.976,-2.297 -5.711,-2.089 -5.639,-1.925C-5.555,-1.734 -5.344,-1.638 -5.151,-1.56C-3.95,-1.071 -2.749,-0.582 -1.549,-0.094C-1.434,-0.047 -1.31,0.001 -1.189,-0.029C-1.021,-0.069 -0.126,0.558 -0.049,0.404C0.514,-0.724 0.812,-2.517 1.375,-3.645C1.693,-4.282 1.969,-5.405 2.173,-6.574C2.203,-8.256 1.898,-10.508 0,-9.95" style="fill:white;fill-rule:nonzero;"/>
            </g>
            <g transform="matrix(1,0,0,1,300.668,736.666)">
                <path d="M0,7.353L1.846,7.215C1.874,6.776 1.683,6.49 1.584,6.061C1.342,5.014 1.688,3.851 2.464,3.107C3.239,2.362 4.502,2.424 5.704,2.579C5.719,2.03 5.446,1.252 5.388,0.706C5.368,0.511 5.333,0.299 5.187,0.168C5.001,0 4.699,0.038 4.491,0.177C4.283,0.316 4.144,0.533 3.995,0.734C3.55,1.333 2.97,1.832 2.312,2.183C1.754,2.48 1.138,2.674 0.622,3.04C-0.04,3.511 -0.497,4.259 -0.613,5.063C-0.729,5.867 -0.502,6.715 0,7.353" style="fill:rgb(35,31,32);fill-rule:nonzero;"/>
            </g>
            <g transform="matrix(1,0,0,1,294.089,743.149)">
                <path d="M0,-5.471C-0.422,-5.349 -0.82,-5.212 -1.106,-4.789C-1.354,-4.424 -1.467,-3.984 -1.539,-3.548C-1.758,-2.223 -1.925,0.842 -0.094,0.972C0.049,0.982 0.202,0.986 0.326,0.913C0.575,0.766 0.571,0.412 0.542,0.124C0.419,-1.091 -0.127,-2.451 -0.031,-3.669C-0.007,-3.966 0.176,-4.3 0.419,-4.474C0.562,-4.576 1.145,-4.6 1.32,-4.62C1.662,-4.661 2.004,-4.568 2.346,-4.609C2.444,-4.62 2.552,-4.636 2.618,-4.71C2.692,-4.791 2.69,-4.913 2.684,-5.023C2.666,-5.344 2.644,-5.678 2.489,-5.96C2.335,-6.243 2.006,-6.457 1.695,-6.374C1.528,-6.329 1.343,-6.207 1.201,-6.306C1.174,-6.046 0.973,-5.829 0.735,-5.719C0.493,-5.606 0.243,-5.541 0,-5.471" style="fill:rgb(35,31,32);fill-rule:nonzero;"/>
            </g>
            <g transform="matrix(1,0,0,1,287.987,707.147)">
                <path d="M0,13.905C-0.506,14.094 -1.28,14.118 -1.375,13.624C-1.408,13.456 -1.336,13.285 -1.266,13.125C-0.541,11.483 0.183,9.841 0.907,8.199C-1.061,9.164 -3.297,9.638 -5.5,9.558C-5.513,9.028 -4.911,8.685 -4.408,8.427C-2.436,7.414 -0.753,5.909 0.413,4.116C-1.522,4.617 -3.387,5.367 -5.112,6.336C-5.363,6.009 -5.017,5.571 -4.696,5.291C-1.859,2.825 0.977,0.358 3.813,-2.109C3.247,-1.401 3.382,-0.301 4.102,0.248C4.822,0.796 6.013,0.706 6.653,0.055C6.504,0.852 6.77,1.652 7.019,2.421C7.56,4.093 8.03,5.787 8.427,7.497C8.746,8.872 9.006,10.365 8.367,11.659C7.877,12.653 6.924,13.379 5.994,14.052C5.368,14.507 4.736,14.955 4.1,15.397C3.582,15.757 2.659,16.014 2.468,15.449C2.401,15.248 2.484,15.03 2.566,14.831C3.106,13.529 3.645,12.227 4.184,10.924C3.113,12.246 1.647,13.291 0,13.905" style="fill:rgb(35,31,32);fill-rule:nonzero;"/>
            </g>
            <g transform="matrix(1,0,0,1,308.851,673.63)">
                <path d="M0,0C0,0.49 -0.397,0.887 -0.887,0.887C-1.377,0.887 -1.774,0.49 -1.774,0C-1.774,-0.49 -1.377,-0.887 -0.887,-0.887C-0.397,-0.887 0,-0.49 0,0" style="fill:white;fill-rule:nonzero;"/>
            </g>
        </g>
    </g>
</svg>
